                                 Started job on |	Dec 02 21:34:38
                             Started mapping on |	Dec 02 21:38:11
                                    Finished on |	Dec 02 21:42:01
       Mapping speed, Million of reads per hour |	442.55

                          Number of input reads |	28273761
                      Average input read length |	97
                                    UNIQUE READS:
                   Uniquely mapped reads number |	22150499
                        Uniquely mapped reads % |	78.34%
                          Average mapped length |	95.72
                       Number of splices: Total |	7922922
            Number of splices: Annotated (sjdb) |	7899662
                       Number of splices: GT/AG |	7835312
                       Number of splices: GC/AG |	61213
                       Number of splices: AT/AC |	3607
               Number of splices: Non-canonical |	22790
                      Mismatch rate per base, % |	0.73%
                         Deletion rate per base |	0.01%
                        Deletion average length |	1.82
                        Insertion rate per base |	0.02%
                       Insertion average length |	1.19
                             MULTI-MAPPING READS:
        Number of reads mapped to multiple loci |	2121181
             % of reads mapped to multiple loci |	7.50%
        Number of reads mapped to too many loci |	95408
             % of reads mapped to too many loci |	0.34%
                                  UNMAPPED READS:
       % of reads unmapped: too many mismatches |	0.00%
                 % of reads unmapped: too short |	13.68%
                     % of reads unmapped: other |	0.14%
                                  CHIMERIC READS:
                       Number of chimeric reads |	0
                            % of chimeric reads |	0.00%
