           Time    Speed        Read     Read   Mapped   Mapped   Mapped   Mapped Unmapped Unmapped Unmapped Unmapped
                    M/hr      number   length   unique   length   MMrate    multi   multi+       MM    short    other
Dec 02 21:27:14	Started 1st pass mapping
Dec 02 21:27:25     63.1      192658       96    79.1%     96.0     0.9%     6.7%     0.3%     0.0%    13.8%     0.1%
Dec 02 21:28:25    757.7    14944127       96    79.5%     95.5     0.6%     6.8%     0.3%     0.0%    13.3%     0.1%
Dec 02 21:29:10	Finished 1st pass mapping
Dec 02 21:31:12    368.8     6146686       96    79.3%     95.3     0.6%     6.9%     0.3%     0.0%    13.3%     0.2%
Dec 02 21:32:12    425.4    14181451       97    79.4%     95.6     0.6%     6.9%     0.3%     0.0%    13.2%     0.1%
Dec 02 21:33:12    436.3    21812894       95    79.0%     94.6     0.7%     6.9%     0.3%     0.0%    13.6%     0.1%
ALL DONE!
