           Time    Speed        Read     Read   Mapped   Mapped   Mapped   Mapped Unmapped Unmapped Unmapped Unmapped
                    M/hr      number   length   unique   length   MMrate    multi   multi+       MM    short    other
Dec 02 21:27:41	Started 1st pass mapping
Dec 02 21:27:51     70.0      194352       97    77.0%     96.4     0.7%     8.8%     0.4%     0.0%    13.6%     0.2%
Dec 02 21:28:51    846.9    16466597       97    77.2%     96.4     0.6%     8.9%     0.4%     0.0%    13.4%     0.2%
Dec 02 21:29:39	Finished 1st pass mapping
Dec 02 21:31:45    403.3     6721104       96    76.8%     95.5     0.6%     9.1%     0.4%     0.0%    13.4%     0.2%
Dec 02 21:32:45    425.3    14177101       97    77.0%     96.3     0.6%     9.1%     0.4%     0.0%    13.3%     0.2%
Dec 02 21:33:46    429.9    21616922       97    76.8%     96.1     0.7%     9.1%     0.4%     0.0%    13.5%     0.2%
ALL DONE!
