STAR version=STAR_2.5.2b
STAR compilation time,server,dir=Thu Aug 25 17:56:23 EDT 2016 florence.cshl.edu:/sonas-hs/gingeras/nlsas_norepl/user/dobin/STAR/STAR.sandbox/source
##### DEFAULT parameters:
versionSTAR                       20201
versionGenome                     20101   20200   
parametersFiles                   -   
sysShell                          -
runMode                           alignReads
runThreadN                        1
runDirPerm                        User_RWX
runRNGseed                        777
genomeDir                         ./GenomeDir/
genomeLoad                        NoSharedMemory
genomeFastaFiles                  -   
genomeSAindexNbases               14
genomeChrBinNbits                 18
genomeSAsparseD                   1
genomeSuffixLengthMax             18446744073709551615
readFilesIn                       Read1   Read2   
readFilesCommand                  -   
readMatesLengthsIn                NotEqual
readMapNumber                     18446744073709551615
readNameSeparator                 /   
inputBAMfile                      -
bamRemoveDuplicatesType           -
bamRemoveDuplicatesMate2basesN    0
limitGenomeGenerateRAM            31000000000
limitIObufferSize                 150000000
limitOutSAMoneReadBytes           100000
limitOutSJcollapsed               1000000
limitOutSJoneRead                 1000
limitBAMsortRAM                   0
limitSjdbInsertNsj                1000000
outTmpDir                         -
outTmpKeep                        None
outStd                            Log
outReadsUnmapped                  None
outQSconversionAdd                0
outMultimapperOrder               Old_2.4
outSAMtype                        SAM   
outSAMmode                        Full
outSAMstrandField                 None
outSAMattributes                  Standard   
outSAMunmapped                    None   
outSAMorder                       Paired
outSAMprimaryFlag                 OneBestScore
outSAMreadID                      Standard
outSAMmapqUnique                  255
outSAMflagOR                      0
outSAMflagAND                     65535
outSAMattrRGline                  -   
outSAMheaderHD                    -   
outSAMheaderPG                    -   
outSAMheaderCommentFile           -
outBAMcompression                 1
outBAMsortingThreadN              0
outSAMfilter                      None   
outSAMmultNmax                    18446744073709551615
outSAMattrIHstart                 1
outSJfilterReads                  All
outSJfilterCountUniqueMin         3   1   1   1   
outSJfilterCountTotalMin          3   1   1   1   
outSJfilterOverhangMin            30   12   12   12   
outSJfilterDistToOtherSJmin       10   0   5   10   
outSJfilterIntronMaxVsReadN       50000   100000   200000   
outWigType                        None   
outWigStrand                      Stranded   
outWigReferencesPrefix            -
outWigNorm                        RPM   
outFilterType                     Normal
outFilterMultimapNmax             10
outFilterMultimapScoreRange       1
outFilterScoreMin                 0
outFilterScoreMinOverLread        0.66
outFilterMatchNmin                0
outFilterMatchNminOverLread       0.66
outFilterMismatchNmax             10
outFilterMismatchNoverLmax        0.3
outFilterMismatchNoverReadLmax    1
outFilterIntronMotifs             None
clip5pNbases                      0   
clip3pNbases                      0   
clip3pAfterAdapterNbases          0   
clip3pAdapterSeq                  -   
clip3pAdapterMMp                  0.1   
winBinNbits                       16
winAnchorDistNbins                9
winFlankNbins                     4
winAnchorMultimapNmax             50
winReadCoverageRelativeMin        0.5
winReadCoverageBasesMin           0
scoreGap                          0
scoreGapNoncan                    -8
scoreGapGCAG                      -4
scoreGapATAC                      -8
scoreStitchSJshift                1
scoreGenomicLengthLog2scale       -0.25
scoreDelBase                      -2
scoreDelOpen                      -2
scoreInsOpen                      -2
scoreInsBase                      -2
seedSearchLmax                    0
seedSearchStartLmax               50
seedSearchStartLmaxOverLread      1
seedPerReadNmax                   1000
seedPerWindowNmax                 50
seedNoneLociPerWindow             10
seedMultimapNmax                  10000
alignIntronMin                    21
alignIntronMax                    0
alignMatesGapMax                  0
alignTranscriptsPerReadNmax       10000
alignSJoverhangMin                5
alignSJDBoverhangMin              3
alignSJstitchMismatchNmax         0   -1   0   0   
alignSplicedMateMapLmin           0
alignSplicedMateMapLminOverLmate    0.66
alignWindowsPerReadNmax           10000
alignTranscriptsPerWindowNmax     100
alignEndsType                     Local
alignSoftClipAtReferenceEnds      Yes
alignEndsProtrude                 0   ConcordantPair   
chimSegmentMin                    0
chimScoreMin                      0
chimScoreDropMax                  20
chimScoreSeparation               10
chimScoreJunctionNonGTAG          -1
chimJunctionOverhangMin           20
chimOutType                       SeparateSAMold
chimFilter                        banGenomicN   
chimSegmentReadGapMax             0
sjdbFileChrStartEnd               -   
sjdbGTFfile                       -
sjdbGTFchrPrefix                  -
sjdbGTFfeatureExon                exon
sjdbGTFtagExonParentTranscript    transcript_id
sjdbGTFtagExonParentGene          gene_id
sjdbOverhang                      100
sjdbScore                         2
sjdbInsertSave                    Basic
quantMode                         -   
quantTranscriptomeBAMcompression    1
quantTranscriptomeBan             IndelSoftclipSingleend
twopass1readsN                    18446744073709551615
twopassMode                       None
##### Command Line:
/gpfs/gpfs1/software/STAR_2.5.2b/bin/Linux_x86_64_static/STAR --quantMode TranscriptomeSAM GeneCounts --runThreadN 12 --genomeDir /gpfs/gpfs1/myerslab/reference/genomes/rnaseq_pipeline//genomes_processed/ZF_GRCz10_E83/STAR_genome --readFilesIn /gpfs/gpfs1/home/aalonso/test_datasets/zebrafish/results_trimgalore/D06BVACXX_s1_1_nextera12index_2_SL7125.fastq.gz /gpfs/gpfs1/home/aalonso/test_datasets/zebrafish/results_trimgalore/D06BVACXX_s1_2_nextera12index_2_SL7125.fastq.gz --outFileNamePrefix /gpfs/gpfs1/home/aalonso/test_datasets/zebrafish/results_star/ZF_14_ --readFilesCommand zcat --twopassMode Basic
##### Initial USER parameters from Command Line:
outFileNamePrefix                 /gpfs/gpfs1/home/aalonso/test_datasets/zebrafish/results_star/ZF_14_
###### All USER parameters from Command Line:
quantMode                     TranscriptomeSAM   GeneCounts        ~RE-DEFINED
runThreadN                    12     ~RE-DEFINED
genomeDir                     /gpfs/gpfs1/myerslab/reference/genomes/rnaseq_pipeline//genomes_processed/ZF_GRCz10_E83/STAR_genome     ~RE-DEFINED
readFilesIn                   /gpfs/gpfs1/home/aalonso/test_datasets/zebrafish/results_trimgalore/D06BVACXX_s1_1_nextera12index_2_SL7125.fastq.gz   /gpfs/gpfs1/home/aalonso/test_datasets/zebrafish/results_trimgalore/D06BVACXX_s1_2_nextera12index_2_SL7125.fastq.gz        ~RE-DEFINED
outFileNamePrefix             /gpfs/gpfs1/home/aalonso/test_datasets/zebrafish/results_star/ZF_14_     ~RE-DEFINED
readFilesCommand              zcat        ~RE-DEFINED
twopassMode                   Basic     ~RE-DEFINED
##### Finished reading parameters from all sources

##### Final user re-defined parameters-----------------:
runThreadN                        12
genomeDir                         /gpfs/gpfs1/myerslab/reference/genomes/rnaseq_pipeline//genomes_processed/ZF_GRCz10_E83/STAR_genome
readFilesIn                       /gpfs/gpfs1/home/aalonso/test_datasets/zebrafish/results_trimgalore/D06BVACXX_s1_1_nextera12index_2_SL7125.fastq.gz   /gpfs/gpfs1/home/aalonso/test_datasets/zebrafish/results_trimgalore/D06BVACXX_s1_2_nextera12index_2_SL7125.fastq.gz   
readFilesCommand                  zcat   
outFileNamePrefix                 /gpfs/gpfs1/home/aalonso/test_datasets/zebrafish/results_star/ZF_14_
quantMode                         TranscriptomeSAM   GeneCounts   
twopassMode                       Basic

-------------------------------
##### Final effective command line:
/gpfs/gpfs1/software/STAR_2.5.2b/bin/Linux_x86_64_static/STAR   --runThreadN 12   --genomeDir /gpfs/gpfs1/myerslab/reference/genomes/rnaseq_pipeline//genomes_processed/ZF_GRCz10_E83/STAR_genome   --readFilesIn /gpfs/gpfs1/home/aalonso/test_datasets/zebrafish/results_trimgalore/D06BVACXX_s1_1_nextera12index_2_SL7125.fastq.gz   /gpfs/gpfs1/home/aalonso/test_datasets/zebrafish/results_trimgalore/D06BVACXX_s1_2_nextera12index_2_SL7125.fastq.gz      --readFilesCommand zcat      --outFileNamePrefix /gpfs/gpfs1/home/aalonso/test_datasets/zebrafish/results_star/ZF_14_   --quantMode TranscriptomeSAM   GeneCounts      --twopassMode Basic

##### Final parameters after user input--------------------------------:
versionSTAR                       20201
versionGenome                     20101   20200   
parametersFiles                   -   
sysShell                          -
runMode                           alignReads
runThreadN                        12
runDirPerm                        User_RWX
runRNGseed                        777
genomeDir                         /gpfs/gpfs1/myerslab/reference/genomes/rnaseq_pipeline//genomes_processed/ZF_GRCz10_E83/STAR_genome
genomeLoad                        NoSharedMemory
genomeFastaFiles                  -   
genomeSAindexNbases               14
genomeChrBinNbits                 18
genomeSAsparseD                   1
genomeSuffixLengthMax             18446744073709551615
readFilesIn                       /gpfs/gpfs1/home/aalonso/test_datasets/zebrafish/results_trimgalore/D06BVACXX_s1_1_nextera12index_2_SL7125.fastq.gz   /gpfs/gpfs1/home/aalonso/test_datasets/zebrafish/results_trimgalore/D06BVACXX_s1_2_nextera12index_2_SL7125.fastq.gz   
readFilesCommand                  zcat   
readMatesLengthsIn                NotEqual
readMapNumber                     18446744073709551615
readNameSeparator                 /   
inputBAMfile                      -
bamRemoveDuplicatesType           -
bamRemoveDuplicatesMate2basesN    0
limitGenomeGenerateRAM            31000000000
limitIObufferSize                 150000000
limitOutSAMoneReadBytes           100000
limitOutSJcollapsed               1000000
limitOutSJoneRead                 1000
limitBAMsortRAM                   0
limitSjdbInsertNsj                1000000
outFileNamePrefix                 /gpfs/gpfs1/home/aalonso/test_datasets/zebrafish/results_star/ZF_14_
outTmpDir                         -
outTmpKeep                        None
outStd                            Log
outReadsUnmapped                  None
outQSconversionAdd                0
outMultimapperOrder               Old_2.4
outSAMtype                        SAM   
outSAMmode                        Full
outSAMstrandField                 None
outSAMattributes                  Standard   
outSAMunmapped                    None   
outSAMorder                       Paired
outSAMprimaryFlag                 OneBestScore
outSAMreadID                      Standard
outSAMmapqUnique                  255
outSAMflagOR                      0
outSAMflagAND                     65535
outSAMattrRGline                  -   
outSAMheaderHD                    -   
outSAMheaderPG                    -   
outSAMheaderCommentFile           -
outBAMcompression                 1
outBAMsortingThreadN              0
outSAMfilter                      None   
outSAMmultNmax                    18446744073709551615
outSAMattrIHstart                 1
outSJfilterReads                  All
outSJfilterCountUniqueMin         3   1   1   1   
outSJfilterCountTotalMin          3   1   1   1   
outSJfilterOverhangMin            30   12   12   12   
outSJfilterDistToOtherSJmin       10   0   5   10   
outSJfilterIntronMaxVsReadN       50000   100000   200000   
outWigType                        None   
outWigStrand                      Stranded   
outWigReferencesPrefix            -
outWigNorm                        RPM   
outFilterType                     Normal
outFilterMultimapNmax             10
outFilterMultimapScoreRange       1
outFilterScoreMin                 0
outFilterScoreMinOverLread        0.66
outFilterMatchNmin                0
outFilterMatchNminOverLread       0.66
outFilterMismatchNmax             10
outFilterMismatchNoverLmax        0.3
outFilterMismatchNoverReadLmax    1
outFilterIntronMotifs             None
clip5pNbases                      0   
clip3pNbases                      0   
clip3pAfterAdapterNbases          0   
clip3pAdapterSeq                  -   
clip3pAdapterMMp                  0.1   
winBinNbits                       16
winAnchorDistNbins                9
winFlankNbins                     4
winAnchorMultimapNmax             50
winReadCoverageRelativeMin        0.5
winReadCoverageBasesMin           0
scoreGap                          0
scoreGapNoncan                    -8
scoreGapGCAG                      -4
scoreGapATAC                      -8
scoreStitchSJshift                1
scoreGenomicLengthLog2scale       -0.25
scoreDelBase                      -2
scoreDelOpen                      -2
scoreInsOpen                      -2
scoreInsBase                      -2
seedSearchLmax                    0
seedSearchStartLmax               50
seedSearchStartLmaxOverLread      1
seedPerReadNmax                   1000
seedPerWindowNmax                 50
seedNoneLociPerWindow             10
seedMultimapNmax                  10000
alignIntronMin                    21
alignIntronMax                    0
alignMatesGapMax                  0
alignTranscriptsPerReadNmax       10000
alignSJoverhangMin                5
alignSJDBoverhangMin              3
alignSJstitchMismatchNmax         0   -1   0   0   
alignSplicedMateMapLmin           0
alignSplicedMateMapLminOverLmate    0.66
alignWindowsPerReadNmax           10000
alignTranscriptsPerWindowNmax     100
alignEndsType                     Local
alignSoftClipAtReferenceEnds      Yes
alignEndsProtrude                 0   ConcordantPair   
chimSegmentMin                    0
chimScoreMin                      0
chimScoreDropMax                  20
chimScoreSeparation               10
chimScoreJunctionNonGTAG          -1
chimJunctionOverhangMin           20
chimOutType                       SeparateSAMold
chimFilter                        banGenomicN   
chimSegmentReadGapMax             0
sjdbFileChrStartEnd               -   
sjdbGTFfile                       -
sjdbGTFchrPrefix                  -
sjdbGTFfeatureExon                exon
sjdbGTFtagExonParentTranscript    transcript_id
sjdbGTFtagExonParentGene          gene_id
sjdbOverhang                      100
sjdbScore                         2
sjdbInsertSave                    Basic
quantMode                         TranscriptomeSAM   GeneCounts   
quantTranscriptomeBAMcompression    1
quantTranscriptomeBan             IndelSoftclipSingleend
twopass1readsN                    18446744073709551615
twopassMode                       Basic
----------------------------------------


   Input read files for mate 1, from input string /gpfs/gpfs1/home/aalonso/test_datasets/zebrafish/results_trimgalore/D06BVACXX_s1_1_nextera12index_2_SL7125.fastq.gz
-rw-r--r-- 1 aalonso myers-lab 2418524856 Dec  2 21:10 /gpfs/gpfs1/home/aalonso/test_datasets/zebrafish/results_trimgalore/D06BVACXX_s1_1_nextera12index_2_SL7125.fastq.gz

   readsCommandsFile:
exec > "/gpfs/gpfs1/home/aalonso/test_datasets/zebrafish/results_star/ZF_14__STARtmp/tmp.fifo.read1"
echo FILE 0
zcat      "/gpfs/gpfs1/home/aalonso/test_datasets/zebrafish/results_trimgalore/D06BVACXX_s1_1_nextera12index_2_SL7125.fastq.gz"


   Input read files for mate 2, from input string /gpfs/gpfs1/home/aalonso/test_datasets/zebrafish/results_trimgalore/D06BVACXX_s1_2_nextera12index_2_SL7125.fastq.gz
-rw-r--r-- 1 aalonso myers-lab 2364864968 Dec  2 21:10 /gpfs/gpfs1/home/aalonso/test_datasets/zebrafish/results_trimgalore/D06BVACXX_s1_2_nextera12index_2_SL7125.fastq.gz

   readsCommandsFile:
exec > "/gpfs/gpfs1/home/aalonso/test_datasets/zebrafish/results_star/ZF_14__STARtmp/tmp.fifo.read2"
echo FILE 0
zcat      "/gpfs/gpfs1/home/aalonso/test_datasets/zebrafish/results_trimgalore/D06BVACXX_s1_2_nextera12index_2_SL7125.fastq.gz"

Finished loading and checking parameters
Reading genome generation parameters:
versionGenome                 20201        ~RE-DEFINED
genomeFastaFiles              raw_annotations/Danio_rerio.GRCz10.dna.toplevel.fa        ~RE-DEFINED
genomeSAindexNbases           14     ~RE-DEFINED
genomeChrBinNbits             18     ~RE-DEFINED
genomeSAsparseD               1     ~RE-DEFINED
sjdbOverhang                  100     ~RE-DEFINED
sjdbFileChrStartEnd           -        ~RE-DEFINED
sjdbGTFfile                   raw_annotations/Danio_rerio.GRCz10.83.gtf     ~RE-DEFINED
sjdbGTFchrPrefix              -     ~RE-DEFINED
sjdbGTFfeatureExon            exon     ~RE-DEFINED
sjdbGTFtagExonParentTranscripttranscript_id     ~RE-DEFINED
sjdbGTFtagExonParentGene      gene_id     ~RE-DEFINED
sjdbInsertSave                Basic     ~RE-DEFINED
Genome version is compatible with current STAR version
Number of real (reference) chromosomes= 1061
1	1	58871917	0
2	10	45574255	58982400
3	11	45107271	104595456
4	12	49229541	149946368
5	13	51780250	199229440
6	14	51944548	251133952
7	15	47771147	303300608
8	16	55381981	351272960
9	17	53345113	406847488
10	18	51008593	460324864
11	19	48790377	511442944
12	2	59543403	560463872
13	20	55370968	620232704
14	21	45895719	675807232
15	22	39226288	721944576
16	23	46272358	761266176
17	24	42251103	807665664
18	25	36898761	850132992
19	3	62385949	887095296
20	4	76625712	949485568
21	5	71715914	1026293760
22	6	60272633	1098121216
23	7	74082188	1158414336
24	8	54191831	1232601088
25	9	56892771	1286864896
26	MT	16596	1344012288
27	KN149696.1	368637	1344274432
28	KN149690.1	343018	1344798720
29	KN150474.1	312116	1345323008
30	KN150681.1	279222	1345847296
31	KN150460.1	266772	1346371584
32	KN149686.1	260365	1346895872
33	KN149688.1	252705	1347158016
34	KN149691.1	233193	1347420160
35	KN150702.1	212296	1347682304
36	KN149689.1	196689	1347944448
37	KN149695.1	190731	1348206592
38	KN150691.1	184625	1348468736
39	KN149687.1	165668	1348730880
40	KN149685.1	164780	1348993024
41	KN150214.1	162877	1349255168
42	KN149694.1	162759	1349517312
43	KN149684.1	159057	1349779456
44	KN149683.1	152860	1350041600
45	KN150230.1	149710	1350303744
46	KN150608.1	149650	1350565888
47	KN150046.1	148772	1350828032
48	KN149910.1	142061	1351090176
49	KN150171.1	140649	1351352320
50	KN149682.1	137468	1351614464
51	KN149962.1	136181	1351876608
52	KN149966.1	131566	1352138752
53	KN149847.1	130903	1352400896
54	KN150048.1	128109	1352663040
55	KN150435.1	123991	1352925184
56	KN150487.1	123701	1353187328
57	KN150207.1	117821	1353449472
58	KN149948.1	117499	1353711616
59	KN149790.1	115850	1353973760
60	KN149778.1	111598	1354235904
61	KN150375.1	111208	1354498048
62	KN150222.1	110669	1354760192
63	KN150425.1	110593	1355022336
64	KN150326.1	109565	1355284480
65	KN149698.1	108577	1355546624
66	KN150568.1	108195	1355808768
67	KN150129.1	107891	1356070912
68	KN149681.1	107758	1356333056
69	KN150672.1	107610	1356595200
70	KN150158.1	106536	1356857344
71	KN150021.1	103967	1357119488
72	KN150578.1	103698	1357381632
73	KN150520.1	103159	1357643776
74	KN150605.1	102574	1357905920
75	KN149797.1	102101	1358168064
76	KN149702.1	100325	1358430208
77	KN149930.1	98773	1358692352
78	KN150603.1	98280	1358954496
79	KN149748.1	96570	1359216640
80	KN149984.1	96477	1359478784
81	KN150258.1	95885	1359740928
82	KN150204.1	95149	1360003072
83	KN149895.1	92930	1360265216
84	KN150432.1	91010	1360527360
85	KN149826.1	90482	1360789504
86	KN150658.1	90387	1361051648
87	KN150617.1	90208	1361313792
88	KN150431.1	89659	1361575936
89	KN149932.1	89521	1361838080
90	KN149904.1	89156	1362100224
91	KN150196.1	89077	1362362368
92	KN150616.1	88699	1362624512
93	KN150663.1	88608	1362886656
94	KN150630.1	86421	1363148800
95	KN149963.1	83881	1363410944
96	KN150125.1	83315	1363673088
97	KN149968.1	82990	1363935232
98	KN150342.1	82590	1364197376
99	KN150133.1	82225	1364459520
100	KN150529.1	81946	1364721664
101	KN150273.1	81940	1364983808
102	KN150262.1	81659	1365245952
103	KN150649.1	81249	1365508096
104	KN150060.1	80234	1365770240
105	KN150099.1	79937	1366032384
106	KN150700.1	79542	1366294528
107	KN150712.1	79012	1366556672
108	KN150266.1	78263	1366818816
109	KN150107.1	78223	1367080960
110	KN150646.1	78076	1367343104
111	KN150670.1	77993	1367605248
112	KN149912.1	77979	1367867392
113	KN150267.1	77778	1368129536
114	KN150405.1	76919	1368391680
115	KN150471.1	76663	1368653824
116	KN149939.1	76611	1368915968
117	KN150022.1	76538	1369178112
118	KN150456.1	76246	1369440256
119	KN150339.1	75108	1369702400
120	KN149998.1	74724	1369964544
121	KN149714.1	74622	1370226688
122	KN150552.1	74050	1370488832
123	KN149784.1	73829	1370750976
124	KN150455.1	73536	1371013120
125	KN150359.1	71383	1371275264
126	KN150038.1	71326	1371537408
127	KN150131.1	70868	1371799552
128	KN150415.1	70574	1372061696
129	KN150346.1	70538	1372323840
130	KN149725.1	69829	1372585984
131	KN150000.1	69737	1372848128
132	KN150176.1	69061	1373110272
133	KN150098.1	68279	1373372416
134	KN150442.1	67738	1373634560
135	KN150122.1	67534	1373896704
136	KN150677.1	66956	1374158848
137	KN149952.1	66365	1374420992
138	KN150709.1	65370	1374683136
139	KN149718.1	65247	1374945280
140	KN149880.1	64889	1375207424
141	KN150618.1	64127	1375469568
142	KN149949.1	64126	1375731712
143	KN150666.1	63484	1375993856
144	KN150068.1	62725	1376256000
145	KN150449.1	62607	1376518144
146	KN150477.1	61693	1376780288
147	KN150031.1	60899	1377042432
148	KN150596.1	60847	1377304576
149	KN150241.1	60821	1377566720
150	KN149959.1	59274	1377828864
151	KN150476.1	59211	1378091008
152	KN149813.1	59009	1378353152
153	KN150105.1	58062	1378615296
154	KN150041.1	58003	1378877440
155	KN149992.1	57912	1379139584
156	KN149990.1	57651	1379401728
157	KN150030.1	57074	1379663872
158	KN150106.1	56524	1379926016
159	KN150033.1	56448	1380188160
160	KN150653.1	55997	1380450304
161	KN149723.1	55784	1380712448
162	KN150170.1	55716	1380974592
163	KN150642.1	55536	1381236736
164	KN150118.1	54494	1381498880
165	KN150667.1	54201	1381761024
166	KN150361.1	53624	1382023168
167	KN150232.1	53540	1382285312
168	KN149859.1	53306	1382547456
169	KN150104.1	53188	1382809600
170	KN149769.1	53048	1383071744
171	KN150123.1	51978	1383333888
172	KN149884.1	51715	1383596032
173	KN150606.1	51696	1383858176
174	KN150676.1	51674	1384120320
175	KN149739.1	51610	1384382464
176	KN150265.1	51555	1384644608
177	KN150584.1	51535	1384906752
178	KN150347.1	51528	1385168896
179	KN149812.1	51419	1385431040
180	KN150077.1	51360	1385693184
181	KN149710.1	50974	1385955328
182	KN150173.1	50946	1386217472
183	KN149868.1	50629	1386479616
184	KN149831.1	50343	1386741760
185	KN150259.1	50098	1387003904
186	KN150592.1	50000	1387266048
187	KN150351.1	49608	1387528192
188	KN150567.1	49566	1387790336
189	KN150083.1	49514	1388052480
190	KN150166.1	49457	1388314624
191	KN150136.1	49373	1388576768
192	KN150516.1	49339	1388838912
193	KN149693.1	49295	1389101056
194	KN149865.1	49167	1389363200
195	KN150336.1	48672	1389625344
196	KN150117.1	48543	1389887488
197	KN150479.1	48186	1390149632
198	KN149704.1	48089	1390411776
199	KN150269.1	48062	1390673920
200	KN150703.1	48009	1390936064
201	KN150402.1	47971	1391198208
202	KN149717.1	47589	1391460352
203	KN149719.1	47531	1391722496
204	KN150179.1	47473	1391984640
205	KN149840.1	46864	1392246784
206	KN150079.1	46800	1392508928
207	KN149760.1	46605	1392771072
208	KN149953.1	46218	1393033216
209	KN150497.1	46188	1393295360
210	KN150548.1	46061	1393557504
211	KN150459.1	45603	1393819648
212	KN150427.1	45580	1394081792
213	KN150049.1	45008	1394343936
214	KN150331.1	44968	1394606080
215	KN150243.1	44953	1394868224
216	KN149870.1	44680	1395130368
217	KN150148.1	44589	1395392512
218	KN150335.1	44504	1395654656
219	KN149858.1	44054	1395916800
220	KN150252.1	43133	1396178944
221	KN149958.1	43073	1396441088
222	KN150244.1	42860	1396703232
223	KN150348.1	42704	1396965376
224	KN150708.1	42677	1397227520
225	KN150191.1	42303	1397489664
226	KN150570.1	42279	1397751808
227	KN149716.1	42229	1398013952
228	KN149800.1	42049	1398276096
229	KN150619.1	41925	1398538240
230	KN150675.1	41858	1398800384
231	KN150557.1	41459	1399062528
232	KN150466.1	41319	1399324672
233	KN149697.1	40969	1399586816
234	KN150293.1	40764	1399848960
235	KN150172.1	40634	1400111104
236	KN150518.1	40394	1400373248
237	KN149754.1	40214	1400635392
238	KN149749.1	40089	1400897536
239	KN149909.1	40056	1401159680
240	KN149700.1	40050	1401421824
241	KN150376.1	39971	1401683968
242	KN149787.1	39794	1401946112
243	KN150638.1	39727	1402208256
244	KN150637.1	39689	1402470400
245	KN150398.1	39557	1402732544
246	KN150566.1	39318	1402994688
247	KN150303.1	39288	1403256832
248	KN150505.1	39265	1403518976
249	KN149906.1	38987	1403781120
250	KN150189.1	38868	1404043264
251	KN149680.1	38724	1404305408
252	KN149987.1	38433	1404567552
253	KN149759.1	38290	1404829696
254	KN150511.1	38183	1405091840
255	KN149929.1	38097	1405353984
256	KN150035.1	38086	1405616128
257	KN150080.1	37662	1405878272
258	KN150547.1	37420	1406140416
259	KN150609.1	37413	1406402560
260	KN150408.1	37191	1406664704
261	KN150385.1	37055	1406926848
262	KN149692.1	36911	1407188992
263	KN150137.1	36779	1407451136
264	KN149923.1	36729	1407713280
265	KN150306.1	36728	1407975424
266	KN150255.1	36661	1408237568
267	KN150091.1	36410	1408499712
268	KN150631.1	36324	1408761856
269	KN150576.1	36129	1409024000
270	KN149782.1	36097	1409286144
271	KN150386.1	35900	1409548288
272	KN150414.1	35871	1409810432
273	KN150493.1	35575	1410072576
274	KN149973.1	35555	1410334720
275	KN149679.1	35552	1410596864
276	KN149856.1	35330	1410859008
277	KN150159.1	35229	1411121152
278	KN150062.1	35038	1411383296
279	KN149836.1	34954	1411645440
280	KN150400.1	34930	1411907584
281	KN150403.1	34697	1412169728
282	KN149795.1	34615	1412431872
283	KN149989.1	34480	1412694016
284	KN150102.1	34431	1412956160
285	KN150005.1	34409	1413218304
286	KN150272.1	34295	1413480448
287	KN150498.1	34205	1413742592
288	KN150628.1	33906	1414004736
289	KN150416.1	33835	1414266880
290	KN150239.1	33607	1414529024
291	KN149996.1	33528	1414791168
292	KN150015.1	33441	1415053312
293	KN149850.1	33401	1415315456
294	KN149815.1	33337	1415577600
295	KN150127.1	33302	1415839744
296	KN149706.1	33279	1416101888
297	KN149843.1	33258	1416364032
298	KN150156.1	33247	1416626176
299	KN150208.1	33163	1416888320
300	KN149699.1	33146	1417150464
301	KN149946.1	33071	1417412608
302	KN150626.1	32850	1417674752
303	KN149830.1	32768	1417936896
304	KN150181.1	32761	1418199040
305	KN150165.1	32739	1418461184
306	KN150600.1	32636	1418723328
307	KN150055.1	32561	1418985472
308	KN150580.1	32349	1419247616
309	KN150053.1	32328	1419509760
310	KN150140.1	32180	1419771904
311	KN150043.1	31984	1420034048
312	KN150698.1	31983	1420296192
313	KN150227.1	31979	1420558336
314	KN150200.1	31861	1420820480
315	KN149982.1	31814	1421082624
316	KN150407.1	31814	1421344768
317	KN149821.1	31785	1421606912
318	KN150240.1	31723	1421869056
319	KN150492.1	31617	1422131200
320	KN150263.1	31336	1422393344
321	KN150341.1	31147	1422655488
322	KN150278.1	30978	1422917632
323	KN149767.1	30874	1423179776
324	KN150042.1	30789	1423441920
325	KN150620.1	30729	1423704064
326	KN149877.1	30410	1423966208
327	KN149753.1	30249	1424228352
328	KN149852.1	30223	1424490496
329	KN150463.1	29963	1424752640
330	KN150111.1	29931	1425014784
331	KN150379.1	29907	1425276928
332	KN149925.1	29860	1425539072
333	KN150220.1	29625	1425801216
334	KN149943.1	29608	1426063360
335	KN150696.1	29565	1426325504
336	KN150372.1	29560	1426587648
337	KN150032.1	29546	1426849792
338	KN150066.1	29537	1427111936
339	KN150056.1	29449	1427374080
340	KN150428.1	29216	1427636224
341	KN149765.1	29197	1427898368
342	KN150085.1	29177	1428160512
343	KN150349.1	29114	1428422656
344	KN150134.1	29067	1428684800
345	KN149838.1	29025	1428946944
346	KN150019.1	28998	1429209088
347	KN150572.1	28871	1429471232
348	KN150001.1	28767	1429733376
349	KN150340.1	28741	1429995520
350	KN149846.1	28664	1430257664
351	KN150074.1	28653	1430519808
352	KN150330.1	28440	1430781952
353	KN150168.1	28382	1431044096
354	KN149921.1	28254	1431306240
355	KN150495.1	28160	1431568384
356	KN150221.1	28122	1431830528
357	KN150643.1	28088	1432092672
358	KN150178.1	28040	1432354816
359	KN150651.1	28018	1432616960
360	KN150656.1	28006	1432879104
361	KN149893.1	27995	1433141248
362	KN150635.1	27947	1433403392
363	KN149705.1	27926	1433665536
364	KN149709.1	27814	1433927680
365	KN149737.1	27700	1434189824
366	KN150639.1	27620	1434451968
367	KN150537.1	27568	1434714112
368	KN150120.1	27511	1434976256
369	KN150357.1	27326	1435238400
370	KN150067.1	27325	1435500544
371	KN149829.1	27323	1435762688
372	KN150151.1	27317	1436024832
373	KN150124.1	27208	1436286976
374	KN149799.1	27060	1436549120
375	KN150251.1	26988	1436811264
376	KN150343.1	26928	1437073408
377	KN150508.1	26814	1437335552
378	KN150489.1	26739	1437597696
379	KN150573.1	26604	1437859840
380	KN150559.1	26580	1438121984
381	KN150391.1	26543	1438384128
382	KN150025.1	26343	1438646272
383	KN150661.1	26250	1438908416
384	KN150690.1	26145	1439170560
385	KN150699.1	26100	1439432704
386	KN150627.1	26060	1439694848
387	KN149818.1	25942	1439956992
388	KN149814.1	25878	1440219136
389	KN149835.1	25861	1440481280
390	KN150478.1	25813	1440743424
391	KN150291.1	25796	1441005568
392	KN150017.1	25636	1441267712
393	KN149796.1	25635	1441529856
394	KN149721.1	25462	1441792000
395	KN149794.1	25440	1442054144
396	KN150468.1	25381	1442316288
397	KN150450.1	25362	1442578432
398	KN150285.1	25361	1442840576
399	KN150226.1	25293	1443102720
400	KN150604.1	25236	1443364864
401	KN150101.1	25174	1443627008
402	KN149944.1	24909	1443889152
403	KN149727.1	24871	1444151296
404	KN150464.1	24865	1444413440
405	KN150126.1	24847	1444675584
406	KN149892.1	24638	1444937728
407	KN150462.1	24623	1445199872
408	KN150175.1	24612	1445462016
409	KN150569.1	24359	1445724160
410	KN150088.1	24203	1445986304
411	KN150084.1	24192	1446248448
412	KN150114.1	24178	1446510592
413	KN150224.1	24154	1446772736
414	KN150684.1	24053	1447034880
415	KN150061.1	24048	1447297024
416	KN150324.1	24032	1447559168
417	KN150203.1	24004	1447821312
418	KN150186.1	23923	1448083456
419	KN150282.1	23758	1448345600
420	KN150579.1	23586	1448607744
421	KN150299.1	23511	1448869888
422	KN150297.1	23472	1449132032
423	KN149924.1	23395	1449394176
424	KN149947.1	23293	1449656320
425	KN150305.1	23261	1449918464
426	KN150539.1	23246	1450180608
427	KN150045.1	23207	1450442752
428	KN149855.1	23165	1450704896
429	KN150490.1	23057	1450967040
430	KN150384.1	22969	1451229184
431	KN150562.1	22875	1451491328
432	KN150332.1	22862	1451753472
433	KN150645.1	22839	1452015616
434	KN149979.1	22834	1452277760
435	KN150363.1	22766	1452539904
436	KN150602.1	22730	1452802048
437	KN149871.1	22553	1453064192
438	KN150334.1	22542	1453326336
439	KN150625.1	22486	1453588480
440	KN150501.1	22392	1453850624
441	KN150270.1	22285	1454112768
442	KN150388.1	22284	1454374912
443	KN150183.1	22266	1454637056
444	KN150561.1	22238	1454899200
445	KN150289.1	22206	1455161344
446	KN150023.1	22153	1455423488
447	KN149825.1	22128	1455685632
448	KN149741.1	21941	1455947776
449	KN150668.1	21856	1456209920
450	KN150154.1	21695	1456472064
451	KN150177.1	21670	1456734208
452	KN149779.1	21664	1456996352
453	KN149733.1	21637	1457258496
454	KN150532.1	21602	1457520640
455	KN150016.1	21592	1457782784
456	KN150426.1	21499	1458044928
457	KN149869.1	21474	1458307072
458	KN150058.1	21348	1458569216
459	KN149919.1	21073	1458831360
460	KN150496.1	21062	1459093504
461	KN149743.1	21023	1459355648
462	KN150309.1	20999	1459617792
463	KN150521.1	20896	1459879936
464	KN150640.1	20890	1460142080
465	KN150411.1	20886	1460404224
466	KN150527.1	20880	1460666368
467	KN150063.1	20846	1460928512
468	KN150047.1	20749	1461190656
469	KN150313.1	20655	1461452800
470	KN149961.1	20600	1461714944
471	KN149708.1	20567	1461977088
472	KN150644.1	20534	1462239232
473	KN150636.1	20513	1462501376
474	KN150310.1	20509	1462763520
475	KN150565.1	20464	1463025664
476	KN150225.1	20429	1463287808
477	KN150315.1	20424	1463549952
478	KN149849.1	20421	1463812096
479	KN150337.1	20260	1464074240
480	KN149977.1	20138	1464336384
481	KN150242.1	20063	1464598528
482	KN150327.1	19949	1464860672
483	KN150040.1	19896	1465122816
484	KN150500.1	19866	1465384960
485	KN149764.1	19831	1465647104
486	KN149955.1	19758	1465909248
487	KN149780.1	19718	1466171392
488	KN150344.1	19681	1466433536
489	KN149763.1	19644	1466695680
490	KN150322.1	19644	1466957824
491	KN150353.1	19631	1467219968
492	KN150710.1	19629	1467482112
493	KN150629.1	19604	1467744256
494	KN149974.1	19596	1468006400
495	KN150003.1	19572	1468268544
496	KN150633.1	19558	1468530688
497	KN150689.1	19550	1468792832
498	KN150325.1	19525	1469054976
499	KN150028.1	19517	1469317120
500	KN150108.1	19459	1469579264
501	KN149731.1	19431	1469841408
502	KN150514.1	19391	1470103552
503	KN150594.1	19382	1470365696
504	KN150399.1	19362	1470627840
505	KN150236.1	19315	1470889984
506	KN150113.1	19310	1471152128
507	KN150187.1	19179	1471414272
508	KN149744.1	19164	1471676416
509	KN150390.1	19066	1471938560
510	KN149715.1	19020	1472200704
511	KN150599.1	19019	1472462848
512	KN150523.1	19004	1472724992
513	KN150589.1	18957	1472987136
514	KN150212.1	18932	1473249280
515	KN150195.1	18921	1473511424
516	KN150308.1	18907	1473773568
517	KN149775.1	18776	1474035712
518	KN150157.1	18756	1474297856
519	KN150624.1	18713	1474560000
520	KN150115.1	18676	1474822144
521	KN150301.1	18664	1475084288
522	KN150234.1	18511	1475346432
523	KN150574.1	18499	1475608576
524	KN150368.1	18491	1475870720
525	KN150454.1	18479	1476132864
526	KN150654.1	18414	1476395008
527	KN150248.1	18273	1476657152
528	KN150290.1	18248	1476919296
529	KN149914.1	18241	1477181440
530	KN150198.1	18196	1477443584
531	KN149920.1	18168	1477705728
532	KN150404.1	18160	1477967872
533	KN150323.1	18137	1478230016
534	KN150284.1	18131	1478492160
535	KN150652.1	18075	1478754304
536	KN149762.1	17936	1479016448
537	KN150536.1	17908	1479278592
538	KN149983.1	17884	1479540736
539	KN150160.1	17824	1479802880
540	KN150662.1	17820	1480065024
541	KN150436.1	17739	1480327168
542	KN150009.1	17727	1480589312
543	KN150564.1	17709	1480851456
544	KN150429.1	17683	1481113600
545	KN149768.1	17671	1481375744
546	KN150534.1	17661	1481637888
547	KN149842.1	17614	1481900032
548	KN150549.1	17599	1482162176
549	KN150488.1	17582	1482424320
550	KN150545.1	17546	1482686464
551	KN150475.1	17517	1482948608
552	KN149970.1	17511	1483210752
553	KN150458.1	17481	1483472896
554	KN150002.1	17430	1483735040
555	KN150328.1	17410	1483997184
556	KN149860.1	17408	1484259328
557	KN150256.1	17390	1484521472
558	KN150586.1	17388	1484783616
559	KN149834.1	17343	1485045760
560	KN150483.1	17332	1485307904
561	KN150397.1	17295	1485570048
562	KN150312.1	17282	1485832192
563	KN149791.1	17273	1486094336
564	KN150406.1	17215	1486356480
565	KN150362.1	17145	1486618624
566	KN150394.1	17139	1486880768
567	KN150141.1	17117	1487142912
568	KN149888.1	17117	1487405056
569	KN150228.1	17061	1487667200
570	KN150345.1	17012	1487929344
571	KN150264.1	16955	1488191488
572	KN150707.1	16938	1488453632
573	KN149993.1	16921	1488715776
574	KN150683.1	16822	1488977920
575	KN149978.1	16801	1489240064
576	KN150219.1	16672	1489502208
577	KN150139.1	16647	1489764352
578	KN149752.1	16628	1490026496
579	KN150059.1	16588	1490288640
580	KN150199.1	16564	1490550784
581	KN150571.1	16505	1490812928
582	KN149913.1	16487	1491075072
583	KN150430.1	16452	1491337216
584	KN150211.1	16386	1491599360
585	KN150705.1	16373	1491861504
586	KN150184.1	16312	1492123648
587	KN149747.1	16275	1492385792
588	KN150517.1	16171	1492647936
589	KN149757.1	16145	1492910080
590	KN150054.1	16143	1493172224
591	KN150213.1	16101	1493434368
592	KN149936.1	16058	1493696512
593	KN150142.1	16050	1493958656
594	KN149902.1	16044	1494220800
595	KN149732.1	16041	1494482944
596	KN150634.1	16020	1494745088
597	KN149803.1	16018	1495007232
598	KN150052.1	15943	1495269376
599	KN150352.1	15907	1495531520
600	KN149751.1	15848	1495793664
601	KN150622.1	15811	1496055808
602	KN150319.1	15807	1496317952
603	KN150311.1	15747	1496580096
604	KN150613.1	15739	1496842240
605	KN150360.1	15639	1497104384
606	KN150008.1	15572	1497366528
607	KN150526.1	15513	1497628672
608	KN150116.1	15497	1497890816
609	KN149808.1	15454	1498152960
610	KN150202.1	15451	1498415104
611	KN150246.1	15365	1498677248
612	KN150218.1	15354	1498939392
613	KN150669.1	15325	1499201536
614	KN150540.1	15288	1499463680
615	KN150268.1	15280	1499725824
616	KN150423.1	15221	1499987968
617	KN150387.1	15215	1500250112
618	KN150682.1	15190	1500512256
619	KN149806.1	15157	1500774400
620	KN150531.1	15090	1501036544
621	KN150364.1	15084	1501298688
622	KN150413.1	15078	1501560832
623	KN149894.1	15058	1501822976
624	KN150422.1	15053	1502085120
625	KN149810.1	15043	1502347264
626	KN150144.1	14974	1502609408
627	KN150484.1	14965	1502871552
628	KN150071.1	14960	1503133696
629	KN150421.1	14951	1503395840
630	KN150647.1	14938	1503657984
631	KN150418.1	14930	1503920128
632	KN150451.1	14920	1504182272
633	KN150550.1	14915	1504444416
634	KN150482.1	14895	1504706560
635	KN150317.1	14866	1504968704
636	KN150410.1	14841	1505230848
637	KN150695.1	14840	1505492992
638	KN149730.1	14804	1505755136
639	KN149761.1	14795	1506017280
640	KN149965.1	14790	1506279424
641	KN150641.1	14778	1506541568
642	KN149866.1	14752	1506803712
643	KN150093.1	14738	1507065856
644	KN150010.1	14703	1507328000
645	KN149766.1	14664	1507590144
646	KN150469.1	14614	1507852288
647	KN150064.1	14598	1508114432
648	KN150472.1	14586	1508376576
649	KN150713.1	14579	1508638720
650	KN150092.1	14544	1508900864
651	KN150197.1	14532	1509163008
652	KN150076.1	14425	1509425152
653	KN150138.1	14383	1509687296
654	KN150593.1	14353	1509949440
655	KN149861.1	14336	1510211584
656	KN150506.1	14319	1510473728
657	KN149928.1	14297	1510735872
658	KN150420.1	14290	1510998016
659	KN149771.1	14151	1511260160
660	KN150419.1	14114	1511522304
661	KN149937.1	14110	1511784448
662	KN150588.1	14103	1512046592
663	KN150382.1	14074	1512308736
664	KN149999.1	14071	1512570880
665	KN150070.1	14070	1512833024
666	KN150679.1	14065	1513095168
667	KN149905.1	14056	1513357312
668	KN150073.1	14052	1513619456
669	KN149897.1	14044	1513881600
670	KN149823.1	14034	1514143744
671	KN150553.1	14032	1514405888
672	KN150512.1	14003	1514668032
673	KN150132.1	13999	1514930176
674	KN150674.1	13959	1515192320
675	KN150283.1	13933	1515454464
676	KN149750.1	13928	1515716608
677	KN149703.1	13902	1515978752
678	KN150075.1	13883	1516240896
679	KN150217.1	13840	1516503040
680	KN150371.1	13836	1516765184
681	KN150275.1	13800	1517027328
682	KN150577.1	13719	1517289472
683	KN149969.1	13714	1517551616
684	KN150235.1	13664	1517813760
685	KN149899.1	13632	1518075904
686	KN150194.1	13629	1518338048
687	KN149941.1	13607	1518600192
688	KN150453.1	13591	1518862336
689	KN150014.1	13588	1519124480
690	KN150250.1	13560	1519386624
691	KN149827.1	13555	1519648768
692	KN150302.1	13538	1519910912
693	KN150671.1	13526	1520173056
694	KN150694.1	13510	1520435200
695	KN150660.1	13470	1520697344
696	KN150167.1	13466	1520959488
697	KN150174.1	13450	1521221632
698	KN149933.1	13433	1521483776
699	KN149722.1	13397	1521745920
700	KN150680.1	13379	1522008064
701	KN149875.1	13354	1522270208
702	KN150685.1	13309	1522532352
703	KN150072.1	13309	1522794496
704	KN149793.1	13298	1523056640
705	KN150329.1	13297	1523318784
706	KN150687.1	13294	1523580928
707	KN149772.1	13273	1523843072
708	KN150510.1	13237	1524105216
709	KN150528.1	13138	1524367360
710	KN150373.1	13130	1524629504
711	KN150089.1	13104	1524891648
712	KN149896.1	13102	1525153792
713	KN150007.1	13072	1525415936
714	KN150502.1	13027	1525678080
715	KN150491.1	13001	1525940224
716	KN149839.1	12998	1526202368
717	KN150011.1	12995	1526464512
718	KN149789.1	12990	1526726656
719	KN150276.1	12942	1526988800
720	KN149864.1	12929	1527250944
721	KN150081.1	12836	1527513088
722	KN149853.1	12817	1527775232
723	KN149981.1	12811	1528037376
724	KN149908.1	12800	1528299520
725	KN150069.1	12799	1528561664
726	KN150257.1	12735	1528823808
727	KN150697.1	12709	1529085952
728	KN150161.1	12647	1529348096
729	KN150271.1	12637	1529610240
730	KN150507.1	12629	1529872384
731	KN150692.1	12590	1530134528
732	KN150193.1	12580	1530396672
733	KN150210.1	12550	1530658816
734	KN149922.1	12529	1530920960
735	KN149807.1	12512	1531183104
736	KN150595.1	12507	1531445248
737	KN150598.1	12499	1531707392
738	KN150288.1	12496	1531969536
739	KN149832.1	12483	1532231680
740	KN150314.1	12455	1532493824
741	KN149938.1	12455	1532755968
742	KN149934.1	12451	1533018112
743	KN150446.1	12446	1533280256
744	KN150441.1	12439	1533542400
745	KN149883.1	12434	1533804544
746	KN149805.1	12432	1534066688
747	KN150585.1	12430	1534328832
748	KN150029.1	12415	1534590976
749	KN150582.1	12396	1534853120
750	KN150581.1	12355	1535115264
751	KN149774.1	12337	1535377408
752	KN150541.1	12323	1535639552
753	KN150260.1	12318	1535901696
754	KN150333.1	12275	1536163840
755	KN150128.1	12262	1536425984
756	KN150249.1	12261	1536688128
757	KN150274.1	12247	1536950272
758	KN149872.1	12222	1537212416
759	KN150542.1	12167	1537474560
760	KN150254.1	12144	1537736704
761	KN150380.1	12144	1537998848
762	KN150538.1	12119	1538260992
763	KN150558.1	12115	1538523136
764	KN150078.1	12098	1538785280
765	KN150504.1	12094	1539047424
766	KN149851.1	12094	1539309568
767	KN150393.1	12073	1539571712
768	KN150445.1	12072	1539833856
769	KN150392.1	12069	1540096000
770	KN150434.1	12053	1540358144
771	KN150522.1	12046	1540620288
772	KN149770.1	12046	1540882432
773	KN149890.1	12029	1541144576
774	KN150090.1	12028	1541406720
775	KN149995.1	12015	1541668864
776	KN150012.1	11998	1541931008
777	KN149862.1	11987	1542193152
778	KN150519.1	11974	1542455296
779	KN149887.1	11971	1542717440
780	KN149863.1	11955	1542979584
781	KN149927.1	11950	1543241728
782	KN150686.1	11947	1543503872
783	KN150665.1	11944	1543766016
784	KN149755.1	11941	1544028160
785	KN150711.1	11940	1544290304
786	KN150424.1	11928	1544552448
787	KN150020.1	11925	1544814592
788	KN149879.1	11893	1545076736
789	KN149783.1	11892	1545338880
790	KN149940.1	11887	1545601024
791	KN149976.1	11858	1545863168
792	KN150287.1	11856	1546125312
793	KN149724.1	11849	1546387456
794	KN150509.1	11846	1546649600
795	KN150499.1	11840	1546911744
796	KN150443.1	11834	1547173888
797	KN150444.1	11830	1547436032
798	KN150659.1	11827	1547698176
799	KN149756.1	11785	1547960320
800	KN150182.1	11735	1548222464
801	KN150097.1	11690	1548484608
802	KN150632.1	11627	1548746752
803	KN149964.1	11592	1549008896
804	KN150096.1	11550	1549271040
805	KN150563.1	11540	1549533184
806	KN150316.1	11489	1549795328
807	KN149711.1	11473	1550057472
808	KN150369.1	11460	1550319616
809	KN150004.1	11444	1550581760
810	KN149828.1	11414	1550843904
811	KN150279.1	11402	1551106048
812	KN150190.1	11399	1551368192
813	KN149903.1	11318	1551630336
814	KN150164.1	11300	1551892480
815	KN149876.1	11298	1552154624
816	KN149971.1	11275	1552416768
817	KN149792.1	11232	1552678912
818	KN150467.1	11202	1552941056
819	KN150601.1	11167	1553203200
820	KN149911.1	11128	1553465344
821	KN149817.1	11116	1553727488
822	KN150575.1	11084	1553989632
823	KN150087.1	11020	1554251776
824	KN149900.1	11016	1554513920
825	KN150162.1	10930	1554776064
826	KN149746.1	10900	1555038208
827	KN150546.1	10851	1555300352
828	KN150365.1	10769	1555562496
829	KN149891.1	10762	1555824640
830	KN150057.1	10736	1556086784
831	KN149881.1	10736	1556348928
832	KN149738.1	10603	1556611072
833	KN150610.1	10565	1556873216
834	KN150006.1	10518	1557135360
835	KN149901.1	10512	1557397504
836	KN150280.1	10487	1557659648
837	KN149915.1	10395	1557921792
838	KN150439.1	10343	1558183936
839	KN149848.1	10341	1558446080
840	KN150389.1	10334	1558708224
841	KN150155.1	10282	1558970368
842	KN150296.1	10238	1559232512
843	KN150513.1	10220	1559494656
844	KN149720.1	10211	1559756800
845	KN149819.1	10210	1560018944
846	KN149844.1	10201	1560281088
847	KN149889.1	10166	1560543232
848	KN149804.1	10148	1560805376
849	KN149857.1	10132	1561067520
850	KN149816.1	10128	1561329664
851	KN150494.1	10108	1561591808
852	KN149713.1	10094	1561853952
853	KN149841.1	10085	1562116096
854	KN150401.1	10081	1562378240
855	KN150366.1	10057	1562640384
856	KN150304.1	10004	1562902528
857	KN149945.1	9994	1563164672
858	KN150292.1	9984	1563426816
859	KN150145.1	9970	1563688960
860	KN149781.1	9962	1563951104
861	KN150358.1	9951	1564213248
862	KN150524.1	9948	1564475392
863	KN149988.1	9944	1564737536
864	KN150555.1	9941	1564999680
865	KN150130.1	9925	1565261824
866	KN150615.1	9878	1565523968
867	KN149991.1	9871	1565786112
868	KN149907.1	9870	1566048256
869	KN150065.1	9859	1566310400
870	KN150188.1	9856	1566572544
871	KN150110.1	9804	1566834688
872	KN150395.1	9792	1567096832
873	KN150150.1	9780	1567358976
874	KN150374.1	9775	1567621120
875	KN150146.1	9714	1567883264
876	KN150412.1	9605	1568145408
877	KN150664.1	9590	1568407552
878	KN150607.1	9531	1568669696
879	KN149942.1	9522	1568931840
880	KN149758.1	9515	1569193984
881	KN150300.1	9489	1569456128
882	KN150201.1	9480	1569718272
883	KN150238.1	9450	1569980416
884	KN149728.1	9442	1570242560
885	KN150551.1	9435	1570504704
886	KN150152.1	9348	1570766848
887	KN150556.1	9286	1571028992
888	KN150554.1	9251	1571291136
889	KN150350.1	9245	1571553280
890	KN150100.1	9237	1571815424
891	KN149960.1	9235	1572077568
892	KN149935.1	9230	1572339712
893	KN150095.1	9204	1572601856
894	KN150307.1	9167	1572864000
895	KN150044.1	9097	1573126144
896	KN150286.1	9068	1573388288
897	KN150614.1	9019	1573650432
898	KN150591.1	8817	1573912576
899	KN150245.1	8814	1574174720
900	KN149986.1	8801	1574436864
901	KN149788.1	8794	1574699008
902	KN150082.1	8788	1574961152
903	KN149811.1	8720	1575223296
904	KN150185.1	8651	1575485440
905	KN149967.1	8612	1575747584
906	KN150381.1	8595	1576009728
907	KN150486.1	8572	1576271872
908	KN150013.1	8488	1576534016
909	KN150587.1	8461	1576796160
910	KN150121.1	8447	1577058304
911	KN150452.1	8345	1577320448
912	KN150433.1	8322	1577582592
913	KN150706.1	8278	1577844736
914	KN150050.1	8203	1578106880
915	KN150396.1	8176	1578369024
916	KN149745.1	8150	1578631168
917	KN150655.1	8089	1578893312
918	KN149837.1	8007	1579155456
919	KN149980.1	7980	1579417600
920	KN150147.1	7977	1579679744
921	KN150094.1	7824	1579941888
922	KN150383.1	7777	1580204032
923	KN149882.1	7649	1580466176
924	KN150438.1	7619	1580728320
925	KN150678.1	7552	1580990464
926	KN149878.1	7547	1581252608
927	KN150485.1	7348	1581514752
928	KN150530.1	7299	1581776896
929	KN150169.1	7260	1582039040
930	KN150135.1	6944	1582301184
931	KN150447.1	6779	1582563328
932	KN150355.1	6731	1582825472
933	KN149931.1	6703	1583087616
934	KN149854.1	6367	1583349760
935	KN149997.1	6296	1583611904
936	KN149734.1	6288	1583874048
937	KN149918.1	6170	1584136192
938	KN149707.1	6001	1584398336
939	KN149950.1	5952	1584660480
940	KN150590.1	5798	1584922624
941	KN149735.1	5747	1585184768
942	KN150377.1	5727	1585446912
943	KN149729.1	5608	1585709056
944	KN150261.1	5601	1585971200
945	KN150109.1	5564	1586233344
946	KN150295.1	5486	1586495488
947	KN149874.1	5295	1586757632
948	KN149951.1	5000	1587019776
949	KN150143.1	4977	1587281920
950	KN149898.1	4537	1587544064
951	KN149801.1	4454	1587806208
952	KN150036.1	4412	1588068352
953	KN150209.1	4398	1588330496
954	KN149916.1	4293	1588592640
955	KN150378.1	4206	1588854784
956	KN150103.1	4090	1589116928
957	KN149917.1	3831	1589379072
958	KN149802.1	3818	1589641216
959	KN150149.1	3784	1589903360
960	KN150281.1	3763	1590165504
961	KN149701.1	3760	1590427648
962	KN150448.1	3709	1590689792
963	KN149926.1	3688	1590951936
964	KN150039.1	3463	1591214080
965	KN150112.1	3423	1591476224
966	KN149845.1	3367	1591738368
967	KN150673.1	3357	1592000512
968	KN150253.1	3149	1592262656
969	KN150321.1	3079	1592524800
970	KN150650.1	3012	1592786944
971	KN149776.1	2919	1593049088
972	KN150037.1	2866	1593311232
973	KN150612.1	2865	1593573376
974	KN149833.1	2778	1593835520
975	KN149742.1	2671	1594097664
976	KN150205.1	2620	1594359808
977	KN150318.1	2580	1594621952
978	KN149822.1	2460	1594884096
979	KN149824.1	2357	1595146240
980	KN150543.1	2343	1595408384
981	KN150231.1	2322	1595670528
982	KN150535.1	2315	1595932672
983	KN150560.1	2301	1596194816
984	KN150417.1	2254	1596456960
985	KN150233.1	2246	1596719104
986	KN150693.1	2190	1596981248
987	KN150027.1	2148	1597243392
988	KN149726.1	2146	1597505536
989	KN150597.1	2137	1597767680
990	KN150648.1	2077	1598029824
991	KN150206.1	2052	1598291968
992	KN149975.1	2035	1598554112
993	KN150470.1	2027	1598816256
994	KN149809.1	2001	1599078400
995	KN150051.1	1995	1599340544
996	KN149798.1	1990	1599602688
997	KN150277.1	1954	1599864832
998	KN149954.1	1953	1600126976
999	KN150034.1	1919	1600389120
1000	KN150583.1	1918	1600651264
1001	KN150192.1	1918	1600913408
1002	KN150688.1	1917	1601175552
1003	KN149956.1	1889	1601437696
1004	KN150180.1	1872	1601699840
1005	KN150503.1	1834	1601961984
1006	KN150515.1	1813	1602224128
1007	KN150465.1	1765	1602486272
1008	KN150026.1	1755	1602748416
1009	KN149786.1	1745	1603010560
1010	KN150237.1	1732	1603272704
1011	KN150409.1	1729	1603534848
1012	KN150024.1	1714	1603796992
1013	KN150611.1	1697	1604059136
1014	KN149736.1	1649	1604321280
1015	KN150086.1	1639	1604583424
1016	KN149886.1	1633	1604845568
1017	KN150294.1	1627	1605107712
1018	KN149785.1	1577	1605369856
1019	KN149777.1	1553	1605632000
1020	KN150153.1	1545	1605894144
1021	KN149867.1	1514	1606156288
1022	KN150354.1	1452	1606418432
1023	KN150480.1	1422	1606680576
1024	KN149972.1	1358	1606942720
1025	KN149985.1	1354	1607204864
1026	KN149885.1	1347	1607467008
1027	KN150370.1	1323	1607729152
1028	KN150298.1	1322	1607991296
1029	KN149773.1	1302	1608253440
1030	KN150473.1	1285	1608515584
1031	KN149820.1	1281	1608777728
1032	KN149740.1	1265	1609039872
1033	KN150437.1	1262	1609302016
1034	KN150229.1	1251	1609564160
1035	KN150320.1	1241	1609826304
1036	KN150215.1	1237	1610088448
1037	KN150704.1	1233	1610350592
1038	KN150533.1	1222	1610612736
1039	KN150621.1	1204	1610874880
1040	KN150544.1	1198	1611137024
1041	KN150440.1	1193	1611399168
1042	KN150356.1	1177	1611661312
1043	KN149873.1	1146	1611923456
1044	KN150119.1	1143	1612185600
1045	KN150338.1	1142	1612447744
1046	KN150223.1	1141	1612709888
1047	KN149994.1	1137	1612972032
1048	KN150701.1	1133	1613234176
1049	KN150623.1	1126	1613496320
1050	KN149712.1	1115	1613758464
1051	KN150367.1	1114	1614020608
1052	KN149957.1	1094	1614282752
1053	KN150163.1	1082	1614544896
1054	KN150457.1	1076	1614807040
1055	KN150018.1	1063	1615069184
1056	KN150216.1	1020	1615331328
1057	KN150481.1	1008	1615593472
1058	KN150657.1	1007	1615855616
1059	KN150461.1	1000	1616117760
1060	KN150247.1	728	1616379904
1061	KN150525.1	650	1616642048
--sjdbOverhang = 100 taken from the generated genome
Started loading the genome: Fri Dec  2 21:53:26 2016

checking Genome sizefile size: 1668501696 bytes; state: good=1 eof=0 fail=0 bad=0
checking SA sizefile size: 11722859127 bytes; state: good=1 eof=0 fail=0 bad=0
checking /SAindex sizefile size: 1565873619 bytes; state: good=1 eof=0 fail=0 bad=0
Read from SAindex: genomeSAindexNbases=14  nSAi=357913940
nGenome=1668501696;  nSAbyte=11722859127
GstrandBit=32   SA number of indices=2841905242
Shared memory is not used for genomes. Allocated a private copy of the genome.
Genome file size: 1668501696 bytes; state: good=1 eof=0 fail=0 bad=0
Loading Genome ... done! state: good=1 eof=0 fail=0 bad=0; loaded 1668501696 bytes
SA file size: 11722859127 bytes; state: good=1 eof=0 fail=0 bad=0
Loading SA ... done! state: good=1 eof=0 fail=0 bad=0; loaded 11722859127 bytes
Loading SAindex ... done: 1565873619 bytes
Finished loading the genome: Fri Dec  2 21:53:42 2016

Processing splice junctions database sjdbN=256704,   sjdbOverhang=100 
alignIntronMax=alignMatesGapMax=0, the max intron size will be approximately determined by (2^winBinNbits)*winAnchorDistNbins=589824
Created thread # 1
Created thread # 2
Created thread # 3
Starting to map file # 0
mate 1:   /gpfs/gpfs1/home/aalonso/test_datasets/zebrafish/results_trimgalore/D06BVACXX_s1_1_nextera12index_2_SL7125.fastq.gz
mate 2:   /gpfs/gpfs1/home/aalonso/test_datasets/zebrafish/results_trimgalore/D06BVACXX_s1_2_nextera12index_2_SL7125.fastq.gz
Created thread # 4
Created thread # 5
Created thread # 6
Created thread # 7
Created thread # 8
Created thread # 9
Created thread # 10
Created thread # 11
Thread #5 end of input stream, nextChar=-1
Completed: thread #7
Completed: thread #6
Completed: thread #8
Completed: thread #9
Completed: thread #5
Completed: thread #0
Completed: thread #10
Completed: thread #11
Completed: thread #1
Joined thread # 1
Completed: thread #2
Joined thread # 2
Completed: thread #3
Joined thread # 3
Completed: thread #4
Joined thread # 4
Joined thread # 5
Joined thread # 6
Joined thread # 7
Joined thread # 8
Joined thread # 9
Joined thread # 10
Joined thread # 11
Dec 02 21:56:39   Loaded database junctions from the generated genome /gpfs/gpfs1/myerslab/reference/genomes/rnaseq_pipeline//genomes_processed/ZF_GRCz10_E83/STAR_genome/sjdbList.out.tab: 256704 total junctions

Dec 02 21:56:39   Loaded database junctions from the 1st pass file: /gpfs/gpfs1/home/aalonso/test_datasets/zebrafish/results_star/ZF_14__STARpass1//SJ.out.tab: 483086 total junctions

WARNING: long repeat for junction # 49683 : 14 2276470 2283329; left shift = 255; right shift = 67
WARNING: long repeat for junction # 58661 : 15 14891381 14915330; left shift = 68; right shift = 255
WARNING: long repeat for junction # 62348 : 15 29719334 29733819; left shift = 33; right shift = 255
WARNING: long repeat for junction # 300488 : 14 2276470 2283329; left shift = 255; right shift = 67
Dec 02 21:56:40   Finished preparing junctions
Dec 02 21:56:40 ..... inserting junctions into the genome indices
Dec 02 21:56:47   Finished SA search: number of new junctions=31277, old junctions=256704
Dec 02 21:56:51   Finished sorting SA indicesL nInd=12494692
Dec 02 21:57:34   Finished inserting junction indices
Dec 02 21:57:41   Finished SAi
Dec 02 21:57:41 ..... finished inserting junctions into genome

   Input read files for mate 1, from input string /gpfs/gpfs1/home/aalonso/test_datasets/zebrafish/results_trimgalore/D06BVACXX_s1_1_nextera12index_2_SL7125.fastq.gz
-rw-r--r-- 1 aalonso myers-lab 2418524856 Dec  2 21:10 /gpfs/gpfs1/home/aalonso/test_datasets/zebrafish/results_trimgalore/D06BVACXX_s1_1_nextera12index_2_SL7125.fastq.gz

   readsCommandsFile:
exec > "/gpfs/gpfs1/home/aalonso/test_datasets/zebrafish/results_star/ZF_14__STARtmp/tmp.fifo.read1"
echo FILE 0
zcat      "/gpfs/gpfs1/home/aalonso/test_datasets/zebrafish/results_trimgalore/D06BVACXX_s1_1_nextera12index_2_SL7125.fastq.gz"


   Input read files for mate 2, from input string /gpfs/gpfs1/home/aalonso/test_datasets/zebrafish/results_trimgalore/D06BVACXX_s1_2_nextera12index_2_SL7125.fastq.gz
-rw-r--r-- 1 aalonso myers-lab 2364864968 Dec  2 21:10 /gpfs/gpfs1/home/aalonso/test_datasets/zebrafish/results_trimgalore/D06BVACXX_s1_2_nextera12index_2_SL7125.fastq.gz

   readsCommandsFile:
exec > "/gpfs/gpfs1/home/aalonso/test_datasets/zebrafish/results_star/ZF_14__STARtmp/tmp.fifo.read2"
echo FILE 0
zcat      "/gpfs/gpfs1/home/aalonso/test_datasets/zebrafish/results_trimgalore/D06BVACXX_s1_2_nextera12index_2_SL7125.fastq.gz"

Loaded transcript database, nTr=57369
Loaded exon database, nEx=469995
Created thread # 1
Created thread # 2
Starting to map file # 0
mate 1:   /gpfs/gpfs1/home/aalonso/test_datasets/zebrafish/results_trimgalore/D06BVACXX_s1_1_nextera12index_2_SL7125.fastq.gz
mate 2:   /gpfs/gpfs1/home/aalonso/test_datasets/zebrafish/results_trimgalore/D06BVACXX_s1_2_nextera12index_2_SL7125.fastq.gz
Created thread # 3
Created thread # 4
Created thread # 5
Created thread # 6
Created thread # 7
Created thread # 8
Created thread # 9
Created thread # 10
Created thread # 11
Thread #4 end of input stream, nextChar=-1
Completed: thread #11
Completed: thread #6
Completed: thread #4
Completed: thread #3
Completed: thread #0
Completed: thread #8
Completed: thread #1
Joined thread # 1
Completed: thread #5
Completed: thread #10
Completed: thread #7
Completed: thread #9
Completed: thread #2
Joined thread # 2
Joined thread # 3
Joined thread # 4
Joined thread # 5
Joined thread # 6
Joined thread # 7
Joined thread # 8
Joined thread # 9
Joined thread # 10
Joined thread # 11
ALL DONE!
