           Time    Speed        Read     Read   Mapped   Mapped   Mapped   Mapped Unmapped Unmapped Unmapped Unmapped
                    M/hr      number   length   unique   length   MMrate    multi   multi+       MM    short    other
Dec 02 21:40:37	Started 1st pass mapping
Dec 02 21:40:45     87.8      195062       98    83.2%     97.5     0.3%     6.4%     0.2%     0.0%    10.1%     0.1%
Dec 02 21:41:45    988.0    18661571       97    83.3%     97.0     0.3%     6.4%     0.2%     0.0%    10.0%     0.1%
Dec 02 21:42:45   1026.1    36484867       97    83.3%     97.0     0.3%     6.4%     0.2%     0.0%    10.0%     0.1%
Dec 02 21:43:20	Finished 1st pass mapping
Dec 02 21:45:27    335.5     5592379       98    83.0%     97.4     0.3%     6.7%     0.2%     0.0%    10.0%     0.1%
Dec 02 21:46:27    375.7    12522117       97    83.0%     97.2     0.3%     6.7%     0.2%     0.0%    10.0%     0.1%
Dec 02 21:47:27    388.5    19427166       97    83.0%     97.1     0.3%     6.7%     0.2%     0.0%    10.0%     0.1%
Dec 02 21:48:27    397.7    26515463       97    83.0%     97.1     0.3%     6.7%     0.2%     0.0%    10.0%     0.1%
Dec 02 21:49:28    401.9    33603854       97    83.0%     97.1     0.3%     6.7%     0.2%     0.0%    10.0%     0.1%
Dec 02 21:50:28    405.9    40706955       97    83.0%     97.0     0.3%     6.7%     0.2%     0.0%    10.0%     0.1%
ALL DONE!
