                                 Started job on |	Dec 02 21:40:24
                             Started mapping on |	Dec 02 21:44:27
                                    Finished on |	Dec 02 21:51:27
       Mapping speed, Million of reads per hour |	404.97

                          Number of input reads |	47247062
                      Average input read length |	97
                                    UNIQUE READS:
                   Uniquely mapped reads number |	39226502
                        Uniquely mapped reads % |	83.02%
                          Average mapped length |	96.98
                       Number of splices: Total |	15648189
            Number of splices: Annotated (sjdb) |	15623328
                       Number of splices: GT/AG |	15460954
                       Number of splices: GC/AG |	157687
                       Number of splices: AT/AC |	5214
               Number of splices: Non-canonical |	24334
                      Mismatch rate per base, % |	0.30%
                         Deletion rate per base |	0.00%
                        Deletion average length |	1.72
                        Insertion rate per base |	0.00%
                       Insertion average length |	1.29
                             MULTI-MAPPING READS:
        Number of reads mapped to multiple loci |	3159642
             % of reads mapped to multiple loci |	6.69%
        Number of reads mapped to too many loci |	109828
             % of reads mapped to too many loci |	0.23%
                                  UNMAPPED READS:
       % of reads unmapped: too many mismatches |	0.00%
                 % of reads unmapped: too short |	9.95%
                     % of reads unmapped: other |	0.11%
                                  CHIMERIC READS:
                       Number of chimeric reads |	0
                            % of chimeric reads |	0.00%
