sample_id	no_feature	ambiguous	too_low_aQual	not_aligned	alignment_not_unique	TotalCounts	Link
ZF_01	2658943	15738432	0	0	8229830	6216851	<a href="../results_htseq-exon/ZF_01.tab" target="_blank">+</a>
ZF_02	3001328	11819175	0	0	5881015	4512300	<a href="../results_htseq-exon/ZF_02.tab" target="_blank">+</a>
ZF_03	2771282	10417089	0	0	5484879	4037342	<a href="../results_htseq-exon/ZF_03.tab" target="_blank">+</a>
ZF_04	2994779	12111043	0	0	5211005	4421140	<a href="../results_htseq-exon/ZF_04.tab" target="_blank">+</a>
ZF_05	2166551	12669148	0	0	5734395	4370226	<a href="../results_htseq-exon/ZF_05.tab" target="_blank">+</a>
ZF_06	2476589	10408174	0	0	5069025	3794509	<a href="../results_htseq-exon/ZF_06.tab" target="_blank">+</a>
ZF_07	2580488	14483928	0	0	7301767	5029867	<a href="../results_htseq-exon/ZF_07.tab" target="_blank">+</a>
ZF_08	2147133	16868849	0	0	10132966	5573509	<a href="../results_htseq-exon/ZF_08.tab" target="_blank">+</a>
ZF_09	2560381	14788518	0	0	7455259	4974109	<a href="../results_htseq-exon/ZF_09.tab" target="_blank">+</a>
ZF_10	3173372	13684874	0	0	7455197	5148514	<a href="../results_htseq-exon/ZF_10.tab" target="_blank">+</a>
ZF_11	2496846	13996661	0	0	8875981	4956739	<a href="../results_htseq-exon/ZF_11.tab" target="_blank">+</a>
ZF_12	1995301	15038144	0	0	7769663	4387384	<a href="../results_htseq-exon/ZF_12.tab" target="_blank">+</a>
ZF_13	2972474	26139854	0	0	10414294	10026536	<a href="../results_htseq-exon/ZF_13.tab" target="_blank">+</a>
ZF_14	2394731	31351058	0	0	13452334	10266783	<a href="../results_htseq-exon/ZF_14.tab" target="_blank">+</a>
ZF_15	3209154	27218243	0	0	10725600	11704250	<a href="../results_htseq-exon/ZF_15.tab" target="_blank">+</a>
ZF_16	3182154	32411303	0	0	13058067	10939823	<a href="../results_htseq-exon/ZF_16.tab" target="_blank">+</a>
ZF_17	2633383	25605101	0	0	11042837	9768421	<a href="../results_htseq-exon/ZF_17.tab" target="_blank">+</a>
ZF_18	5806330	22183241	0	0	11447305	12215333	<a href="../results_htseq-exon/ZF_18.tab" target="_blank">+</a>
ZF_19	3960814	23520940	0	0	11252212	11765026	<a href="../results_htseq-exon/ZF_19.tab" target="_blank">+</a>
ZF_20	4851264	27662175	0	0	13168098	14139558	<a href="../results_htseq-exon/ZF_20.tab" target="_blank">+</a>
