sample_id	mRNA-Coding	mRNA-Ribosomal	mRNA-Others	Intron	Intergenic	Unmapped	Med-CVcov	Med-5bias	Med-3bias	Med-5/3bias
ZF_01	79.296	0.038	4.143	3.364	12.111	1.049	51.8	21.4	40.5	56.0
ZF_02	75.535	0.021	3.689	5.907	13.954	0.895	51.0	22.1	41.0	52.9
ZF_03	74.638	0.027	3.778	5.995	14.644	0.918	51.6	22.7	41.9	54.0
ZF_04	76.846	0.014	3.283	5.807	13.15	0.9	51.3	23.3	42.1	60.7
ZF_05	79.657	0.024	3.472	3.708	11.498	1.64	51.8	22.7	43.7	56.4
ZF_06	76.343	0.019	3.542	5.618	13.05	1.428	51.8	23.0	42.1	54.8
ZF_07	78.78	0.029	3.471	3.835	12.212	1.673	52.1	23.2	44.0	55.1
ZF_08	80.01	0.044	4.333	2.843	11.156	1.614	52.3	22.5	42.0	57.0
ZF_09	79.038	0.028	3.771	3.878	11.958	1.327	51.2	23.3	41.7	58.9
ZF_10	75.13	0.025	4.625	5.906	12.747	1.567	51.8	22.2	42.8	53.5
ZF_11	77.845	0.036	4.703	4.43	11.876	1.112	52.3	21.6	41.6	54.7
ZF_12	81.816	0.036	2.857	3.171	11.217	0.903	51.7	24.6	42.0	62.7
ZF_13	83.974	0.025	4.111	2.548	8.487	0.855	52.0	22.0	35.5	55.5
ZF_14	87.23	0.023	3.257	1.834	6.812	0.843	49.7	23.1	36.2	58.0
ZF_15	81.656	0.02	6.49	2.429	8.557	0.848	50.7	21.1	35.9	55.8
ZF_16	85.389	0.018	3.738	2.171	7.843	0.841	50.3	22.9	36.8	58.1
ZF_17	82.547	0.019	6.189	2.087	8.093	1.065	52.2	20.1	36.3	53.7
ZF_18	71.058	0.016	10.036	6.05	11.696	1.144	51.3	20.4	37.3	52.2
ZF_19	77.023	0.025	8.134	2.925	10.712	1.182	51.2	20.0	34.6	54.5
ZF_20	76.824	0.018	8.385	3.298	10.231	1.243	51.8	20.2	35.4	54.2
