sample_id	Processed reads	Reads with adapters	Reads passing filters	Processed basepairs	Quality-trimmed basepairs	Basepairs passing filters
ZF_20 (1)	              61816939	                20392500 (33.0%)	    61816939 (100.0%)	 3090846950	             123218386 (4.0%)	  2934362419 (94.9%)
ZF_20 (2)	              61816939	                20473459 (33.1%)	    61816939 (100.0%)	 3090846950	              91606225 (3.0%)	  2965907256 (96.0%)
ZF_12 (1)	              27780077	                 9723611 (35.0%)	    27780077 (100.0%)	 1389003850	              17841700 (1.3%)	  1356112946 (97.6%)
ZF_12 (2)	              27780077	                 9513391 (34.2%)	    27780077 (100.0%)	 1389003850	              65790038 (4.7%)	  1308622950 (94.2%)
ZF_18 (1)	              53178091	                17363316 (32.7%)	    53178091 (100.0%)	 2658904550	              73636748 (2.8%)	  2557278140 (96.2%)
ZF_18 (2)	              53178091	                17317545 (32.6%)	    53178091 (100.0%)	 2658904550	              65426084 (2.5%)	  2565660602 (96.5%)
ZF_15 (1)	              51828225	                17900959 (34.5%)	    51828225 (100.0%)	 2591411250	              61522639 (2.4%)	  2500543608 (96.5%)
ZF_15 (2)	              51828225	                17853775 (34.4%)	    51828225 (100.0%)	 2591411250	              58959978 (2.3%)	  2503292561 (96.6%)
ZF_16 (1)	              58394590	                20490127 (35.1%)	    58394590 (100.0%)	 2919729500	              77730587 (2.7%)	  2809221843 (96.2%)
ZF_16 (2)	              58394590	                20317795 (34.8%)	    58394590 (100.0%)	 2919729500	              80935808 (2.8%)	  2806459030 (96.1%)
ZF_14 (1)	              54904080	                19609904 (35.7%)	    54904080 (100.0%)	 2745204000	              61704045 (2.2%)	  2651025178 (96.6%)
ZF_14 (2)	              54904080	                19532069 (35.6%)	    54904080 (100.0%)	 2745204000	              59803604 (2.2%)	  2653139230 (96.6%)
ZF_19 (1)	              52697656	                17455773 (33.1%)	    52697656 (100.0%)	 2634882800	             102017103 (3.9%)	  2504602916 (95.1%)
ZF_19 (2)	              52697656	                17536718 (33.3%)	    52697656 (100.0%)	 2634882800	              75610001 (2.9%)	  2530935257 (96.1%)
ZF_11 (1)	              28637756	                 9741661 (34.0%)	    28637756 (100.0%)	 1431887800	              17905507 (1.3%)	  1398875041 (97.7%)
ZF_11 (2)	              28637756	                 9525319 (33.3%)	    28637756 (100.0%)	 1431887800	              69070136 (4.8%)	  1348172746 (94.2%)
ZF_08 (1)	              38519014	                13324623 (34.6%)	    38519014 (100.0%)	 1925950700	             221774833 (11.5%)	  1683873265 (87.4%)
ZF_08 (2)	              38519014	                13024178 (33.8%)	    38519014 (100.0%)	 1925950700	             133042322 (6.9%)	  1773149619 (92.1%)
ZF_09 (1)	              33166969	                 9925205 (29.9%)	    33166969 (100.0%)	 1658348450	             237275507 (14.3%)	  1405714204 (84.8%)
ZF_09 (2)	              33166969	                11183138 (33.7%)	    33166969 (100.0%)	 1658348450	              63397440 (3.8%)	  1577767173 (95.1%)
ZF_17 (1)	              48811128	                16800823 (34.4%)	    48811128 (100.0%)	 2440556400	              67481055 (2.8%)	  2346265662 (96.1%)
ZF_17 (2)	              48811128	                16729711 (34.3%)	    48811128 (100.0%)	 2440556400	              65182311 (2.7%)	  2348783991 (96.2%)
ZF_10 (1)	              33585222	                 9839637 (29.3%)	    33585222 (100.0%)	 1679261100	             239644911 (14.3%)	  1424390476 (84.8%)
ZF_10 (2)	              33585222	                11063764 (32.9%)	    33585222 (100.0%)	 1679261100	              62509012 (3.7%)	  1599737822 (95.3%)
ZF_02 (1)	              28977098	                 9530741 (32.9%)	    28977098 (100.0%)	 1448854900	             212097138 (14.6%)	  1221931055 (84.3%)
ZF_02 (2)	              28977098	                 9472364 (32.7%)	    28977098 (100.0%)	 1448854900	              62696754 (4.3%)	  1371629728 (94.7%)
ZF_03 (1)	              23140753	                 7758219 (33.5%)	    23140753 (100.0%)	 1157037650	              13971222 (1.2%)	  1131102818 (97.8%)
ZF_03 (2)	              23140753	                 7585358 (32.8%)	    23140753 (100.0%)	 1157037650	              59660726 (5.2%)	  1085757889 (93.8%)
ZF_13 (1)	              48219912	                16814731 (34.9%)	    48219912 (100.0%)	 2410995600	              60163631 (2.5%)	  2323644878 (96.4%)
ZF_13 (2)	              48219912	                16821505 (34.9%)	    48219912 (100.0%)	 2410995600	              52584902 (2.2%)	  2331252709 (96.7%)
ZF_01 (1)	              36715574	                12432832 (33.9%)	    36715574 (100.0%)	 1835778700	             262540745 (14.3%)	  1553537325 (84.6%)
ZF_01 (2)	              36715574	                12332592 (33.6%)	    36715574 (100.0%)	 1835778700	              72104608 (3.9%)	  1744408206 (95.0%)
ZF_06 (1)	              25463098	                 8635624 (33.9%)	    25463098 (100.0%)	 1273154900	              92243497 (7.2%)	  1167675893 (91.7%)
ZF_06 (2)	              25463098	                 8407628 (33.0%)	    25463098 (100.0%)	 1273154900	             213626410 (16.8%)	  1046727471 (82.2%)
ZF_07 (1)	              34417738	                11737746 (34.1%)	    34417738 (100.0%)	 1720886900	             200764347 (11.7%)	  1502223863 (87.3%)
ZF_07 (2)	              34417738	                11470931 (33.3%)	    34417738 (100.0%)	 1720886900	             121636147 (7.1%)	  1581836224 (91.9%)
ZF_04 (1)	              24749172	                 8369066 (33.8%)	    24749172 (100.0%)	 1237458600	              14235948 (1.2%)	  1210284745 (97.8%)
ZF_04 (2)	              24749172	                 8188898 (33.1%)	    24749172 (100.0%)	 1237458600	              61874821 (5.0%)	  1163005514 (94.0%)
ZF_05 (1)	              29603539	                10180740 (34.4%)	    29603539 (100.0%)	 1480176950	             105716508 (7.1%)	  1358903701 (91.8%)
ZF_05 (2)	              29603539	                 9944980 (33.6%)	    29603539 (100.0%)	 1480176950	             245535846 (16.6%)	  1219555381 (82.4%)
