##FastQC	0.10.1
>>Basic Statistics	pass
#Measure	Value	
Filename	D06BVACXX_s4_1_nextera12index_7_SL7130.fastq.gz	
File type	Conventional base calls	
Encoding	Sanger / Illumina 1.9	
Total Sequences	51012337	
Filtered Sequences	0	
Sequence length	20-50	
%GC	47	
>>END_MODULE
>>Per base sequence quality	pass
#Base	Mean	Median	Lower Quartile	Upper Quartile	10th Percentile	90th Percentile
1	28.160284815024255	31.0	30.0	34.0	10.0	34.0
2	27.51023808221137	33.0	30.0	34.0	2.0	34.0
3	29.93987901397264	34.0	30.0	34.0	16.0	34.0
4	34.423477207092084	37.0	35.0	37.0	28.0	37.0
5	35.298010342086464	37.0	35.0	37.0	32.0	37.0
6	35.542258003196366	37.0	35.0	37.0	32.0	37.0
7	35.570074842875755	37.0	35.0	37.0	32.0	37.0
8	35.58185812973046	37.0	35.0	37.0	32.0	37.0
9	36.971377668896054	39.0	37.0	39.0	32.0	39.0
10	37.08787419404055	39.0	37.0	39.0	32.0	39.0
11	37.185343439568356	39.0	37.0	39.0	33.0	39.0
12	37.074117110141415	39.0	37.0	39.0	32.0	39.0
13	36.98478444537838	39.0	37.0	39.0	32.0	39.0
14	38.309230804305244	40.0	38.0	41.0	32.0	41.0
15	38.37123223740955	40.0	38.0	41.0	32.0	41.0
16	38.3182372138724	40.0	38.0	41.0	32.0	41.0
17	38.29522999505002	40.0	38.0	41.0	32.0	41.0
18	38.067296838409895	40.0	38.0	41.0	32.0	41.0
19	38.15226301041648	40.0	38.0	41.0	32.0	41.0
20	38.078021087330306	40.0	38.0	41.0	32.0	41.0
21	38.05976517585115	40.0	38.0	41.0	32.0	41.0
22	37.9854393337338	40.0	37.0	41.0	32.0	41.0
23	37.92559721237382	40.0	37.0	41.0	32.0	41.0
24	37.81752819778796	40.0	37.0	41.0	31.0	41.0
25	37.75163275188146	40.0	37.0	41.0	31.0	41.0
26	37.631605579825354	40.0	37.0	41.0	31.0	41.0
27	37.53594128375383	40.0	37.0	41.0	31.0	41.0
28	37.45315010203939	40.0	37.0	40.0	31.0	41.0
29	37.32463844549849	39.0	36.0	40.0	30.0	41.0
30	37.28951705724576	39.0	36.0	40.0	30.0	41.0
31	37.25976105291897	39.0	36.0	40.0	30.0	41.0
32	37.14813671906736	39.0	36.0	40.0	30.0	41.0
33	37.06991681482177	39.0	36.0	40.0	30.0	41.0
34	36.90410340200061	39.0	36.0	40.0	30.0	41.0
35	36.80016842838102	39.0	35.0	40.0	30.0	41.0
36	36.76902254902051	39.0	35.0	40.0	30.0	41.0
37	36.71871594696924	38.0	35.0	40.0	30.0	41.0
38	36.59468425953953	38.0	35.0	40.0	30.0	41.0
39	36.49075768830334	38.0	35.0	40.0	30.0	41.0
40	36.33921517588611	38.0	35.0	40.0	30.0	41.0
41	36.229280430425185	38.0	34.0	40.0	30.0	41.0
42	36.07735356986729	38.0	34.0	40.0	30.0	41.0
43	35.98806368254593	38.0	34.0	40.0	30.0	41.0
44	35.81134295549525	38.0	34.0	40.0	29.0	41.0
45	35.687939485252706	38.0	33.0	40.0	29.0	40.0
46	35.611540250177406	38.0	33.0	40.0	29.0	40.0
47	35.60179852070105	38.0	33.0	40.0	29.0	40.0
48	35.61517907782919	37.0	33.0	39.0	29.0	40.0
49	35.3959352915762	37.0	33.0	39.0	29.0	40.0
50	32.9055808729333	33.0	30.0	37.0	26.0	39.0
>>END_MODULE
>>Per sequence quality scores	pass
#Quality	Count
15	1.0
16	3.0
17	12.0
18	132.0
19	2379.0
20	23073.0
21	56401.0
22	106349.0
23	171345.0
24	251683.0
25	355535.0
26	514699.0
27	876753.0
28	1448619.0
29	652127.0
30	949794.0
31	1300749.0
32	1268168.0
33	1710129.0
34	2418752.0
35	3655002.0
36	5672070.0
37	7870861.0
38	1.4170095E7
39	7537606.0
>>END_MODULE
>>Per base sequence content	fail
#Base	G	A	T	C
1	47.803963419855435	18.801609280945534	9.989097236736239	23.405330062462788
2	18.071202117707333	21.151334523433245	36.01829429138736	24.759169067472055
3	19.31740678702075	23.300773151962805	31.459835693518613	25.921984367497835
4	12.87769575438778	15.182674558477343	38.046576895751876	33.89305279138299
5	13.497686025936725	36.67430979252399	36.382287438125715	13.445716743413568
6	34.1656120357908	37.795846920819265	15.595860286218317	12.442680757171615
7	27.667873311328044	31.50903964127642	22.248375773690807	18.574711273704725
8	26.173069265752257	35.89657702447691	20.332891528721326	17.597462181049504
9	26.548430592627504	12.970060319734703	18.35535576661784	42.12615332101995
10	14.26299950008652	27.189984588957948	37.00949016176507	21.53752574919046
11	38.2323682293106	20.671854928320244	21.741902773112855	19.353874069256296
12	19.76008280380402	24.86552605533575	32.94758915902813	22.4268019818321
13	29.629066004170717	20.034698665148394	25.916138678375	24.420096652305894
14	20.88404170068385	19.16486110217262	27.114697189451253	32.836400007692276
15	24.186980789974193	28.454236964020264	22.910888515461707	24.44789373054384
16	24.193106837006876	27.53377405948313	25.164174281597813	23.10894482191218
17	23.291567986948653	27.429330656938227	26.03742169389664	23.241679662216477
18	23.544576133515264	27.367341739918228	26.407418490494244	22.68066363607226
19	24.61907203340507	26.502860946545702	25.869954715483594	23.008112304565632
20	24.09340925653387	26.539747696991352	25.880937013442406	23.485906033032375
21	24.446118256403782	26.10083039058412	25.82742177899748	23.625629574014617
22	23.646026510130365	26.279218676021376	26.071541443299743	24.003213370548508
23	23.83729353554361	26.04375308137582	26.08739420200469	24.031559181075885
24	23.604647112115696	26.556678837704546	26.067941536554674	23.770732513625084
25	23.986502790814722	25.86568593142648	26.602803427851534	23.54500784990726
26	23.831788721257013	26.048094037841295	26.488360809786666	23.631756431115022
27	23.85009060193866	26.633628940267766	25.58980551283181	23.92647494496176
28	23.502128000251645	26.492436385004602	26.426295343303224	23.57914027144053
29	24.45085814975293	26.275669488391863	25.701719697786192	23.571752664069024
30	23.508792233602822	26.97072605415603	26.052891883796836	23.467589828444318
31	24.23252796925096	25.701890776595366	26.381970660327653	23.683610593826025
32	23.642857392288743	26.098866387790043	26.442342490632598	23.815933729288616
33	23.6925752019903	26.25967411177553	26.348653594390953	23.699097091843214
34	23.688483612282337	26.156471947524075	26.601710982241023	23.553333457952565
35	23.546942159215074	26.49151222065771	26.317781841023407	23.643763779103807
36	23.63094220250511	26.502255857098355	26.384810235694456	23.481991704702075
37	23.76726326382908	26.162361336717392	26.31618729170174	23.75418810775179
38	24.074003553576617	26.159425358884935	26.247594587697478	23.518976499840974
39	24.026037484111036	26.491317203487174	25.810104940852064	23.672540371549726
40	23.5773274860462	26.706939765753802	26.427867824659884	23.28786492354012
41	24.123942026656646	25.979019798066833	26.179847704928516	23.717190470348008
42	23.585752896290252	26.781307327013458	25.98362324091383	23.649316535782464
43	23.761362189419057	26.116074936684257	26.537900828875138	23.584662045021542
44	23.645539416614174	26.125901976971317	26.42873247283187	23.79982613358264
45	23.641883527131085	26.772868288441142	26.210675012909864	23.37457317151791
46	23.560968638795636	26.478357020507403	26.899518067053595	23.061156273643366
47	23.96605843363229	26.906432458948913	26.183560376164294	22.9439487312545
48	24.37881053824767	27.99023087656995	26.45377080902915	21.177187776153232
49	26.14804666493058	30.155704892767552	26.600864387319294	17.095384054982567
50	33.251210108266655	39.47374168520577	27.275048206527575	0.0
>>END_MODULE
>>Per base GC content	fail
#Base	%GC
1	71.20929348231823
2	42.83037118517939
3	45.239391154518586
4	46.77074854577078
5	26.943402769350293
6	46.608292792962416
7	46.24258458503277
8	43.77053144680176
9	68.67458391364745
10	35.80052524927698
11	57.5862422985669
12	42.18688478563612
13	54.04916265647661
14	53.72044170837612
15	48.63487452051803
16	47.30205165891906
17	46.53324764916513
18	46.225239769587525
19	47.627184337970704
20	47.579315289566246
21	48.071747830418396
22	47.64923988067888
23	47.86885271661949
24	47.375379625740784
25	47.53151064072198
26	47.46354515237204
27	47.77656554690042
28	47.081268271692174
29	48.022610813821956
30	46.976382062047136
31	47.916138563076984
32	47.45879112157736
33	47.391672293833516
34	47.2418170702349
35	47.190705938318885
36	47.112933907207186
37	47.521451371580866
38	47.59298005341759
39	47.69857785566076
40	46.86519240958632
41	47.84113249700465
42	47.23506943207272
43	47.346024234440605
44	47.44536555019681
45	47.016456698648994
46	46.622124912439
47	46.91000716488679
48	45.555998314400895
49	43.24343071991314
50	33.251210108266655
>>END_MODULE
>>Per sequence GC content	warn
#GC Content	Count
0	1892.0
1	1571.0
2	1236.0
3	1400.5
4	1587.5
5	2186.0
6	2930.5
7	4423.0
8	5996.5
9	8893.5
10	12066.0
11	18095.5
12	24206.5
13	34449.0
14	45743.5
15	61028.5
16	76732.0
17	98947.5
18	122631.5
19	161435.0
20	202330.5
21	255612.5
22	310582.5
23	376617.5
24	448775.0
25	536813.5
26	646140.5
27	765103.0
28	874801.5
29	979293.5
30	1082140.5
31	1135644.0
32	1215875.5
33	1356045.5
34	1490021.0
35	1586707.0
36	1709603.0
37	1896936.5
38	2077987.0
39	2265648.0
40	2455116.0
41	2663396.0
42	2900363.0
43	3197831.5
44	3504791.5
45	3752726.0
46	3988874.0
47	4205267.5
48	4425716.0
49	4573156.0
50	4629374.0
51	4588639.0
52	4502918.0
53	4223097.0
54	3900465.5
55	3626786.5
56	3328002.5
57	3001557.5
58	2682879.5
59	2361680.0
60	2023133.5
61	1692221.0
62	1387919.5
63	1162768.0
64	935969.0
65	754577.0
66	604359.0
67	480950.0
68	371987.5
69	284889.0
70	224277.0
71	184856.5
72	151706.0
73	125408.5
74	102798.5
75	84716.0
76	73146.5
77	63651.5
78	54979.0
79	44593.0
80	34330.0
81	27819.0
82	22308.5
83	17265.5
84	12876.0
85	9795.5
86	7507.5
87	6697.0
88	5615.0
89	4590.5
90	3851.5
91	2963.5
92	2300.5
93	1850.5
94	1073.0
95	469.0
96	167.0
97	133.5
98	70.0
99	10.5
100	10.0
>>END_MODULE
>>Per base N content	warn
#Base	N-Count
1	5.680839519271584
2	13.617429446527806
3	0.00808431889721108
4	0.004894894346832219
5	0.010356318315704688
6	3.528558199558668E-5
7	6.998307095791357E-4
8	6.763069882487446E-4
9	0.002295523139824
10	0.002960068267407549
11	0.004289158522574647
12	0.002262197867939279
13	0.0
14	2.509196941908386E-4
15	0.030645527963167028
16	0.022851334962364103
17	0.012575389361204918
18	6.704260579161468E-4
19	3.9010171206231933E-4
20	5.136012490468728E-4
21	0.0
22	0.0
23	0.0
24	0.007310659568728486
25	0.0045248611511927465
26	0.0031229763295525298
27	0.0016773840204750443
28	0.0
29	0.0021317827389768953
30	0.0
31	0.002183022636914643
32	0.007798947846346641
33	0.001094918331015392
34	2.607839747570668E-4
35	0.0036401529494533747
36	0.005828861973867749
37	0.0017974259297706616
38	0.0039867983121937576
39	0.0022656973620953265
40	0.005257750230322435
41	1.7669542509954046E-4
42	0.0
43	6.155226313411937E-6
44	0.0
45	2.0829918962450073E-6
46	0.0
47	0.0
48	0.0
49	0.0
50	0.0
>>END_MODULE
>>Sequence Length Distribution	warn
#Length	Count
20	32231.0
21	34223.0
22	35183.0
23	39777.0
24	40634.0
25	45402.0
26	51126.0
27	58720.0
28	60127.0
29	66894.0
30	67554.0
31	76231.0
32	80847.0
33	90240.0
34	97892.0
35	108338.0
36	122219.0
37	140456.0
38	154793.0
39	177661.0
40	194521.0
41	234410.0
42	263789.0
43	331791.0
44	399410.0
45	556661.0
46	924303.0
47	2018100.0
48	4691237.0
49	1.2391302E7
50	2.7426265E7
>>END_MODULE
>>Sequence Duplication Levels	fail
#Total Duplicate Percentage	63.33513280520926
#Duplication Level	Relative count
1	100.0
2	25.4194535119958
3	13.004770927020795
4	8.2863469308558
5	5.9020247905585865
6	4.454767502910494
7	3.680918574657018
8	2.9675622617389914
9	2.366060218686511
10++	62.19211541534458
>>END_MODULE
>>Overrepresented sequences	pass
>>END_MODULE
>>Kmer Content	warn
#Sequence	Count	Obs/Exp Overall	Obs/Exp Max	Max Obs/Exp Position
CTCCA	5449540	2.80263	8.079464	1
GTGTG	6195645	2.7734327	8.766751	9
CACAC	5220795	2.6890178	8.121304	5
CAGCA	5435490	2.674368	7.308364	4
TCCAG	5438470	2.6718254	10.331774	2
ACACA	5641675	2.5709724	8.409339	6
TGCTG	5443820	2.550994	6.7696133	2
TGTGT	6127595	2.536746	8.4211855	10
CTGGA	5395635	2.5322075	9.930006	4
TGGAG	5445210	2.441163	7.373695	5
CTCTG	4942680	2.4246144	8.098855	2
CTGCT	4900000	2.403678	7.8987346	9
CAGAG	5030425	2.3643541	8.545827	4
AGCAG	4950160	2.3266287	6.81559	7
CTCCT	4491160	2.3062868	5.4548335	1
CTTCA	4920965	2.2358232	5.4159327	1
CTTCT	4896740	2.2214837	5.6067214	1
CAGCT	4491450	2.2065709	5.504552	9
GAGGA	4911325	2.2051184	6.030688	6
AGGAG	4834670	2.1707015	7.412174	7
CTGCA	4392075	2.1577497	5.7620554	4
AGCTG	4526620	2.124373	7.7891793	7
CCAGA	4197445	2.0652254	7.0255694	3
TGCAG	4363105	2.0476346	5.6944633	2
TCTGG	4354090	2.0403423	7.0272756	3
AGAAG	4820625	2.0046732	5.388727	5
AGAGA	4781275	1.9883093	5.1263237	6
GCTGC	3734535	1.9808924	5.778546	8
CTGTG	4223945	1.9793558	9.757097	9
TCCTG	4020580	1.9722816	7.423479	2
CAGGA	4182575	1.9658555	7.856639	4
CCTCA	3794090	1.9512526	5.568041	1
CACAG	3962760	1.9497557	6.216681	7
CACTG	3904600	1.9182618	8.118582	7
CTCAG	3901315	1.9166479	5.685925	2
GCTGA	4060665	1.9056972	5.586327	8
CAGTG	4033410	1.8929063	7.184795	9
CTGAA	4289595	1.8645754	5.718557	4
CCTGG	3481330	1.846586	5.9388313	3
CTGAG	3924800	1.8419349	6.8563766	9
CCTCT	3557515	1.8268442	5.5009255	1
CCTGC	3277520	1.8198864	5.172823	8
GAGAG	4033255	1.810877	6.0919857	7
CCAGG	3408615	1.8107288	6.19114	3
TTCAG	4168150	1.8090724	5.8447633	2
ACAGA	4099120	1.7844542	6.4084935	8
GCTGT	3790455	1.7762208	6.792799	8
GGCTG	3503635	1.7752873	6.322532	7
CAGAA	4074820	1.7738758	5.7394705	4
ACAGC	3582600	1.7627094	7.216515	8
CTCTT	3878325	1.7594635	5.299393	1
TTCTG	3917645	1.6978002	5.7299566	2
GAGCT	3605200	1.6919445	5.818802	6
GCTCA	3443830	1.6918936	5.0116034	1
TCTGA	3875810	1.6821902	5.633312	3
TCTGT	3855295	1.6707793	5.048965	8
CCTGA	3390125	1.6655092	5.292438	3
TCAGA	3831250	1.6653447	5.7402854	3
AGAGG	3707920	1.6648059	5.526122	5
AAGAG	3851585	1.6016948	5.208978	5
TCAGG	3386435	1.5892766	5.4517903	3
GCTCT	3235300	1.5870651	5.3528214	1
TGCTC	3198840	1.5691799	5.4357386	10
GTCCA	3188525	1.5664667	7.6152525	1
CCCTG	2820015	1.5658507	5.3218856	2
TCTTG	3604140	1.5619357	5.7260704	2
CAAGA	3564615	1.5517702	5.885154	4
AGAGC	3289095	1.5459102	5.9161677	5
TGAGC	3256050	1.5280861	5.4046855	5
ACCTG	3074570	1.5104825	5.5986023	7
GACAG	3197265	1.5027491	6.5177813	7
AACAG	3403095	1.4814565	6.2237067	7
CAGGG	2905440	1.4743913	5.666609	4
CTGTC	2985015	1.4642887	6.047489	9
TGTGC	3065615	1.4365584	6.9063745	10
ACACC	2742275	1.4124335	5.5038204	6
GTGCT	3000530	1.4060591	5.1871743	1
TGGAC	2992650	1.4044707	7.6893735	5
TGTCC	2860125	1.4030246	5.5187907	10
ACTGG	2959990	1.3891431	5.1582	8
GGACA	2924010	1.3743163	5.872884	6
AGACA	3143685	1.3685284	5.052299	6
GTGTT	3294285	1.3637918	5.1008434	1
AACAC	2971285	1.3540471	5.1745863	5
AGCAC	2751245	1.3536664	5.667235	5
ACTGA	3063500	1.3316238	5.9834075	8
TACAG	3030985	1.3174903	5.313668	7
ACTGC	2643060	1.2984892	6.263688	8
GTTCA	2969410	1.2887918	5.393465	1
ACACT	2780665	1.2652808	7.0681944	6
GTCCT	2560210	1.2559022	5.76108	1
GACTG	2635220	1.2367264	6.4683404	7
ACAGT	2838925	1.2340069	6.3688784	8
ACTGT	2823640	1.2255242	7.745126	8
TGAAC	2798090	1.2162571	5.3835397	5
AGGAC	2506370	1.178021	6.3136444	5
GTGCA	2505335	1.1757704	5.072947	1
GTACA	2704640	1.1756369	6.2921014	1
AACTG	2666720	1.159154	5.5383897	7
TGCAC	2341425	1.1503012	5.153467	5
ATACA	2847895	1.1465544	5.740019	6
GTCTT	2635480	1.1421449	5.0089436	1
AGACT	2532390	1.100764	5.2724266	6
TGTAC	2390410	1.0374926	5.921475	5
TACAC	2085770	0.94908404	7.323499	5
TACTG	2166815	0.9404472	5.339134	7
GGACT	1928740	0.90517056	5.3832097	6
GTGTA	2175325	0.9019079	6.8015304	1
ATACT	1834750	0.73755854	5.1371403	6
>>END_MODULE
