INFO  16:02:32,836 HelpFormatter - -------------------------------------------------------------------------------- 
INFO  16:02:32,839 HelpFormatter - The Genome Analysis Toolkit (GATK) v3.5-0-g36282e4, Compiled 2015/11/25 04:03:56 
INFO  16:02:32,839 HelpFormatter - Copyright (c) 2010 The Broad Institute 
INFO  16:02:32,839 HelpFormatter - For support and documentation go to http://www.broadinstitute.org/gatk 
INFO  16:02:32,843 HelpFormatter - Program Args: -T IndelRealigner -R /gpfs/gpfs1/myerslab/reference/genomes/rnaseq_pipeline//genomes_processed/g1k_v37/genome.fa -I /gpfs/gpfs1/home/aalonso/test_datasets/GSE29580/results_gatk//P1N.split.bam -targetIntervals /gpfs/gpfs1/home/aalonso/test_datasets/GSE29580/results_gatk//P1N.intervals -known /gpfs/gpfs1/myerslab/reference/genomes/rnaseq_pipeline//genomes_processed/g1k_v37/gatk/1000G_phase1.indels.b37.vcf -known /gpfs/gpfs1/myerslab/reference/genomes/rnaseq_pipeline//genomes_processed/g1k_v37/gatk/Mills_and_1000G_gold_standard.indels.b37.vcf -o /gpfs/gpfs1/home/aalonso/test_datasets/GSE29580/results_gatk//P1N.processed.bam 
INFO  16:02:32,848 HelpFormatter - Executing as aalonso@node0073a on Linux 2.6.32-642.el6.x86_64 amd64; Java HotSpot(TM) 64-Bit Server VM 1.8.0_60-b27. 
INFO  16:02:32,849 HelpFormatter - Date/Time: 2016/12/07 16:02:32 
INFO  16:02:32,849 HelpFormatter - -------------------------------------------------------------------------------- 
INFO  16:02:32,849 HelpFormatter - -------------------------------------------------------------------------------- 
INFO  16:02:33,743 GenomeAnalysisEngine - Strictness is SILENT 
INFO  16:02:33,805 GenomeAnalysisEngine - Downsampling Settings: No downsampling 
INFO  16:02:33,813 SAMDataSource$SAMReaders - Initializing SAMRecords in serial 
INFO  16:02:33,903 SAMDataSource$SAMReaders - Done initializing BAM readers: total time 0.09 
INFO  16:02:34,289 GenomeAnalysisEngine - Preparing for traversal over 1 BAM files 
INFO  16:02:34,295 GenomeAnalysisEngine - Done preparing for traversal 
INFO  16:02:34,295 ProgressMeter - [INITIALIZATION COMPLETE; STARTING PROCESSING] 
INFO  16:02:34,296 ProgressMeter -                 | processed |    time |    per 1M |           |   total | remaining 
INFO  16:02:34,296 ProgressMeter -        Location |     reads | elapsed |     reads | completed | runtime |   runtime 
INFO  16:02:35,401 ReadShardBalancer$1 - Loading BAM index data 
INFO  16:02:35,402 ReadShardBalancer$1 - Done loading BAM index data 
INFO  16:02:43,245 IndelRealigner - Not attempting realignment in interval 1:567531-567617 because there are too many reads. 
INFO  16:02:45,077 IndelRealigner - Not attempting realignment in interval 1:567938-567939 because there are too many reads. 
INFO  16:02:45,207 IndelRealigner - Not attempting realignment in interval 1:568022-568023 because there are too many reads. 
INFO  16:02:48,947 IndelRealigner - Not attempting realignment in interval 1:569443-569444 because there are too many reads. 
INFO  16:02:51,631 IndelRealigner - Not attempting realignment in interval 1:569566 because there are too many reads. 
INFO  16:02:52,309 IndelRealigner - Not attempting realignment in interval 1:569982-570034 because there are too many reads. 
INFO  16:02:52,802 IndelRealigner - Not attempting realignment in interval 1:570258-570259 because there are too many reads. 
INFO  16:03:04,300 ProgressMeter -     1:211369789   1709106.0    30.0 s      17.0 s        6.8%     7.3 m       6.8 m 
INFO  16:03:30,644 IndelRealigner - Not attempting realignment in interval 5:134262778-134262823 because there are too many reads. 
INFO  16:03:34,302 ProgressMeter -      6:30229140   2949180.0    60.0 s      20.0 s       35.2%     2.8 m     110.0 s 
INFO  16:04:04,303 ProgressMeter -     11:21271800   4292557.0    90.0 s      20.0 s       59.2%     2.5 m      61.0 s 
INFO  16:04:34,305 ProgressMeter -     17:30986247   5893656.0   120.0 s      20.0 s       81.6%     2.5 m      27.0 s 
INFO  16:04:35,728 IndelRealigner - Not attempting realignment in interval 17:51183674-51183729 because there are too many reads. 
INFO  16:04:59,098 IndelRealigner - Not attempting realignment in interval MT:1743-1744 because there are too many reads. 
INFO  16:04:59,667 IndelRealigner - Not attempting realignment in interval MT:1960-2019 because there are too many reads. 
INFO  16:05:01,712 IndelRealigner - Not attempting realignment in interval MT:2430-2464 because there are too many reads. 
INFO  16:05:04,306 ProgressMeter -         MT:3326   7826992.0     2.5 m      19.0 s       99.8%     2.5 m       0.0 s 
INFO  16:05:04,334 IndelRealigner - Not attempting realignment in interval MT:3354-3386 because there are too many reads. 
INFO  16:05:06,884 IndelRealigner - Not attempting realignment in interval MT:4001 because there are too many reads. 
INFO  16:05:10,889 IndelRealigner - Not attempting realignment in interval MT:5232-5317 because there are too many reads. 
INFO  16:05:12,717 IndelRealigner - Not attempting realignment in interval MT:5982 because there are too many reads. 
INFO  16:05:16,619 IndelRealigner - Not attempting realignment in interval MT:6692 because there are too many reads. 
INFO  16:05:18,113 IndelRealigner - Not attempting realignment in interval MT:6849 because there are too many reads. 
INFO  16:05:18,177 IndelRealigner - Not attempting realignment in interval MT:6939 because there are too many reads. 
INFO  16:05:19,842 IndelRealigner - Not attempting realignment in interval MT:7098-7099 because there are too many reads. 
INFO  16:05:19,904 IndelRealigner - Not attempting realignment in interval MT:7181 because there are too many reads. 
INFO  16:05:23,583 IndelRealigner - Not attempting realignment in interval MT:7872-7933 because there are too many reads. 
INFO  16:05:27,148 IndelRealigner - Not attempting realignment in interval MT:8195-8233 because there are too many reads. 
INFO  16:05:30,216 IndelRealigner - Not attempting realignment in interval MT:8838-8890 because there are too many reads. 
INFO  16:05:34,431 IndelRealigner - Not attempting realignment in interval MT:9379-9391 because there are too many reads. 
INFO  16:05:34,446 ProgressMeter -         MT:9423   1.0240229E7     3.0 m      17.0 s       99.8%     3.0 m       0.0 s 
INFO  16:05:34,506 IndelRealigner - Not attempting realignment in interval MT:9478-9485 because there are too many reads. 
INFO  16:05:40,352 IndelRealigner - Not attempting realignment in interval MT:10819-10880 because there are too many reads. 
INFO  16:05:41,697 IndelRealigner - Not attempting realignment in interval MT:11355-11356 because there are too many reads. 
INFO  16:05:44,952 IndelRealigner - Not attempting realignment in interval MT:11905-11929 because there are too many reads. 
INFO  16:05:50,291 IndelRealigner - Not attempting realignment in interval MT:15669-15670 because there are too many reads. 
INFO  16:05:56,771 ProgressMeter -            done   1.2064083E7     3.4 m      16.0 s      100.0%     3.4 m       0.0 s 
INFO  16:05:56,772 ProgressMeter - Total runtime 202.48 secs, 3.37 min, 0.06 hours 
INFO  16:05:56,778 MicroScheduler - 34 reads were filtered out during the traversal out of approximately 12064117 total reads (0.00%) 
INFO  16:05:56,778 MicroScheduler -   -> 34 reads (0.00% of total) failing BadCigarFilter 
INFO  16:05:56,779 MicroScheduler -   -> 0 reads (0.00% of total) failing MalformedReadFilter 
