##FastQC	0.10.1
>>Basic Statistics	pass
#Measure	Value	
Filename	SRR2040576_1.fastq.gz	
File type	Conventional base calls	
Encoding	Sanger / Illumina 1.9	
Total Sequences	62765366	
Filtered Sequences	0	
Sequence length	16-100	
%GC	49	
>>END_MODULE
>>Per base sequence quality	pass
#Base	Mean	Median	Lower Quartile	Upper Quartile	10th Percentile	90th Percentile
1	33.016254967747656	34.0	33.0	34.0	31.0	34.0
2	33.29996283300571	34.0	33.0	34.0	31.0	34.0
3	33.44207845454132	34.0	34.0	34.0	31.0	34.0
4	36.6367352657515	37.0	37.0	37.0	35.0	37.0
5	36.63052421298714	37.0	37.0	37.0	35.0	37.0
6	36.64038202214897	37.0	37.0	37.0	35.0	37.0
7	36.57622708676629	37.0	37.0	37.0	35.0	37.0
8	36.56074606495563	37.0	37.0	37.0	35.0	37.0
9	38.51450006680436	39.0	39.0	39.0	37.0	39.0
10-14	38.81492798114171	39.4	39.2	39.4	37.2	39.4
15-19	40.15661620812204	41.0	40.0	41.0	38.2	41.0
20-24	40.1360517910403	41.0	40.0	41.0	38.4	41.0
25-29	39.996816322380994	41.0	40.0	41.0	38.0	41.0
30-34	39.73288346540362	41.0	40.0	41.0	37.4	41.0
35-39	39.43858732881863	40.8	39.2	41.0	36.2	41.0
40-44	39.363710003023016	41.0	39.0	41.0	35.4	41.0
45-49	39.24169126355603	40.6	39.0	41.0	35.0	41.0
50-54	39.005378893221966	40.4	37.8	41.0	35.0	41.0
55-59	38.53455184271051	39.8	36.4	41.0	35.0	41.0
60-64	37.85210530984073	38.8	35.0	41.0	34.8	41.0
65-69	37.010256314764426	36.8	35.0	39.8	34.0	41.0
70-74	36.29454980810927	35.6	35.0	38.8	34.0	40.6
75-79	35.14423866200148	34.8	34.4	36.6	32.6	39.2
80-84	35.18929410876985	35.0	35.0	36.0	34.0	37.4
85-89	34.7853570685668	35.0	35.0	35.0	33.2	36.4
90-94	34.5402595952634	35.0	35.0	35.0	33.0	36.0
95-99	34.5048816306387	35.0	35.0	35.0	33.0	35.2
100	33.91772986226275	34.0	33.0	35.0	31.0	35.0
>>END_MODULE
>>Per sequence quality scores	pass
#Quality	Count
20	6.0
21	34.0
22	145.0
23	591.0
24	1803.0
25	4437.0
26	9996.0
27	19779.0
28	38422.0
29	72040.0
30	154009.0
31	302671.0
32	535071.0
33	907641.0
34	1720141.0
35	3628659.0
36	8628186.0
37	1.7398949E7
38	2.2008206E7
39	7272792.0
40	61788.0
>>END_MODULE
>>Per base sequence content	fail
#Base	G	A	T	C
1	40.831587115843774	8.804198923507027	9.849406224952874	40.51480773569632
2	26.717990873871816	10.554598820431154	36.01547575052225	26.711934555174782
3	26.204797384200933	13.15595766992572	22.408664624088022	38.230580321785325
4	28.850006227956992	20.045521601833723	21.557124354217898	29.547347815991387
5	30.431813302897016	23.706132773925034	23.903577651407307	21.958476271770643
6	25.772590890332737	28.226128722008887	23.946356020611752	22.05492436704663
7	19.96754069752417	24.125271570948858	37.62055175460938	18.28663597691759
8	21.77072941787673	22.9548617624567	31.908178468998333	23.366230350668232
9	21.82873274410604	21.135117733560257	34.21610574213811	22.820043780195594
10-14	25.26697510216064	25.49564707389741	26.26350366538132	22.97387415856063
15-19	25.760589534952366	24.15875189972745	26.47495081660538	23.605707748714806
20-24	25.439270804278184	24.424636351591445	26.546564133311655	23.589528710818712
25-29	25.26759385670073	24.562752635494725	26.46361545819302	23.70603804961153
30-34	25.26124642613971	24.52956604673876	26.233789810345325	23.9753977167762
35-39	25.286688963873623	24.530430448196604	26.281955286994137	23.90092530093564
40-44	25.39237994472718	24.421445428997043	26.212733091805635	23.973441534470144
45-49	25.375915439759368	24.48209236884003	26.249601263798965	23.892390927601635
50-54	25.450603190427746	24.573226494908774	25.999509943999055	23.976660370664423
55-59	25.32172545486485	24.444374807404305	26.110877081973154	24.12302265575769
60-64	25.365570745490107	24.266735266485693	26.14655300771853	24.22114098030567
65-69	25.254395288501254	24.43624823986598	26.24637404635235	24.06298242528042
70-74	25.360676199708763	24.51343235252446	25.98134016715929	24.144551280607484
75-79	25.454286957090815	24.393886197286378	26.07697393015851	24.074852915464298
80-84	25.36036975003037	24.243491375230455	26.25009485450788	24.146044020231297
85-89	25.412964578742187	24.37646909584269	26.14368440444797	24.066881920967152
90-94	25.281488666618046	24.383592532488223	26.112292119426943	24.22262668146679
95-99	25.0579806039173	25.361385768123352	24.4864093245068	25.09422430345255
100	20.307963421070514	39.56054527905353	0.0	40.13149129987596
>>END_MODULE
>>Per base GC content	fail
#Base	%GC
1	81.34639485154011
2	53.4299254290466
3	64.43537770598627
4	58.39735404394838
5	52.39028957466766
6	47.82751525737937
7	38.25417667444176
8	45.13695976854496
9	44.64877652430164
10-14	48.24084926072127
15-19	49.36629728366717
20-24	49.0287995150969
25-29	48.97363190631226
30-34	49.236644142915914
35-39	49.18761426480926
40-44	49.36582147919732
45-49	49.268306367361006
50-54	49.427263561092175
55-59	49.44474811062254
60-64	49.58671172579577
65-69	49.31737771378167
70-74	49.50522748031625
75-79	49.52913987255512
80-84	49.50641377026167
85-89	49.47984649970934
90-94	49.50411534808483
95-99	50.15220490736985
100	60.43945472094647
>>END_MODULE
>>Per sequence GC content	warn
#GC Content	Count
0	176.0
1	181.0
2	382.0
3	583.0
4	658.0
5	989.5
6	1537.0
7	2012.0
8	2412.5
9	2958.0
10	3931.5
11	4970.0
12	5973.0
13	7320.0
14	8594.0
15	10008.5
16	12056.0
17	15120.5
18	18594.0
19	22474.0
20	28625.5
21	37645.5
22	49386.5
23	65061.5
24	83263.5
25	102635.5
26	128691.0
27	166619.5
28	212596.5
29	261654.0
30	319421.0
31	393648.5
32	490056.5
33	598918.5
34	732172.0
35	878409.0
36	1074293.0
37	1309520.0
38	1508318.5
39	1682413.0
40	1849111.0
41	2002144.5
42	2109370.0
43	2197679.5
44	2330411.5
45	2413196.5
46	2423583.5
47	2405797.0
48	2360503.0
49	2367701.5
50	2396347.5
51	2344599.5
52	2226285.0
53	2107445.5
54	2032464.5
55	1984736.5
56	1901824.0
57	1796455.5
58	1730761.0
59	1645734.0
60	1518278.0
61	1452453.0
62	1337444.5
63	1191109.5
64	1068946.5
65	922797.5
66	811089.5
67	728619.5
68	641329.0
69	536100.0
70	434975.5
71	357884.0
72	326105.5
73	271920.5
74	192767.5
75	159736.0
76	144996.0
77	121561.0
78	100299.0
79	83865.5
80	65441.0
81	49747.0
82	37260.5
83	28850.0
84	21935.5
85	16881.0
86	13108.0
87	9004.5
88	5540.0
89	4005.0
90	4125.0
91	4553.0
92	5582.0
93	6376.5
94	5879.0
95	3606.5
96	1000.5
97	222.5
98	153.0
99	82.0
100	83.0
>>END_MODULE
>>Per base N content	pass
#Base	N-Count
1	0.04362437717641924
2	0.007118575553275671
3	0.0014530306411341565
4	0.0
5	0.0
6	0.0
7	0.0
8	0.0
9	0.0
10-14	0.0
15-19	0.0
20-24	7.462874644313325E-4
25-29	0.0023065134197848875
30-34	0.0
35-39	0.0
40-44	0.0
45-49	0.0
50-54	0.0
55-59	0.0
60-64	0.0
65-69	0.0
70-74	0.0
75-79	0.0
80-84	0.0
85-89	0.0
90-94	0.0
95-99	0.0
100	0.0
>>END_MODULE
>>Sequence Length Distribution	warn
#Length	Count
16-17	289.0
18-19	338.0
20-21	364.0
22-23	1692.0
24-25	19725.0
26-27	45496.0
28-29	53263.0
30-31	62688.0
32-33	74908.0
34-35	72202.0
36-37	74364.0
38-39	73695.0
40-41	79016.0
42-43	88416.0
44-45	87337.0
46-47	86650.0
48-49	78038.0
50-51	90932.0
52-53	101905.0
54-55	97103.0
56-57	89592.0
58-59	95468.0
60-61	93625.0
62-63	105925.0
64-65	99112.0
66-67	95063.0
68-69	85425.0
70-71	85931.0
72-73	88008.0
74-75	101228.0
76-77	66262.0
78-79	72399.0
80-81	81150.0
82-83	89502.0
84-85	98899.0
86-87	113806.0
88-89	131782.0
90-91	162911.0
92-93	229076.0
94-95	475980.0
96-97	2731032.0
98-99	2.3537881E7
100-101	3.2846888E7
>>END_MODULE
>>Sequence Duplication Levels	fail
#Total Duplicate Percentage	77.74838521211333
#Duplication Level	Relative count
1	100.0
2	46.304062431624246
3	26.599081029830064
4	18.68025672817446
5	13.839253154401575
6	11.164393552621982
7	9.48326161476187
8	7.867770403325797
9	6.757348114652469
10++	123.97527532638028
>>END_MODULE
>>Overrepresented sequences	pass
>>END_MODULE
>>Kmer Content	warn
#Sequence	Count	Obs/Exp Overall	Obs/Exp Max	Max Obs/Exp Position
CTCCA	12807765	2.4054284	9.037837	1
CTCCT	13458565	2.339645	9.082878	1
CCCAG	11207465	2.1533298	7.196558	1
CTGGG	12924330	2.0997846	5.6185684	1
TCCAG	11307580	2.029806	6.3813252	2
GGCAG	11403745	2.0016222	5.7215023	1
GCCAG	10486225	1.9256973	5.5765734	1
CTCAG	10284505	1.8461553	5.4095216	1
CCCCA	8906765	1.7904304	6.446512	1
CTCCC	9600270	1.7862942	6.9829993	1
TCCTG	10543465	1.7518634	5.3892965	2
GGGGA	10360620	1.7381455	5.250885	1
GGGGG	10670975	1.6951989	6.5337567	1
CTCTG	10081340	1.6750784	5.8026457	1
GTGGG	9885910	1.5351437	5.9486113	1
GTCCA	6907040	1.2398717	6.282962	1
GTCCT	7413085	1.2317308	6.0449305	1
>>END_MODULE
