Sender: LSF System <lsfadmin@node0075b>
Subject: Job 1533113: <GSE69241_htsG_5> in cluster <thmorgan-cluster1> Done

Job <GSE69241_htsG_5> was submitted from host <node0067a> by user <aalonso> in cluster <thmorgan-cluster1>.
Job was executed on host(s) <node0075b>, in queue <normal>, as user <aalonso> in cluster <thmorgan-cluster1>.
</gpfs/gpfs1/home/aalonso> was used as the home directory.
</gpfs/gpfs1/home/aalonso/test_datasets/GSE69241> was used as the working directory.
Started at Sat Dec  3 00:10:47 2016
Results reported on Sat Dec  3 02:02:32 2016

Your job looked like:

------------------------------------------------------------
# LSBATCH: User input
/gpfs/gpfs1/software/HTSeq-0.5.3/bin/htseq-count --stranded=yes -m union -q /gpfs/gpfs1/home/aalonso/test_datasets/GSE69241/results_star/BRAIN_1_Aligned.out.sam /gpfs/gpfs1/myerslab/reference/genomes/rnaseq_pipeline//genomes_processed/g1k_v37/genesets.gtf > /gpfs/gpfs1/home/aalonso/test_datasets/GSE69241/results_htseq-gene/BRAIN_1.tab && (echo 'BRAIN_1' >> /gpfs/gpfs1/home/aalonso/test_datasets/GSE69241/results_htseq-gene/samples_ok.txt) || (echo 'BRAIN_1' >> /gpfs/gpfs1/home/aalonso/test_datasets/GSE69241/results_htseq-gene/samples_ko.txt)

------------------------------------------------------------

Successfully completed.

Resource usage summary:

    CPU time :                                   6769.92 sec.
    Max Memory :                                 168 MB
    Average Memory :                             166.50 MB
    Total Requested Memory :                     -
    Delta Memory :                               -
    Max Swap :                                   565 MB
    Max Processes :                              4
    Max Threads :                                5

The output (if any) follows:

