Sender: LSF System <lsfadmin@node0088b>
Subject: Job 1533108: <GSE69241_htsG_0> in cluster <thmorgan-cluster1> Done

Job <GSE69241_htsG_0> was submitted from host <node0067a> by user <aalonso> in cluster <thmorgan-cluster1>.
Job was executed on host(s) <node0088b>, in queue <normal>, as user <aalonso> in cluster <thmorgan-cluster1>.
</gpfs/gpfs1/home/aalonso> was used as the home directory.
</gpfs/gpfs1/home/aalonso/test_datasets/GSE69241> was used as the working directory.
Started at Sat Dec  3 00:10:32 2016
Results reported on Sat Dec  3 00:34:21 2016

Your job looked like:

------------------------------------------------------------
# LSBATCH: User input
/gpfs/gpfs1/software/HTSeq-0.5.3/bin/htseq-count --stranded=yes -m union -q /gpfs/gpfs1/home/aalonso/test_datasets/GSE69241/results_star/TS_1_REP_Aligned.out.sam /gpfs/gpfs1/myerslab/reference/genomes/rnaseq_pipeline//genomes_processed/g1k_v37/genesets.gtf > /gpfs/gpfs1/home/aalonso/test_datasets/GSE69241/results_htseq-gene/TS_1_REP.tab && (echo 'TS_1_REP' >> /gpfs/gpfs1/home/aalonso/test_datasets/GSE69241/results_htseq-gene/samples_ok.txt) || (echo 'TS_1_REP' >> /gpfs/gpfs1/home/aalonso/test_datasets/GSE69241/results_htseq-gene/samples_ko.txt)

------------------------------------------------------------

Successfully completed.

Resource usage summary:

    CPU time :                                   1440.39 sec.
    Max Memory :                                 168 MB
    Average Memory :                             160.62 MB
    Total Requested Memory :                     -
    Delta Memory :                               -
    Max Swap :                                   565 MB
    Max Processes :                              4
    Max Threads :                                5

The output (if any) follows:

