Sender: LSF System <lsfadmin@node0081b>
Subject: Job 1533048: <GSE69241_fas_2> in cluster <thmorgan-cluster1> Done

Job <GSE69241_fas_2> was submitted from host <node0067a> by user <aalonso> in cluster <thmorgan-cluster1>.
Job was executed on host(s) <node0081b>, in queue <normal>, as user <aalonso> in cluster <thmorgan-cluster1>.
</gpfs/gpfs1/home/aalonso> was used as the home directory.
</gpfs/gpfs1/home/aalonso/test_datasets/GSE69241> was used as the working directory.
Started at Fri Dec  2 22:54:44 2016
Results reported on Fri Dec  2 23:30:43 2016

Your job looked like:

------------------------------------------------------------
# LSBATCH: User input
/gpfs/gpfs1/software/fastqc/fastqc -q -o /gpfs/gpfs1/home/aalonso/test_datasets/GSE69241/results_fastqc /gpfs/gpfs1/home/aalonso/test_datasets/GSE69241/results_trimgalore/SRR2040579_1.fastq.gz /gpfs/gpfs1/home/aalonso/test_datasets/GSE69241/results_trimgalore/SRR2040579_2.fastq.gz && (echo 'LV_1' >> /gpfs/gpfs1/home/aalonso/test_datasets/GSE69241/results_fastqc/samples_ok.txt) || (echo 'LV_1' >> /gpfs/gpfs1/home/aalonso/test_datasets/GSE69241/results_fastqc/samples_ko.txt)

------------------------------------------------------------

Successfully completed.

Resource usage summary:

    CPU time :                                   2356.57 sec.
    Max Memory :                                 287 MB
    Average Memory :                             248.01 MB
    Total Requested Memory :                     -
    Delta Memory :                               -
    Max Swap :                                   3534 MB
    Max Processes :                              4
    Max Threads :                                29

The output (if any) follows:

