##FastQC	0.10.1
>>Basic Statistics	pass
#Measure	Value	
Filename	SRR2040578_1.fastq.gz	
File type	Conventional base calls	
Encoding	Sanger / Illumina 1.9	
Total Sequences	82628997	
Filtered Sequences	0	
Sequence length	25-100	
%GC	47	
>>END_MODULE
>>Per base sequence quality	pass
#Base	Mean	Median	Lower Quartile	Upper Quartile	10th Percentile	90th Percentile
1	33.03510146686157	34.0	33.0	34.0	31.0	34.0
2	33.15279119266085	34.0	33.0	34.0	31.0	34.0
3	33.22019003812911	34.0	33.0	34.0	31.0	34.0
4	36.55434336205243	37.0	37.0	37.0	35.0	37.0
5	36.50127782623333	37.0	37.0	37.0	35.0	37.0
6	36.48746088494817	37.0	37.0	37.0	35.0	37.0
7	36.46833758613819	37.0	37.0	37.0	35.0	37.0
8	36.47213164163181	37.0	37.0	37.0	35.0	37.0
9	38.32846759594577	39.0	39.0	39.0	37.0	39.0
10-14	38.61199397349577	39.4	39.2	39.4	37.2	39.4
15-19	39.81149892452404	41.0	40.0	41.0	38.0	41.0
20-24	39.76628432994291	41.0	40.0	41.0	37.4	41.0
25-29	39.64307819439191	41.0	39.6	41.0	37.0	41.0
30-34	39.47426809957819	41.0	39.0	41.0	36.4	41.0
35-39	39.28012711146693	40.4	39.0	41.0	35.6	41.0
40-44	39.043664487151204	40.0	38.2	41.0	35.0	41.0
45-49	39.11281250604814	40.0	38.0	41.0	35.0	41.0
50-54	38.90037245693875	40.0	37.8	41.0	35.0	41.0
55-59	38.46320012835855	40.0	36.6	41.0	35.0	41.0
60-64	37.88012297209259	39.0	35.4	41.0	34.0	41.0
65-69	37.1910992267591	37.4	35.0	40.2	34.0	41.0
70-74	36.426164069712996	36.2	35.0	39.0	33.2	41.0
75-79	35.11185385803885	34.8	34.2	37.0	31.8	39.2
80-84	35.07082391112283	35.0	35.0	36.2	33.0	38.0
85-89	34.6503598378387	35.0	35.0	35.4	33.0	36.6
90-94	34.40988143383091	35.0	34.4	35.0	33.0	36.0
95-99	34.344173006953994	35.0	34.0	35.0	33.0	35.6
100	34.32543151565829	35.0	34.0	35.0	32.0	35.0
>>END_MODULE
>>Per sequence quality scores	pass
#Quality	Count
20	1.0
21	38.0
22	257.0
23	1140.0
24	3787.0
25	9728.0
26	22624.0
27	46930.0
28	91830.0
29	172845.0
30	375599.0
31	751937.0
32	1287988.0
33	2014337.0
34	3216139.0
35	5280666.0
36	1.0585439E7
37	2.097504E7
38	2.7450774E7
39	1.0270127E7
40	71771.0
>>END_MODULE
>>Per base sequence content	fail
#Base	G	A	T	C
1	54.94857982349481	9.955905714715565	6.24403772494803	28.85147673684159
2	31.06689222665535	10.545760586795518	30.833401133824324	27.55394605272481
3	27.663021222063644	14.537250599590216	23.35058167306838	34.44914650527776
4	29.21046018832264	21.653079615753974	22.507283095484603	26.629177100438785
5	29.766738338980392	25.416963990223362	23.84034857176619	20.97594909903005
6	26.041206817504996	28.556060047539972	23.922824574525574	21.479908560429458
7	19.08272830662582	23.660474784657012	40.00389596886914	17.25290093984803
8	21.501912679598384	23.592744274514406	31.970562053912776	22.934780991974435
9	21.26586989794878	21.81810581580701	34.52012614893534	22.39589813730887
10-14	24.712303357621536	26.612161345731934	27.44800883883414	21.22752645781238
15-19	24.960491018704154	24.970958538496838	27.848371922233373	22.220178520565636
20-24	24.719403762547703	25.222597080038245	27.64259077740529	22.41540838000876
25-29	24.633882863104965	25.36271902097289	27.550621717632325	22.452776398289824
30-34	24.544075201552428	25.33965271320584	27.535218085273815	22.581053999967914
35-39	24.424435170090447	25.381519957178806	27.492185755009242	22.701859117721508
40-44	24.527060142931845	25.274487394167945	27.484908223265137	22.713544239635077
45-49	24.607772091117912	25.204099491134468	27.45746804798131	22.730660369766305
50-54	24.640675934887586	25.223861791481678	27.434884007377775	22.700578266252965
55-59	24.477710477299667	25.33917281603346	27.360986636615948	22.822130070050925
60-64	24.527102708304938	25.081478729209806	27.45502401396651	22.93639454851875
65-69	24.454835327532166	25.2340640536682	27.493428497634703	22.817672121164932
70-74	24.528664956323098	25.42807159880192	27.27072701220778	22.7725364326672
75-79	24.40678713114722	25.163564880735613	27.467218795466646	22.96242919265053
80-84	24.28829997111523	25.1917887689687	27.662543453343552	22.857367806572526
85-89	24.478226989819905	25.194607320611034	27.456533884247357	22.8706318053217
90-94	24.272992882170485	25.285501724481644	27.41561950839126	23.02588588495661
95-99	24.3016035793701	25.41155201280897	27.41213055451015	22.874713853310784
100	24.68679267257902	25.535512925672055	26.2333781112347	23.544316290514224
>>END_MODULE
>>Per base GC content	fail
#Base	%GC
1	83.8000565603364
2	58.62083827938016
3	62.11216772734141
4	55.83963728876142
5	50.74268743801045
6	47.52111537793445
7	36.33562924647385
8	44.43669367157282
9	43.661768035257644
10-14	45.93982981543392
15-19	47.18066953926979
20-24	47.134812142556456
25-29	47.086659261394786
30-34	47.125129201520345
35-39	47.12629428781195
40-44	47.24060438256692
45-49	47.33843246088421
50-54	47.34125420114055
55-59	47.29984054735059
60-64	47.463497256823686
65-69	47.2725074486971
70-74	47.3012013889903
75-79	47.369216323797744
80-84	47.145667777687756
85-89	47.3488587951416
90-94	47.2988787671271
95-99	47.17631743268088
100	48.23110896309324
>>END_MODULE
>>Per sequence GC content	pass
#GC Content	Count
0	3028.0
1	2402.0
2	1459.0
3	1158.5
4	1308.0
5	1860.5
6	2762.5
7	3517.0
8	4243.5
9	5494.0
10	7132.0
11	8735.0
12	10298.0
13	12404.0
14	14725.5
15	16721.5
16	19535.0
17	23324.5
18	27810.0
19	34231.5
20	43761.5
21	58458.5
22	80623.5
23	114432.0
24	157517.5
25	209313.5
26	279941.5
27	370809.5
28	479792.0
29	600670.0
30	742506.0
31	890849.0
32	1045560.5
33	1212132.0
34	1369190.5
35	1525950.5
36	1714919.0
37	1910487.0
38	2084560.0
39	2276068.0
40	2486267.5
41	2609508.0
42	2794890.0
43	3030908.5
44	3063886.5
45	3096462.0
46	3187068.0
47	3141866.0
48	3051412.0
49	3056630.0
50	3064138.5
51	2953606.5
52	2805621.5
53	2669006.0
54	2554400.5
55	2518363.5
56	2433239.5
57	2289080.5
58	2171935.5
59	2058624.5
60	1915721.0
61	1725784.0
62	1540392.0
63	1388940.5
64	1247444.5
65	1087324.0
66	915665.0
67	759669.5
68	617357.5
69	476491.0
70	347682.0
71	255321.5
72	190880.0
73	134529.5
74	93056.5
75	67522.5
76	49670.5
77	36323.5
78	25380.0
79	17542.0
80	12413.0
81	9130.0
82	6979.0
83	5405.0
84	4219.0
85	3334.5
86	2689.5
87	1925.0
88	1294.5
89	1010.5
90	928.5
91	887.5
92	901.0
93	978.0
94	812.0
95	396.5
96	119.0
97	69.0
98	40.0
99	8.5
100	6.0
>>END_MODULE
>>Per base N content	pass
#Base	N-Count
1	0.0026504012870929563
2	0.011065122816388537
3	0.005122898926148166
4	0.0066260032177323895
5	1.9242639481633792E-4
6	0.0
7	0.0
8	8.20535192990422E-4
9	0.0
10-14	0.0
15-19	7.648646636724877E-5
20-24	4.598869813220654E-5
25-29	1.0149042172276182E-4
30-34	1.611489751068373E-4
35-39	1.8896731662149512E-4
40-44	2.3786392250988063E-4
45-49	9.203934444856037E-4
50-54	0.0028157384250277755
55-59	4.859121776907408E-5
60-64	2.4615204598712956E-6
65-69	0.0
70-74	1.09068641871347E-5
75-79	0.010663518871295737
80-84	0.0
85-89	0.0025770956406952453
90-94	0.0017152337636461782
95-99	5.171801093894602E-4
100	0.0
>>END_MODULE
>>Sequence Length Distribution	warn
#Length	Count
24-25	29022.0
26-27	59841.0
28-29	65536.0
30-31	65212.0
32-33	68678.0
34-35	69154.0
36-37	70161.0
38-39	68607.0
40-41	69308.0
42-43	68890.0
44-45	61399.0
46-47	65600.0
48-49	74298.0
50-51	80475.0
52-53	83832.0
54-55	84116.0
56-57	95199.0
58-59	97332.0
60-61	102204.0
62-63	101343.0
64-65	106730.0
66-67	111903.0
68-69	116613.0
70-71	126563.0
72-73	143705.0
74-75	217418.0
76-77	114477.0
78-79	125471.0
80-81	136743.0
82-83	167111.0
84-85	195387.0
86-87	228452.0
88-89	251579.0
90-91	284176.0
92-93	374759.0
94-95	539393.0
96-97	826114.0
98-99	5508200.0
100-101	7.1573996E7
>>END_MODULE
>>Sequence Duplication Levels	fail
#Total Duplicate Percentage	84.92112109085991
#Duplication Level	Relative count
1	100.0
2	64.17378917378917
3	39.14213358657803
4	25.559248707396854
5	18.729555766592803
6	15.054869684499314
7	12.337765115542894
8	10.660018993352327
9	9.253983328057402
10++	232.68175582990398
>>END_MODULE
>>Overrepresented sequences	pass
>>END_MODULE
>>Kmer Content	warn
#Sequence	Count	Obs/Exp Overall	Obs/Exp Max	Max Obs/Exp Position
AAAAA	25369635	3.442341	4.2333813	9
CCAGG	17280680	2.752483	5.230396	2
CTCCT	18798280	2.7016037	6.183814	1
CTCCA	16823540	2.6647627	7.920345	1
TCTTC	21471325	2.5742164	5.406331	7
CTTCA	18128445	2.3954346	5.367088	6
TCCAG	16144270	2.3421366	6.3234177	2
CCCAG	13352785	2.3221111	6.1902547	1
GGCAG	15011395	2.1899672	9.249798	1
GCCAG	13435560	2.1400287	10.099402	1
GGCTG	15336620	2.0300584	7.448441	1
GGCCA	12386960	1.9730066	7.5943403	1
GCTGG	14674305	1.94239	5.4210873	1
GCCTC	12232215	1.9300948	6.6090646	1
CCCCA	9914595	1.8824934	6.1950493	1
GGGCA	12676970	1.8494049	6.903937	1
GCTCC	11568905	1.8254328	5.230385	1
GGGAG	13450215	1.7972084	6.9705763	1
GGCCT	12101400	1.7488874	5.885208	1
CCAGA	10757135	1.7199985	5.062507	2
GGGGC	11567570	1.6810904	7.619959	1
GGGGA	12578695	1.6807566	8.057884	1
GGGTG	13710775	1.6622394	5.5410085	1
GCCTG	11490065	1.6605376	6.4866686	1
GGGGG	12453935	1.6577086	10.534688	1
GGGCT	12318470	1.630556	5.0506907	1
GCCAC	9373565	1.6301063	6.583331	1
GCCCA	8862575	1.5412428	6.842758	1
GTGGG	12556090	1.5222503	6.7157235	1
GCCCC	7525920	1.4234772	5.191596	1
GGGGT	11342750	1.3751495	7.2747564	1
GTCCA	9468085	1.3735865	7.769722	1
GTCCT	10325635	1.3591676	7.0047216	1
GTCAG	9857650	1.3098451	5.6858993	1
GCCCT	7745715	1.2221795	5.126529	1
GTCTG	9478215	1.1427085	5.1256423	1
GTCCC	6285170	0.99172354	5.0956564	1
>>END_MODULE
