##FastQC	0.10.1
>>Basic Statistics	pass
#Measure	Value	
Filename	D03LTACXX_s4_2_nextera12index_5_SL6058.fastq.gz	
File type	Conventional base calls	
Encoding	Sanger / Illumina 1.9	
Total Sequences	24359812	
Filtered Sequences	0	
Sequence length	20-50	
%GC	48	
>>END_MODULE
>>Per base sequence quality	pass
#Base	Mean	Median	Lower Quartile	Upper Quartile	10th Percentile	90th Percentile
1	32.567835211536114	34.0	31.0	34.0	31.0	34.0
2	32.90386161436714	34.0	33.0	34.0	31.0	34.0
3	33.10564457558211	34.0	33.0	34.0	31.0	34.0
4	36.12419837230271	37.0	37.0	37.0	35.0	37.0
5	36.148715638692124	37.0	37.0	37.0	35.0	37.0
6	36.30188525264481	37.0	37.0	37.0	35.0	37.0
7	36.37558463094871	37.0	37.0	37.0	35.0	37.0
8	36.40846903908782	37.0	37.0	37.0	35.0	37.0
9	37.715993374661515	39.0	38.0	39.0	35.0	39.0
10	38.02995302262595	39.0	39.0	39.0	37.0	39.0
11	38.16251870088324	39.0	39.0	39.0	37.0	39.0
12	38.08713326687415	39.0	39.0	39.0	37.0	39.0
13	38.14645359332001	39.0	39.0	39.0	37.0	39.0
14	39.66174964732897	41.0	40.0	41.0	38.0	41.0
15	39.71265738832467	41.0	40.0	41.0	38.0	41.0
16	39.79304602186585	41.0	40.0	41.0	38.0	41.0
17	39.72261370490052	41.0	40.0	41.0	38.0	41.0
18	39.75563152950441	41.0	40.0	41.0	38.0	41.0
19	39.801567351997626	41.0	40.0	41.0	38.0	41.0
20	39.75652665135511	41.0	40.0	41.0	38.0	41.0
21	39.73420119449395	41.0	40.0	41.0	38.0	41.0
22	39.69524056320408	41.0	40.0	41.0	38.0	41.0
23	39.6034448449308	41.0	40.0	41.0	38.0	41.0
24	39.55444682813232	41.0	40.0	41.0	37.0	41.0
25	39.55008670764266	41.0	40.0	41.0	37.0	41.0
26	39.49871848528011	41.0	40.0	41.0	37.0	41.0
27	39.455428953167186	41.0	40.0	41.0	37.0	41.0
28	39.262938399559566	41.0	39.0	41.0	37.0	41.0
29	39.29961930196862	41.0	39.0	41.0	37.0	41.0
30	39.27877079811632	41.0	39.0	41.0	37.0	41.0
31	39.170081320865634	40.0	39.0	41.0	36.0	41.0
32	39.285934643231165	41.0	39.0	41.0	37.0	41.0
33	39.36389336189281	41.0	39.0	41.0	37.0	41.0
34	39.37273017610149	41.0	39.0	41.0	37.0	41.0
35	39.368200307466964	41.0	39.0	41.0	37.0	41.0
36	39.30639906878231	41.0	39.0	41.0	36.0	41.0
37	38.000047906604756	40.0	38.0	41.0	33.0	41.0
38	38.288721434485815	40.0	38.0	41.0	33.0	41.0
39	35.70786579456766	39.0	35.0	41.0	24.0	41.0
40	36.634283273980486	39.0	35.0	41.0	30.0	41.0
41	32.59381734201466	38.0	30.0	40.0	9.0	41.0
42	34.17384692968455	38.0	32.0	40.0	15.0	41.0
43	34.640242623236155	38.0	31.0	40.0	24.0	41.0
44	36.03605082352606	38.0	34.0	40.0	29.0	41.0
45	36.20552640411497	38.0	35.0	40.0	30.0	41.0
46	36.632707193167704	38.0	35.0	40.0	30.0	41.0
47	36.05411117341061	38.0	35.0	40.0	29.0	41.0
48	36.442119152891074	38.0	35.0	40.0	30.0	41.0
49	36.32364924611948	38.0	34.0	40.0	30.0	41.0
50	35.10929205391018	36.0	33.0	39.0	28.0	40.0
>>END_MODULE
>>Per sequence quality scores	pass
#Quality	Count
16	3.0
17	40.0
18	333.0
19	1744.0
20	8997.0
21	15569.0
22	22282.0
23	29467.0
24	37241.0
25	45992.0
26	56514.0
27	69685.0
28	86151.0
29	109018.0
30	141130.0
31	190434.0
32	271039.0
33	416851.0
34	696191.0
35	1232338.0
36	2243319.0
37	4011927.0
38	6576578.0
39	8096969.0
>>END_MODULE
>>Per base sequence content	fail
#Base	G	A	T	C
1	44.09662110692808	18.960294110644206	10.152188366642568	26.79089641578515
2	16.968061986685285	20.772647999089646	36.504760381566165	25.754529632658908
3	19.53654650536712	22.82558666708922	30.99921707113339	26.63864975641027
4	13.031475776578244	14.829100487310823	37.20032404190968	34.93909969420125
5	13.92211483405537	36.37251798166587	35.784795876092964	13.920571308185794
6	34.68042774714353	36.783362695902575	15.77628760024913	12.759921956704757
7	28.256654854314966	30.820948043441387	22.007751948167744	18.914645154075902
8	26.580270816539965	35.74863385645177	20.231116726188198	17.439978600820073
9	26.77948417664307	13.451725325302183	18.335794217131067	41.43299628092368
10	14.981047472780167	27.025586240156535	36.041439892885876	21.951926394177427
11	38.70077076128502	20.395937374229327	21.19076288437694	19.71252898010871
12	20.053795981676707	24.569516382146134	32.695038861547864	22.681648774629295
13	30.134489543679564	19.63612855468671	25.50791442889625	24.721467472737473
14	21.21551266487607	18.78773530764523	26.59741791110703	33.39933411637167
15	24.614697354807173	27.968216667682	22.55853616604266	24.858549811468166
16	24.844785337423787	26.93474810068321	24.74612283543075	23.47434372646226
17	24.059233297859606	26.734414042275862	25.550681589825075	23.655671070039457
18	23.9031237186888	26.979144995043473	26.06235220534543	23.0553790809223
19	25.292826562044073	25.879542912728553	25.34774898919581	23.47988153603156
20	24.486219351774967	25.959744681116586	25.56858813196095	23.985447835147497
21	24.646614636723495	25.678264487953868	25.412862001713744	24.2622588736089
22	24.021946928514296	25.7079278942513	25.760979575965372	24.509145601269033
23	24.463080978971625	25.491355105659817	25.470000552875334	24.575563362493224
24	24.21847856556277	26.01747198796608	25.71134329448366	24.052706151987493
25	24.660193439681322	25.261414983798282	25.962001379619327	24.116390196901076
26	24.443809930437	25.674159581736784	25.919432412352496	23.962598075473725
27	24.508852748625447	26.160193025783805	25.04677637012072	24.28417785547003
28	24.236422827965388	25.859269362033103	25.7756649537362	24.12864285626531
29	24.76258460437589	25.77008073402429	25.229976696200872	24.23735796539895
30	24.008425573727116	26.405205812707717	25.574536440251254	24.011832173313913
31	24.79335850943046	25.26526568144412	25.7345278423785	24.20684796674692
32	24.333815521403118	25.580646637286375	25.714240561236796	24.371297280073712
33	24.30013481695496	25.69045848202769	25.78423554545031	24.225171155567036
34	24.216401518606563	25.659900252948937	26.08171004999138	24.04198817845312
35	24.248076416464535	25.86404728037277	25.685489470954998	24.202386832207697
36	24.26685435499345	26.065565837280293	25.924506049618927	23.74307375810733
37	24.672811929646556	25.843069024738103	25.611534617031793	23.872584428583547
38	24.92678805391571	26.07498354143339	25.727663420256786	23.270564984394117
39	26.04346472360722	26.662299736480154	24.88175952865888	22.412476011253748
40	25.006554459049983	26.843256950545967	26.052150286639332	22.098038303764717
41	27.064430561973257	25.894340507401388	24.624124999258115	22.417103931367244
42	24.283896553168553	26.256699651694408	25.61215150110194	23.847252294035094
43	24.480706725854382	26.180072425791	25.87228122570665	23.466939622647967
44	24.2539162802224	25.78260197063554	25.837313939538042	24.126167809604024
45	24.15571856775366	26.344746911936706	25.882958856595234	23.6165756637144
46	24.222888884667007	25.94228202533943	26.360355838510056	23.47447325148351
47	24.479507007589405	26.38170305113869	26.082958086976543	23.055831854295366
48	24.817302145591945	27.40302470848067	26.114164088879903	21.665509057047473
49	26.422184017322927	29.263296902003404	26.189651270932014	18.12486780974166
50	33.721631906326024	39.215552477764724	27.06281561590924	0.0
>>END_MODULE
>>Per base GC content	fail
#Base	%GC
1	70.88751752271322
2	42.72259161934419
3	46.17519626177739
4	47.970575470779494
5	27.842686142241163
6	47.44034970384829
7	47.17130000839087
8	44.020249417360034
9	68.21248045756676
10	36.93297386695759
11	58.41329974139373
12	42.735444756306
13	54.855957016417044
14	54.61484678124774
15	49.47324716627534
16	48.31912906388604
17	47.71490436789907
18	46.9585027996111
19	48.77270809807563
20	48.47166718692246
21	48.90887351033239
22	48.53109252978333
23	49.038644341464845
24	48.271184717550256
25	48.776583636582394
26	48.40640800591072
27	48.79303060409547
28	48.36506568423069
29	48.99994256977484
30	48.02025774704103
31	49.000206476177375
32	48.70511280147683
33	48.52530597252199
34	48.258389697059684
35	48.45046324867223
36	48.00992811310078
37	48.5453963582301
38	48.19735303830983
39	48.45594073486097
40	47.104592762814704
41	49.481534493340504
42	48.13114884720365
43	47.947646348502346
44	48.38008408982642
45	47.77229423146806
46	47.69736213615052
47	47.53533886188477
48	46.48281120263942
49	44.547051827064585
50	33.721631906326024
>>END_MODULE
>>Per sequence GC content	warn
#GC Content	Count
0	1902.0
1	1522.0
2	1092.0
3	1084.0
4	1236.0
5	1657.5
6	2168.5
7	3120.5
8	3977.0
9	5647.5
10	7501.5
11	10356.0
12	13484.5
13	17628.0
14	22934.0
15	29768.5
16	36921.5
17	46430.0
18	55671.0
19	71133.0
20	87982.0
21	109861.5
22	133399.5
23	159446.0
24	190149.5
25	222010.0
26	259704.5
27	301513.5
28	340348.0
29	386388.0
30	431728.5
31	467313.0
32	511544.5
33	564824.5
34	621558.0
35	676448.5
36	743921.5
37	826533.5
38	901076.5
39	994851.0
40	1094880.5
41	1212399.0
42	1341905.5
43	1482736.5
44	1635326.5
45	1778133.0
46	1922685.0
47	2054956.0
48	2171866.5
49	2265102.0
50	2328558.0
51	2330591.0
52	2305393.5
53	2210733.0
54	2086886.5
55	1957031.5
56	1813448.0
57	1662388.5
58	1515241.0
59	1348589.0
60	1175783.0
61	1003644.5
62	842554.0
63	721158.5
64	586549.5
65	473924.0
66	382868.0
67	308881.5
68	245029.0
69	189634.0
70	148184.5
71	118180.0
72	93311.0
73	76268.0
74	61270.5
75	49704.0
76	41495.5
77	34216.5
78	28551.0
79	22847.0
80	17768.0
81	13980.0
82	10599.0
83	8082.0
84	5842.0
85	4447.5
86	3463.0
87	3089.5
88	2506.0
89	1986.5
90	1790.5
91	1477.0
92	1274.0
93	1063.5
94	597.5
95	283.0
96	131.5
97	89.0
98	48.0
99	9.0
100	10.0
>>END_MODULE
>>Per base N content	pass
#Base	N-Count
1	0.0
2	0.0
3	0.0
4	0.0
5	0.0
6	0.0
7	0.0
8	0.0
9	0.0
10	0.0
11	0.0
12	0.0
13	0.0
14	0.0
15	0.0
16	0.0
17	0.0
18	0.0
19	0.0
20	0.0
21	0.0
22	0.0
23	0.0
24	0.0
25	0.0
26	0.0
27	0.0
28	0.0
29	0.0
30	0.0
31	0.0
32	0.0
33	0.0
34	0.0
35	0.0
36	0.0
37	0.0
38	0.0
39	0.0
40	0.0
41	0.0
42	0.0
43	0.0
44	0.0
45	0.0
46	0.0
47	0.0
48	0.0
49	0.0
50	0.0
>>END_MODULE
>>Sequence Length Distribution	warn
#Length	Count
20	10756.0
21	10525.0
22	11166.0
23	12101.0
24	12908.0
25	14301.0
26	15650.0
27	16507.0
28	17790.0
29	20410.0
30	21202.0
31	24738.0
32	29394.0
33	45010.0
34	76562.0
35	174166.0
36	342560.0
37	400596.0
38	830005.0
39	814791.0
40	1745405.0
41	185015.0
42	247001.0
43	170261.0
44	230469.0
45	300072.0
46	469016.0
47	814297.0
48	1737179.0
49	4612713.0
50	1.0947246E7
>>END_MODULE
>>Sequence Duplication Levels	warn
#Total Duplicate Percentage	36.11834020941283
#Duplication Level	Relative count
1	100.0
2	12.414060442936135
3	5.594482314736257
4	3.3351862145636466
5	2.26587870454346
6	1.7107457359351688
7	1.3355372867967585
8	1.0832041192475352
9	0.914982007548053
10++	17.626020303677482
>>END_MODULE
>>Overrepresented sequences	pass
>>END_MODULE
>>Kmer Content	warn
#Sequence	Count	Obs/Exp Overall	Obs/Exp Max	Max Obs/Exp Position
GTGTG	3240435	3.0570297	9.310988	9
CTCCA	2668615	2.9082332	8.909352	1
CACAC	2619735	2.860954	8.324225	5
TGTGT	3148930	2.8528936	9.337586	10
CAGCA	2703405	2.8156955	7.757669	4
ACACA	2796260	2.8027768	8.827827	6
TCCAG	2681450	2.7869813	11.125935	2
TGCTG	2760995	2.7311208	7.265271	2
CTGGA	2659530	2.6362727	10.500523	4
TGGAG	2707875	2.5599716	7.812458	5
CTCTG	2438665	2.529335	8.323589	2
CTGCT	2411650	2.5013156	8.171273	9
CAGAG	2513135	2.4963844	9.006067	4
AGCAG	2450280	2.4339483	6.7742486	7
CTCCT	2186270	2.37759	5.8926272	1
CTTCA	2377445	2.3730183	5.9666686	1
GAGGA	2488535	2.3575473	6.207468	6
CTGCA	2190260	2.2764602	5.9946933	4
AGGAG	2374015	2.2490551	7.460823	7
CAGCT	2148245	2.2327917	5.4610243	9
CCAGC	1935995	2.1969557	5.1773915	3
AGCTG	2214965	2.1955955	7.50599	7
CTTCT	2191855	2.1831934	5.550156	1
TGCAG	2193885	2.1747	5.9792914	2
CCAGA	2059165	2.1446958	7.6411095	3
TGAAG	2343660	2.1322474	5.214258	5
TCTGG	2121810	2.0988514	7.3430996	3
CTGTG	2074815	2.052365	9.841272	9
TCTGC	1964375	2.0374105	5.215224	10
TCCTG	1957480	2.0302594	7.954695	2
CCTCA	1849545	2.0156178	6.136292	1
CACAG	1927285	2.007338	6.2236414	7
AGAAG	2191240	1.9977587	5.09639	5
CAGGA	2002670	1.9893218	8.230042	4
GCTGC	1840905	1.9881968	5.647079	8
CACTG	1898235	1.9729421	8.129368	7
CAGTG	1969195	1.9519747	7.11454	9
GCTGA	1965310	1.9481236	5.4337673	8
CTCAG	1852450	1.9253552	5.879492	2
GAGAG	2031110	1.9241995	6.289116	7
CTGAA	1998410	1.9063668	5.8245683	4
CCTGC	1640410	1.8576303	5.1286783	8
TTCAG	1943560	1.8501616	6.1131964	2
CCTCT	1697185	1.8457048	5.9695663	1
CTGAG	1852605	1.8364043	6.556904	9
ACAGA	1913785	1.8294694	6.6952953	8
GCTGT	1806595	1.7870474	6.6782637	8
CAGAA	1867830	1.7855393	6.058332	4
CCTGG	1651530	1.7836696	5.9179826	3
CCAGG	1645800	1.7812104	6.2315702	3
ACAGC	1704240	1.7750286	7.025042	8
GCTCA	1671485	1.7372682	5.2798667	1
AGAGG	1830070	1.7337416	5.6503544	5
TCTGT	1815555	1.7246892	5.1163177	8
TCAGA	1804515	1.7214023	5.9125094	3
TTCTG	1810850	1.72022	5.8364563	2
CTCTT	1724525	1.7177103	5.269563	1
TCTGA	1793000	1.7068365	5.1735835	3
GAGCT	1716900	1.7018858	5.5151596	6
GCTCT	1604580	1.6642386	5.6686153	1
GTCCA	1595910	1.658719	8.3885145	1
CCTGA	1585830	1.648242	5.355627	3
GGCTG	1594260	1.6421325	5.758489	7
AGAGC	1632910	1.6220262	5.9145303	5
CCCTG	1428020	1.6171161	5.7011485	2
TGCTC	1548365	1.6059334	5.574113	10
TCTTG	1623285	1.542042	6.0771804	2
TGAGC	1549670	1.5361185	5.251219	10
TCAGG	1548015	1.534478	5.5461874	3
CAAGA	1597480	1.5270998	6.2202363	4
GACAG	1527560	1.5173784	6.587696	7
CAGGG	1468770	1.5160483	5.7387047	4
AACAG	1583815	1.5140369	6.2200317	7
CTGTC	1438140	1.4916103	5.8983126	9
ACCTG	1433125	1.4895272	5.3761277	7
GTGCT	1487100	1.4710095	5.5171866	1
TGGAC	1475815	1.4629093	8.005187	5
TGTGC	1461050	1.4452413	6.916842	10
ACTGG	1440710	1.4281113	5.1713133	8
GGACA	1431950	1.4224056	5.9524374	6
TGTCC	1364825	1.4155694	5.3541994	10
ACACC	1295020	1.4142623	5.495712	6
GTGTT	1559345	1.4127482	5.5261407	1
ACTGA	1464925	1.3974532	5.950549	8
AGACA	1451980	1.3880101	5.191011	6
AGCAC	1323885	1.3788749	5.7203374	5
TACAG	1444005	1.3774966	5.418811	7
AACAC	1360465	1.3636355	5.216199	5
GTTCA	1413300	1.3453834	5.6703296	1
ACTGC	1294015	1.3449425	6.2759	8
GACTG	1331180	1.319539	6.535439	7
ACACT	1317640	1.3179458	6.926147	6
ACAGT	1368275	1.3052546	6.5424123	8
GTCCT	1244435	1.2907033	6.245417	1
ACTGT	1352835	1.287824	7.9844623	8
AGTGT	1388825	1.2608988	5.0600853	8
TGAAC	1288295	1.2289585	5.3435507	5
GTGCA	1224060	1.2133559	5.168126	1
AGGAC	1212350	1.2042693	6.2772	5
GTACA	1241435	1.1842568	6.2524123	1
AACTG	1229915	1.1732671	5.398973	7
ATACA	1277985	1.1732324	5.680697	6
AGACT	1226185	1.169709	5.386293	6
GTCTT	1218520	1.1575351	5.3941092	1
TGCAC	1097060	1.1402363	5.096704	5
TGTAC	1098870	1.0460634	5.635839	5
TACTG	1066415	1.0151681	5.527265	7
TACAC	966200	0.9664242	7.1534514	5
GTGTA	1062760	0.9648681	6.945769	1
GGACT	936795	0.92860276	5.311784	6
ATACT	830505	0.76083475	5.1880074	6
TATAC	613990	0.562483	5.020868	5
>>END_MODULE
