##FastQC	0.10.1
>>Basic Statistics	pass
#Measure	Value	
Filename	SRR2040578_1.fastq.gz	
File type	Conventional base calls	
Encoding	Sanger / Illumina 1.9	
Total Sequences	82563655	
Filtered Sequences	0	
Sequence length	20-100	
%GC	47	
>>END_MODULE
>>Per base sequence quality	pass
#Base	Mean	Median	Lower Quartile	Upper Quartile	10th Percentile	90th Percentile
1	33.035213230325134	34.0	33.0	34.0	31.0	34.0
2	33.15289234712296	34.0	33.0	34.0	31.0	34.0
3	33.220306368462005	34.0	33.0	34.0	31.0	34.0
4	36.55446272333753	37.0	37.0	37.0	35.0	37.0
5	36.50141417552312	37.0	37.0	37.0	35.0	37.0
6	36.487577881575135	37.0	37.0	37.0	35.0	37.0
7	36.46845423691575	37.0	37.0	37.0	35.0	37.0
8	36.472218508252816	37.0	37.0	37.0	35.0	37.0
9	38.32854418811764	39.0	39.0	39.0	37.0	39.0
10-14	38.612165890669445	39.4	39.2	39.4	37.2	39.4
15-19	39.81170862651369	41.0	40.0	41.0	38.0	41.0
20-24	39.7665109245911	41.0	40.0	41.0	37.4	41.0
25-29	39.64361908685615	41.0	39.6	41.0	37.0	41.0
30-34	39.47497972364823	41.0	39.0	41.0	36.4	41.0
35-39	39.28080479494979	40.4	39.0	41.0	35.6	41.0
40-44	39.04414161079646	40.0	38.2	41.0	35.0	41.0
45-49	39.113125902810815	40.0	38.0	41.0	35.0	41.0
50-54	38.90059641215238	40.0	37.8	41.0	35.0	41.0
55-59	38.46349846846017	40.0	36.6	41.0	35.0	41.0
60-64	37.88072301004598	39.0	35.4	41.0	34.0	41.0
65-69	37.19221406322894	37.4	35.0	40.2	34.0	41.0
70-74	36.427526380157815	36.2	35.0	39.0	33.2	41.0
75-79	35.11265942924071	34.8	34.2	37.0	31.8	39.2
80-84	35.07138214776471	35.0	35.0	36.2	33.0	38.0
85-89	34.650985667136	35.0	35.0	35.4	33.0	36.6
90-94	34.41067792817248	35.0	34.4	35.0	33.0	36.0
95-99	34.343756033803984	35.0	34.0	35.0	33.0	35.6
100	34.2705257185705	35.0	34.0	35.0	32.0	35.0
>>END_MODULE
>>Per sequence quality scores	pass
#Quality	Count
20	3.0
21	39.0
22	275.0
23	1197.0
24	3878.0
25	9929.0
26	22916.0
27	47254.0
28	92268.0
29	173947.0
30	378094.0
31	751377.0
32	1281840.0
33	2001521.0
34	3194165.0
35	5234920.0
36	1.0459991E7
37	2.0710896E7
38	2.7415108E7
39	1.0703514E7
40	80523.0
>>END_MODULE
>>Per base sequence content	fail
#Base	G	A	T	C
1	54.93772294525726	9.957434501496927	6.243944284565583	28.86089826868023
2	31.056236909332608	10.547965278557312	30.836419748263566	27.559378063846513
3	27.65702798507896	14.538593437861195	23.349236302811416	34.45514227424842
4	29.20692393136942	21.652718281690888	22.503405598165774	26.636952188773922
5	29.76086671523696	25.41940568989472	23.836769218202676	20.98295837666564
6	26.033980690413962	28.559751866605225	23.923238378921088	21.483029064059725
7	19.077091487773888	23.661265965030253	40.00463763383537	17.257004913360486
8	21.495564531303177	23.595050357740853	31.97246630290475	22.936918808051214
9	21.259419777382675	21.819769243500666	34.51839674491154	22.40241423420511
10-14	24.707266411594787	26.614514824955364	27.443961389548466	21.234257373901386
15-19	24.956155795537953	24.970493107834972	27.845769665267884	22.22758143135919
20-24	24.715847262311204	25.223283728340984	27.639361258009544	22.421507751338268
25-29	24.629916747687837	25.36612581813763	27.549887842392728	22.454069591781803
30-34	24.539592902850544	25.343720154949555	27.533609895974458	22.583077046225444
35-39	24.422250661703604	25.38342512180616	27.491963343133868	22.702360873356373
40-44	24.52674594815373	25.27763959599104	27.48295317398137	22.712661281873853
45-49	24.605602956508754	25.207680888287342	27.45690028142649	22.72981587377742
50-54	24.63999888971902	25.22896727392901	27.43332759276509	22.697706243586886
55-59	24.47784752810248	25.340848837568803	27.36215726060974	22.819146373718972
60-64	24.52530569249026	25.085210271860596	27.45771547604477	22.931768559604375
65-69	24.452411796904112	25.239145167294158	27.496182351602577	22.812260684199153
70-74	24.530477641588757	25.435882403724047	27.27075055225964	22.76288940242756
75-79	24.41045035398796	25.168103380460476	27.466199360344252	22.955246905207314
80-84	24.29028693362032	25.194402610384554	27.662837058538685	22.852473397456446
85-89	24.48016207892073	25.200043801026904	27.459045976839136	22.86074814321323
90-94	24.280154019098664	25.303259683324463	27.41642306889944	23.00016322867743
95-99	24.939568810436572	26.25795158455009	27.606070966893526	21.196408638119816
100	33.989421326600485	38.680041650056026	27.33053702334349	0.0
>>END_MODULE
>>Per base GC content	fail
#Base	%GC
1	83.79862121393748
2	58.61561497317912
3	62.11217025932739
4	55.84387612014334
5	50.74382509190261
6	47.51700975447368
7	36.334096401134374
8	44.4324833393544
9	43.661834011587786
10-14	45.94152378549617
15-19	47.18373722689715
20-24	47.137355013649476
25-29	47.08398633946964
30-34	47.122669949075984
35-39	47.12461153505998
40-44	47.23940723002758
45-49	47.33541883028617
50-54	47.3377051333059
55-59	47.29699390182145
60-64	47.457074252094635
65-69	47.26467248110326
70-74	47.293367044016314
75-79	47.36569725919528
80-84	47.142760331076765
85-89	47.34091022213396
90-94	47.28031724777609
95-99	46.13597744855639
100	33.989421326600485
>>END_MODULE
>>Per sequence GC content	pass
#GC Content	Count
0	3029.0
1	2403.0
2	1464.0
3	1168.5
4	1321.0
5	1879.0
6	2790.5
7	3555.0
8	4286.5
9	5541.0
10	7185.5
11	8801.5
12	10393.5
13	12546.0
14	14940.5
15	17083.5
16	20044.5
17	24050.0
18	29046.5
19	36134.5
20	46323.5
21	63143.5
22	87951.5
23	123471.5
24	170860.0
25	226327.5
26	299142.5
27	395062.5
28	508409.0
29	641597.0
30	790014.0
31	935475.5
32	1090843.5
33	1257121.5
34	1414517.0
35	1573565.5
36	1760853.5
37	1971118.5
38	2149221.5
39	2346242.5
40	2543132.0
41	2668152.0
42	2888647.5
43	3058016.5
44	3068237.0
45	3136213.0
46	3175899.5
47	3109130.5
48	3068115.0
49	3059229.5
50	3050873.0
51	2934110.5
52	2781993.5
53	2669681.5
54	2555472.0
55	2532821.5
56	2420862.0
57	2239721.0
58	2147947.0
59	2045435.0
60	1874629.0
61	1673798.0
62	1501842.5
63	1357612.0
64	1200662.5
65	1032537.5
66	866940.0
67	717281.5
68	576299.0
69	439427.5
70	322812.0
71	239279.5
72	173635.0
73	120251.5
74	86469.5
75	63243.5
76	46491.5
77	33913.5
78	23635.0
79	16500.5
80	11893.5
81	8785.0
82	6734.5
83	5272.0
84	4158.0
85	3269.0
86	2596.5
87	1860.0
88	1272.5
89	1007.0
90	914.5
91	865.5
92	892.0
93	978.5
94	805.5
95	387.0
96	117.5
97	69.0
98	41.0
99	10.0
100	7.0
>>END_MODULE
>>Per base N content	pass
#Base	N-Count
1	0.002650076477355563
2	0.011065401598318291
3	0.005124530884685277
4	0.00662640238007874
5	1.9257868368351667E-4
6	0.0
7	0.0
8	8.211845757070711E-4
9	0.0
10-14	0.0
15-19	7.65469987974733E-5
20-24	4.602578635376954E-5
25-29	1.0158446576556104E-4
30-34	1.6130258836360455E-4
35-39	1.8890914368724273E-4
40-44	2.3809994990923512E-4
45-49	9.208466745894518E-4
50-54	0.0028170332033929705
55-59	4.864577651594673E-5
60-64	2.4643502472575015E-6
65-69	0.0
70-74	1.0920732382734708E-5
75-79	0.010662095556136798
80-84	0.0
85-89	0.002572299087784922
90-94	0.0017149688425121764
95-99	5.342693747039591E-4
100	0.0
>>END_MODULE
>>Sequence Length Distribution	warn
#Length	Count
20-21	777.0
22-23	2655.0
24-25	36054.0
26-27	61402.0
28-29	65550.0
30-31	66000.0
32-33	70264.0
34-35	69892.0
36-37	70496.0
38-39	68811.0
40-41	69950.0
42-43	67998.0
44-45	63286.0
46-47	67178.0
48-49	76425.0
50-51	81332.0
52-53	85027.0
54-55	86854.0
56-57	96301.0
58-59	97420.0
60-61	103144.0
62-63	102356.0
64-65	107869.0
66-67	112398.0
68-69	118699.0
70-71	129398.0
72-73	152670.0
74-75	201830.0
76-77	114841.0
78-79	127372.0
80-81	138442.0
82-83	171525.0
84-85	198609.0
86-87	231895.0
88-89	258491.0
90-91	303980.0
92-93	409601.0
94-95	732755.0
96-97	3199327.0
98-99	2.7161171E7
100-101	4.718361E7
>>END_MODULE
>>Sequence Duplication Levels	fail
#Total Duplicate Percentage	84.94753303806988
#Duplication Level	Relative count
1	100.0
2	64.35350411082031
3	39.239167790202764
4	25.608692203981285
5	18.8040288682687
6	15.12676130806038
7	12.358897084093373
8	10.651122214291378
9	9.300235281677109
10++	233.28046104634257
>>END_MODULE
>>Overrepresented sequences	pass
>>END_MODULE
>>Kmer Content	warn
#Sequence	Count	Obs/Exp Overall	Obs/Exp Max	Max Obs/Exp Position
AAAAA	25315510	3.3756995	4.6660204	95-96
CCAGG	17268640	2.7884638	5.3019342	2
CTCCT	18562935	2.759047	6.3709974	1
CTCCA	16822470	2.7448018	8.10262	1
TCTTC	21127000	2.59253	5.5569196	7
CCAGC	14334545	2.5607147	5.091111	2
CTTCA	18125695	2.4416838	5.4404263	6
CCCAG	13336580	2.382439	6.3572335	1
TCCAG	16153410	2.3824022	6.4156537	2
GGCAG	14993255	2.1884289	9.191388	1
GCCAG	13433010	2.1691034	10.21617	1
GGCTG	15102125	2.0080097	7.4330487	1
GGCCA	12353220	1.9947436	7.663567	1
GCCTC	12054940	1.9617043	6.792251	1
CCCCA	9906970	1.9578911	6.396801	1
GCTGG	14673870	1.9510678	5.396055	1
GCTCC	11402950	1.8556057	5.3729744	1
GGGCA	12642095	1.8452513	6.9047184	1
GGGAG	13441135	1.773381	6.8940883	1
GGCCT	11908715	1.7517133	5.9269776	1
CCAGA	10757660	1.7417165	5.094256	2
GCCTG	11352815	1.6699431	6.5321374	1
GGGGC	11412120	1.6613076	7.5605044	1
GGGGA	12542185	1.6547763	7.902504	1
GCCAC	9216060	1.6463516	6.722774	1
GGGTG	13680955	1.6442721	5.4048123	1
GGGGG	12439400	1.6368645	10.295139	1
GGGCT	12123115	1.6119142	5.035287	1
GCCCA	8852350	1.5813788	6.9844017	1
GTGGG	12527125	1.5055968	6.5834484	1
GCCCC	7411190	1.4607736	5.452072	1
GTCCA	9457565	1.3948586	7.8777466	1
GTCCT	10160960	1.3651386	7.1136565	1
GGGGT	11325115	1.3611308	7.173189	1
GTCAG	9841220	1.3119866	5.724469	1
GCCCT	7640810	1.2433915	5.2544217	1
GTCTG	9349600	1.1354413	5.1631646	1
GTCCC	6190975	1.0074594	5.2157183	1
>>END_MODULE
