sample_id	Processed reads	Reads with adapters	Reads passing filters	Processed basepairs	Quality-trimmed basepairs	Basepairs passing filters
P2T	              11461875	                 3759467 (32.8%)	    11461875 (100.0%)	   745021875	             116777398 (15.7%)	    619551419 (83.2%)
P2N	              11308009	                 3549409 (31.4%)	    11308009 (100.0%)	   735020585	             135669956 (18.5%)	    593316713 (80.7%)
P1T	               8542144	                 2568130 (30.1%)	     8542144 (100.0%)	   555239360	              98835769 (17.8%)	    452214961 (81.4%)
P1N	               9037384	                 3037216 (33.6%)	     9037384 (100.0%)	   587429960	              56736195 (9.7%)	    524952846 (89.4%)
