           Time    Speed        Read     Read   Mapped   Mapped   Mapped   Mapped Unmapped Unmapped Unmapped Unmapped
                    M/hr      number   length   unique   length   MMrate    multi   multi+       MM    short    other
Dec 02 22:56:55	Started 1st pass mapping
Dec 02 22:57:04     47.1      117785      188    83.9%    189.1     0.1%    15.8%     0.1%     0.0%     0.2%     0.0%
Dec 02 22:58:04    533.2    10219561      187    84.0%    188.1     0.1%    15.6%     0.1%     0.0%     0.2%     0.0%
Dec 02 22:59:04    568.5    20372555      187    84.0%    188.3     0.1%    15.7%     0.1%     0.0%     0.2%     0.0%
Dec 02 23:00:04    577.1    30295679      187    84.0%    188.5     0.1%    15.7%     0.1%     0.0%     0.2%     0.0%
Dec 02 23:01:04    576.8    39894130      187    84.0%    188.5     0.1%    15.7%     0.1%     0.0%     0.2%     0.0%
Dec 02 23:02:04    562.3    48261486      187    84.0%    188.3     0.2%    15.7%     0.1%     0.0%     0.2%     0.0%
Dec 02 23:03:04    565.5    57965170      187    84.0%    188.3     0.2%    15.7%     0.1%     0.0%     0.2%     0.0%
Dec 02 23:04:06    552.1    66099211      187    83.9%    188.3     0.2%    15.7%     0.1%     0.0%     0.2%     0.0%
Dec 02 23:04:18	Finished 1st pass mapping
Dec 02 23:07:40    134.4     2875192      188    83.4%    189.1     0.1%    16.2%     0.2%     0.0%     0.2%     0.0%
Dec 02 23:08:41    152.6     5848961      188    83.4%    189.0     0.1%    16.2%     0.2%     0.0%     0.2%     0.0%
Dec 02 23:09:41    173.3     9533182      187    83.4%    188.2     0.1%    16.2%     0.2%     0.0%     0.2%     0.0%
Dec 02 23:10:43    169.6    12252241      187    83.4%    188.1     0.1%    16.2%     0.2%     0.0%     0.2%     0.0%
Dec 02 23:11:46    169.2    15181321      187    83.4%    188.2     0.1%    16.2%     0.2%     0.0%     0.2%     0.0%
Dec 02 23:12:46    172.4    18338293      187    83.4%    188.3     0.1%    16.3%     0.2%     0.0%     0.2%     0.0%
Dec 02 23:13:46    175.7    21616110      187    83.4%    188.2     0.1%    16.3%     0.2%     0.0%     0.2%     0.0%
Dec 02 23:14:59    172.0    24658218      187    83.4%    188.3     0.1%    16.3%     0.2%     0.0%     0.2%     0.0%
Dec 02 23:15:59    173.1    27698793      187    83.4%    188.4     0.1%    16.3%     0.2%     0.0%     0.2%     0.0%
Dec 02 23:17:02    176.4    31316036      187    83.4%    188.4     0.1%    16.3%     0.2%     0.0%     0.2%     0.0%
Dec 02 23:18:11    173.6    34144189      187    83.4%    188.3     0.1%    16.3%     0.2%     0.0%     0.2%     0.0%
Dec 02 23:19:11    174.8    37299322      187    83.4%    188.4     0.1%    16.3%     0.2%     0.0%     0.2%     0.0%
Dec 02 23:20:11    175.4    40345984      187    83.4%    188.4     0.2%    16.3%     0.2%     0.0%     0.2%     0.0%
Dec 02 23:21:15    176.1    43634808      187    83.4%    188.3     0.2%    16.3%     0.2%     0.0%     0.2%     0.0%
Dec 02 23:22:19    174.9    46458187      187    83.4%    188.3     0.2%    16.3%     0.2%     0.0%     0.2%     0.0%
Dec 02 23:23:20    176.0    49726719      187    83.4%    188.3     0.2%    16.3%     0.2%     0.0%     0.2%     0.0%
Dec 02 23:24:34    175.6    53224250      187    83.3%    188.3     0.2%    16.3%     0.2%     0.0%     0.2%     0.0%
Dec 02 23:25:35    175.9    56273183      187    83.3%    188.3     0.2%    16.3%     0.2%     0.0%     0.2%     0.0%
Dec 02 23:26:49    176.2    59993063      187    83.3%    188.3     0.2%    16.3%     0.2%     0.0%     0.2%     0.0%
Dec 02 23:27:49    176.8    63149968      187    83.3%    188.4     0.2%    16.3%     0.2%     0.0%     0.2%     0.0%
Dec 02 23:28:49    177.7    66437529      187    83.3%    188.3     0.3%    16.3%     0.2%     0.0%     0.2%     0.0%
ALL DONE!
