           Time    Speed        Read     Read   Mapped   Mapped   Mapped   Mapped Unmapped Unmapped Unmapped Unmapped
                    M/hr      number   length   unique   length   MMrate    multi   multi+       MM    short    other
Dec 02 23:27:23	Started 1st pass mapping
Dec 02 23:27:32     46.2      115482      194    92.4%    194.4     0.1%     5.6%     0.2%     0.0%     1.9%     0.0%
Dec 02 23:28:32    538.6    10323794      195    92.4%    194.6     0.1%     5.6%     0.2%     0.0%     1.8%     0.0%
Dec 02 23:29:32    577.5    20693515      195    92.4%    194.8     0.1%     5.6%     0.2%     0.0%     1.8%     0.0%
Dec 02 23:30:32    589.5    30950654      195    92.4%    194.8     0.1%     5.6%     0.2%     0.0%     1.8%     0.0%
Dec 02 23:31:32    597.9    41355772      195    92.4%    194.6     0.1%     5.6%     0.2%     0.0%     1.8%     0.0%
Dec 02 23:32:32    600.2    51515232      195    92.4%    194.6     0.1%     5.6%     0.2%     0.0%     1.8%     0.0%
Dec 02 23:33:32    603.9    61897013      195    92.4%    194.6     0.1%     5.6%     0.2%     0.0%     1.8%     0.0%
Dec 02 23:34:32    605.7    72176181      195    92.4%    194.6     0.1%     5.6%     0.2%     0.0%     1.8%     0.0%
Dec 02 23:35:32	Finished 1st pass mapping
Dec 02 23:38:55    391.0     6516449      195    92.2%    194.7     0.1%     5.7%     0.2%     0.0%     1.8%     0.1%
Dec 02 23:39:55    419.1    13968578      195    92.2%    194.6     0.1%     5.7%     0.2%     0.0%     1.8%     0.1%
Dec 02 23:40:55    431.5    21574997      195    92.2%    194.8     0.1%     5.8%     0.2%     0.0%     1.8%     0.1%
Dec 02 23:41:55    432.8    28853655      195    92.2%    194.8     0.1%     5.8%     0.2%     0.0%     1.8%     0.1%
Dec 02 23:42:55    439.2    36602314      195    92.2%    194.6     0.1%     5.8%     0.2%     0.0%     1.8%     0.1%
Dec 02 23:43:56    444.3    44552601      195    92.2%    194.7     0.1%     5.8%     0.2%     0.0%     1.8%     0.1%
Dec 02 23:44:56    444.3    51956064      195    92.2%    194.6     0.1%     5.8%     0.2%     0.0%     1.8%     0.1%
Dec 02 23:45:58    446.5    59903841      195    92.2%    194.6     0.1%     5.8%     0.2%     0.0%     1.8%     0.1%
Dec 02 23:46:58    447.8    67540603      195    92.2%    194.6     0.1%     5.8%     0.2%     0.0%     1.8%     0.1%
Dec 02 23:48:00    447.9    75268644      195    92.2%    194.6     0.1%     5.8%     0.2%     0.0%     1.8%     0.1%
Dec 02 23:52:03    350.5    82563655      195    92.2%    194.6     0.1%     5.8%     0.2%     0.0%     1.8%     0.1%
ALL DONE!
