##FastQC	0.10.1
>>Basic Statistics	pass
#Measure	Value	
Filename	SRR2040579_1.fastq.gz	
File type	Conventional base calls	
Encoding	Sanger / Illumina 1.9	
Total Sequences	67902795	
Filtered Sequences	0	
Sequence length	20-100	
%GC	50	
>>END_MODULE
>>Per base sequence quality	pass
#Base	Mean	Median	Lower Quartile	Upper Quartile	10th Percentile	90th Percentile
1	32.5691586774889	34.0	31.0	34.0	31.0	34.0
2	32.92578019800216	34.0	31.0	34.0	31.0	34.0
3	33.05355296494054	34.0	33.0	34.0	31.0	34.0
4	36.41710499545711	37.0	37.0	37.0	35.0	37.0
5	36.37111055590569	37.0	37.0	37.0	35.0	37.0
6	36.35136431423773	37.0	37.0	37.0	35.0	37.0
7	36.3365455133327	37.0	37.0	37.0	35.0	37.0
8	36.30101712308013	37.0	37.0	37.0	35.0	37.0
9	38.14489973498145	39.0	39.0	39.0	37.0	39.0
10-14	38.39098794386888	39.4	39.2	39.4	37.0	39.4
15-19	39.582429032560434	41.0	39.8	41.0	37.0	41.0
20-24	39.644753501829605	41.0	39.8	41.0	37.0	41.0
25-29	39.469386795110665	40.8	39.0	41.0	36.6	41.0
30-34	39.17460150187434	40.0	38.8	41.0	35.6	41.0
35-39	38.827562309274775	40.0	38.0	41.0	35.0	41.0
40-44	38.70857373779965	40.0	38.0	41.0	35.0	41.0
45-49	38.65531452045682	40.0	38.0	41.0	35.0	41.0
50-54	38.484151967808494	40.0	37.2	41.0	35.0	41.0
55-59	38.02660554624149	39.4	35.6	41.0	34.0	41.0
60-64	37.31527758561229	38.2	35.0	40.4	33.6	41.0
65-69	36.47609536002932	36.4	35.0	39.4	33.0	41.0
70-74	35.76838514404578	35.2	35.0	38.0	33.0	40.0
75-79	34.536789956290896	34.8	33.6	36.0	31.6	38.4
80-84	34.67333483814169	35.0	34.8	35.6	33.0	37.0
85-89	34.345677471572	35.0	34.0	35.0	32.2	36.0
90-94	34.134014763674564	35.0	34.0	35.0	32.0	35.6
95-99	34.21774337520585	35.0	34.0	35.0	32.4	35.0
100	33.90643195965641	34.0	33.0	35.0	31.0	35.0
>>END_MODULE
>>Per sequence quality scores	pass
#Quality	Count
20	6.0
21	49.0
22	317.0
23	1242.0
24	3844.0
25	9845.0
26	22052.0
27	45781.0
28	90519.0
29	171290.0
30	374541.0
31	743978.0
32	1287931.0
33	2055773.0
34	3333983.0
35	5607221.0
36	1.0331372E7
37	1.7816904E7
38	1.9857233E7
39	5989876.0
40	159038.0
>>END_MODULE
>>Per base sequence content	fail
#Base	G	A	T	C
1	40.82574672155358	8.836415241513967	10.840872504848337	39.49696553208412
2	27.419946579727437	10.673524272739327	34.735041725005786	27.171487422527445
3	26.122555043573687	13.170350351557694	22.416374760420393	38.290719844448226
4	29.19222544521179	19.390060453328907	21.467873303300696	29.949840798158604
5	30.962039191464797	23.083225071957642	23.608087119241556	22.346648617336
6	26.51361847476234	27.41168607271615	23.629476518602804	22.4452189339187
7	20.42433010305393	23.65811156963421	37.23843768139441	18.679120645917447
8	22.28780126061085	22.694846360889855	31.783545876130724	23.23380650236857
9	22.162675336118344	20.6740650366454	33.83004337303052	23.333216254205734
10-14	25.620838435295628	24.6165772704938	26.350754781154446	23.411829513056126
15-19	26.048818167205045	23.352044345155456	26.512900978523785	24.086236509115714
20-24	25.780337117287903	23.505009599707677	26.602152362967573	24.112500920036847
25-29	25.63577825135348	23.792484211404087	26.474080048220056	24.097657489022378
30-34	25.539793499702917	23.61491248372899	26.0856159158737	24.759678100694394
35-39	25.625167947625467	23.727478998829813	26.12756908185644	24.51978397168828
40-44	25.74601389106137	23.550409888904422	26.13405086520445	24.569525354829757
45-49	25.58411542151367	23.56000998085016	26.43408278458683	24.42179181304934
50-54	25.718756026209498	23.795571885311467	25.968876025364416	24.516796063114615
55-59	25.594900887223925	23.422576200762762	26.201468641153514	24.781054270859798
60-64	25.68237771227996	23.3182630858632	26.151353869433215	24.84800533242363
65-69	25.42108275089684	23.2636160288067	26.612610394566715	24.70269082572974
70-74	25.335941191139895	23.649948479844486	26.11750623861865	24.896604090396973
75-79	25.569950553555593	23.59988015904792	26.343870917564278	24.48629836983221
80-84	25.50555692954723	23.240263312717836	26.56970377757203	24.684475980162905
85-89	25.726855867534788	23.41405377100324	26.27008385232148	24.589006509140493
90-94	25.252600167354455	23.431483538102842	26.479192397135144	24.83672389740756
95-99	25.155506022240242	21.81890384403062	27.507060840607583	25.518529293121556
100	22.547341330028743	0.0	38.703666617028745	38.74899205294251
>>END_MODULE
>>Per base GC content	fail
#Base	%GC
1	80.32271225363769
2	54.59143400225489
3	64.4132748880219
4	59.142066243370394
5	53.308687808800805
6	48.95883740868104
7	39.10345074897138
8	45.521607762979414
9	45.49589159032408
10-14	49.03266794835176
15-19	50.135054676320756
20-24	49.89283803732475
25-29	49.73343574037586
30-34	50.299471600397304
35-39	50.144951919313755
40-44	50.31553924589113
45-49	50.005907234563004
50-54	50.23555208932412
55-59	50.37595515808373
60-64	50.53038304470358
65-69	50.12377357662658
70-74	50.232545281536865
75-79	50.056248923387805
80-84	50.19003290971013
85-89	50.31586237667528
90-94	50.08932406476201
95-99	50.6740353153618
100	61.296333382971255
>>END_MODULE
>>Per sequence GC content	warn
#GC Content	Count
0	119.0
1	93.5
2	133.5
3	203.0
4	233.5
5	358.5
6	682.0
7	971.0
8	1158.5
9	1583.5
10	2264.0
11	2827.0
12	3216.0
13	3772.5
14	4394.5
15	4980.5
16	5713.0
17	6669.5
18	8059.5
19	9656.5
20	11954.5
21	15336.5
22	20408.0
23	27256.0
24	36812.5
25	47343.5
26	58704.0
27	76171.5
28	101902.5
29	130099.0
30	161987.5
31	200237.0
32	253613.5
33	319783.0
34	409981.5
35	545304.0
36	730432.0
37	951108.0
38	1155918.5
39	1349476.5
40	1562908.5
41	1859060.0
42	2219612.5
43	2581918.0
44	2937116.5
45	3143359.5
46	3129467.5
47	3071125.5
48	3074207.5
49	3029973.0
50	2966510.5
51	2981145.0
52	2945335.5
53	2880850.0
54	2791192.5
55	2673785.0
56	2562198.0
57	2385578.0
58	2237011.5
59	2110303.5
60	1924652.5
61	1744374.5
62	1517284.0
63	1294549.5
64	1124309.5
65	933169.5
66	785616.0
67	678164.5
68	596830.0
69	509686.0
70	411517.0
71	341900.0
72	306558.5
73	253775.0
74	186603.5
75	160834.0
76	150711.5
77	123590.5
78	100252.0
79	80327.0
80	59874.5
81	46218.5
82	33372.0
83	25078.0
84	20323.5
85	17057.0
86	15139.0
87	12014.5
88	8427.0
89	6821.5
90	6347.0
91	6275.0
92	7333.5
93	8633.5
94	8093.0
95	5046.5
96	1741.0
97	638.5
98	463.5
99	245.0
100	178.5
>>END_MODULE
>>Per base N content	pass
#Base	N-Count
1	0.04118092635214795
2	0.004571240403285314
3	0.0
4	0.0
5	0.0
6	0.0
7	0.0
8	0.0
9	0.0
10-14	0.0
15-19	0.0
20-24	7.304621112145236E-5
25-29	4.7967692170227706E-4
30-34	0.0
35-39	0.0
40-44	0.0
45-49	0.0
50-54	0.0
55-59	0.0
60-64	0.0
65-69	0.0
70-74	0.0
75-79	0.0
80-84	0.0
85-89	0.0
90-94	0.0
95-99	0.0
100	0.0
>>END_MODULE
>>Sequence Length Distribution	warn
#Length	Count
20-21	112.0
22-23	2221.0
24-25	32705.0
26-27	59279.0
28-29	63530.0
30-31	71309.0
32-33	76177.0
34-35	78772.0
36-37	75897.0
38-39	72106.0
40-41	76786.0
42-43	82065.0
44-45	86642.0
46-47	87909.0
48-49	102136.0
50-51	125742.0
52-53	143196.0
54-55	160219.0
56-57	179046.0
58-59	204751.0
60-61	230654.0
62-63	265612.0
64-65	301560.0
66-67	323386.0
68-69	346108.0
70-71	393872.0
72-73	463784.0
74-75	550010.0
76-77	540055.0
78-79	591973.0
80-81	666541.0
82-83	776474.0
84-85	920396.0
86-87	1010668.0
88-89	1080417.0
90-91	1168557.0
92-93	1321588.0
94-95	1620740.0
96-97	3906458.0
98-99	2.0317645E7
100-101	2.9325697E7
>>END_MODULE
>>Sequence Duplication Levels	fail
#Total Duplicate Percentage	89.28131914576238
#Duplication Level	Relative count
1	100.0
2	65.63161404424342
3	40.106114638601376
4	25.78643704154707
5	18.77301324983329
6	14.392160273694588
7	11.962540952712303
8	10.423008900872691
9	9.022643588182424
10++	283.7638804325766
>>END_MODULE
>>Overrepresented sequences	pass
>>END_MODULE
>>Kmer Content	warn
#Sequence	Count	Obs/Exp Overall	Obs/Exp Max	Max Obs/Exp Position
CTCCA	13999285	2.435706	8.497767	1
CTCCT	16016215	2.4189067	8.316212	1
CTTCA	14301810	2.3375118	5.239999	1
CCCAG	12253055	2.1899629	7.405925	1
TCCAG	12777520	2.1452734	6.5068107	2
GGCAG	12628170	2.1016824	5.925326	1
GCCAG	11504740	1.984204	5.9464674	1
CTCAG	11156505	1.8731142	5.4571767	1
CTCTG	11034575	1.60817	5.1834397	1
CTCCC	9468975	1.5223635	5.8445516	1
CCCCA	8141975	1.5080128	5.1702557	1
GGGGG	10252345	1.4681842	5.859799	1
GTGGG	9324475	1.2998952	5.018366	1
GTCCA	7480210	1.2558854	5.946692	1
GTCCT	8464505	1.2336102	5.217696	1
>>END_MODULE
