##FastQC	0.10.1
>>Basic Statistics	pass
#Measure	Value	
Filename	SRR2040580_1.fastq.gz	
File type	Conventional base calls	
Encoding	Sanger / Illumina 1.9	
Total Sequences	77630973	
Filtered Sequences	0	
Sequence length	20-100	
%GC	47	
>>END_MODULE
>>Per base sequence quality	pass
#Base	Mean	Median	Lower Quartile	Upper Quartile	10th Percentile	90th Percentile
1	33.017330234930846	34.0	31.0	34.0	31.0	34.0
2	33.13468231294743	34.0	33.0	34.0	31.0	34.0
3	33.203771167469455	34.0	33.0	34.0	31.0	34.0
4	36.54442955391014	37.0	37.0	37.0	35.0	37.0
5	36.4880751913286	37.0	37.0	37.0	35.0	37.0
6	36.476865309932414	37.0	37.0	37.0	35.0	37.0
7	36.45549251327817	37.0	37.0	37.0	35.0	37.0
8	36.458652360315	37.0	37.0	37.0	35.0	37.0
9	38.31277461896555	39.0	39.0	39.0	37.0	39.0
10-14	38.59462654422739	39.4	39.2	39.4	37.2	39.4
15-19	39.7925127101009	41.0	40.0	41.0	37.8	41.0
20-24	39.75109704310464	41.0	40.0	41.0	37.2	41.0
25-29	39.6286666396281	41.0	39.4	41.0	37.0	41.0
30-34	39.46207193449385	41.0	39.0	41.0	36.4	41.0
35-39	39.282737730893565	40.4	39.0	41.0	35.8	41.0
40-44	39.070986395315856	40.0	38.2	41.0	35.0	41.0
45-49	39.17635681132894	40.0	39.0	41.0	35.0	41.0
50-54	38.99486565043535	40.0	38.0	41.0	35.0	41.0
55-59	38.585062145577126	40.0	37.2	41.0	35.0	41.0
60-64	38.00595851524802	39.2	35.8	41.0	34.0	41.0
65-69	37.27805173847382	37.8	35.0	40.2	34.0	41.0
70-74	36.471481057970706	36.4	35.0	39.0	33.4	41.0
75-79	35.1184031912651	35.2	34.2	37.0	31.8	39.2
80-84	35.07077645451611	35.0	35.0	36.2	33.0	38.0
85-89	34.6490589203805	35.0	35.0	35.4	33.0	36.6
90-94	34.41452250666258	35.0	34.6	35.0	33.0	36.0
95-99	34.349573195235095	35.0	34.0	35.0	33.0	35.6
100	34.26719573787066	35.0	34.0	35.0	32.0	35.0
>>END_MODULE
>>Per sequence quality scores	pass
#Quality	Count
19	1.0
20	3.0
21	39.0
22	294.0
23	1181.0
24	3767.0
25	9859.0
26	22374.0
27	45616.0
28	89794.0
29	168350.0
30	368119.0
31	733579.0
32	1236087.0
33	1888279.0
34	2976037.0
35	4715076.0
36	8980058.0
37	1.909203E7
38	2.7114697E7
39	1.0060233E7
40	125500.0
>>END_MODULE
>>Per base sequence content	fail
#Base	G	A	T	C
1	56.08897905464971	10.477224995502961	5.968073014479818	27.465722935367502
2	31.04791517756484	10.632628301348579	30.074890597796553	28.244565923290025
3	27.522639101060975	14.851076645029258	22.85314262781169	34.77314162609808
4	28.903312859406483	21.476791178532178	22.17224236796461	27.44765359409673
5	29.332117905531035	25.391627923896422	23.956451939427982	21.319802231144568
6	26.044407558823202	28.35312910479687	23.317074745411215	22.28538859096871
7	18.854067435171785	23.823113746107495	39.81132118490902	17.5114976338117
8	21.175109612497906	24.264001847732374	31.677168795839872	22.883719743929852
9	21.117380558916864	22.08613435773889	33.70498911562013	23.091495967724118
10-14	24.552420591198825	26.872428611708887	27.206744658475422	21.368406138616862
15-19	24.7182326957306	25.20618388963105	27.628556321704178	22.447027092934174
20-24	24.38288030410164	25.418395957979467	27.34308951487856	22.85563422304033
25-29	24.557259621526633	25.503177568582903	27.225095003643464	22.714467806247004
30-34	24.384165929450287	25.552022721881624	27.148381535483495	22.91542981318459
35-39	24.21216345847569	25.463108712740734	27.04442761149432	23.280300217289255
40-44	24.44375736498906	25.322242733096594	27.040802470230357	23.193197431683984
45-49	24.21998258714952	25.120858925903295	27.209182777978157	23.449975708969028
50-54	24.366541354275302	25.324964694415154	27.186799058831962	23.12169489247758
55-59	24.026477428198742	25.416134317713496	27.068103141125288	23.489285112962474
60-64	24.081716733122118	25.307619115171136	27.27088290617821	23.33978124552854
65-69	23.986478670455796	25.48952100857043	27.29638629128778	23.227614029685988
70-74	24.074163187098492	25.533902519252894	27.074337773667345	23.317596519981276
75-79	24.12278160949423	25.44182122929552	27.346297571719845	23.08909958949041
80-84	23.97442254726846	25.52566634507545	27.274191512977726	23.225719594678367
85-89	24.137654599774926	25.397471301073903	27.14835307634785	23.316521022803325
90-94	23.87129090940029	25.502928698575182	27.120397798448597	23.505382593575927
95-99	24.518474180040347	26.585399314602892	27.410617320806786	21.485509184549976
100	33.404706055058725	39.06811781188846	27.527176133052805	0.0
>>END_MODULE
>>Per base GC content	fail
#Base	%GC
1	83.55470199001722
2	59.292481100854864
3	62.295780727159055
4	56.35096645350322
5	50.6519201366756
6	48.32979614979192
7	36.365565068983486
8	44.05882935642775
9	44.208876526640985
10-14	45.92082672981569
15-19	47.16525978866478
20-24	47.238514527141966
25-29	47.271727427773634
30-34	47.29959574263488
35-39	47.492463675764945
40-44	47.636954796673045
45-49	47.669958296118544
50-54	47.488236246752884
55-59	47.515762541161216
60-64	47.421497978650656
65-69	47.214092700141784
70-74	47.391759707079764
75-79	47.211881198984635
80-84	47.200142141946834
85-89	47.454175622578255
90-94	47.37667350297622
95-99	46.003983364590326
100	33.404706055058725
>>END_MODULE
>>Per sequence GC content	pass
#GC Content	Count
0	3403.0
1	2598.0
2	1366.0
3	938.5
4	1017.5
5	1492.5
6	2410.5
7	3180.0
8	3884.0
9	5086.5
10	6549.5
11	7916.5
12	9088.0
13	10841.5
14	13036.0
15	14878.0
16	17480.0
17	21139.0
18	25956.0
19	32860.5
20	42540.5
21	56089.5
22	77458.0
23	103323.5
24	139523.5
25	191838.5
26	256978.0
27	340903.5
28	465612.5
29	603514.0
30	733488.5
31	867570.0
32	1018890.5
33	1166137.5
34	1263647.0
35	1391959.0
36	1534725.5
37	1664510.5
38	1787060.0
39	1898894.0
40	2034638.0
41	2215931.5
42	2524809.5
43	2824277.0
44	3012107.5
45	3107907.0
46	3045659.5
47	3043515.0
48	3069738.5
49	3025119.0
50	3077605.5
51	3141101.0
52	3110702.5
53	3026903.0
54	2915467.0
55	2833475.0
56	2673992.5
57	2357228.0
58	2159804.5
59	1997429.5
60	1736937.5
61	1460432.5
62	1225453.5
63	1052906.0
64	881515.5
65	729438.0
66	600100.5
67	493000.5
68	406985.0
69	328290.0
70	252727.0
71	189881.5
72	139676.5
73	100379.0
74	74216.0
75	56255.0
76	42778.5
77	31841.5
78	23405.0
79	16832.0
80	11935.5
81	8455.5
82	6428.5
83	5128.5
84	4086.0
85	3222.5
86	2569.0
87	1898.0
88	1377.0
89	1139.0
90	1160.5
91	1325.0
92	1576.0
93	1789.0
94	1461.0
95	657.0
96	125.0
97	48.5
98	31.0
99	12.5
100	12.5
>>END_MODULE
>>Per base N content	pass
#Base	N-Count
1	0.0027012414233169536
2	0.011179816076761011
3	0.005146141862733062
4	0.006765340941945942
5	1.8678111892272688E-4
6	0.0
7	0.0
8	8.798034774084307E-4
9	0.0
10-14	0.0
15-19	6.852934845992463E-5
20-24	4.946556081287158E-5
25-29	1.1268678815021012E-4
30-34	1.6202010909870823E-4
35-39	1.9500887298141344E-4
40-44	2.3670064220621608E-4
45-49	9.20927938642366E-4
50-54	0.0028357430336523504
55-59	3.842761005902139E-5
60-64	1.5736508819534238E-6
65-69	0.0
70-74	1.7196473797965687E-5
75-79	0.01066542049610857
80-84	0.0
85-89	0.0025602232687971156
90-94	0.0017251811609031425
95-99	5.467377631111675E-4
100	0.0
>>END_MODULE
>>Sequence Length Distribution	warn
#Length	Count
20-21	651.0
22-23	2875.0
24-25	35640.0
26-27	61627.0
28-29	65493.0
30-31	66416.0
32-33	67746.0
34-35	68118.0
36-37	70266.0
38-39	66860.0
40-41	66394.0
42-43	65163.0
44-45	61000.0
46-47	63021.0
48-49	71368.0
50-51	76593.0
52-53	81210.0
54-55	84507.0
56-57	94952.0
58-59	98336.0
60-61	106020.0
62-63	110600.0
64-65	118965.0
66-67	128781.0
68-69	138857.0
70-71	154638.0
72-73	187385.0
74-75	248098.0
76-77	172240.0
78-79	188123.0
80-81	208902.0
82-83	252738.0
84-85	297971.0
86-87	353050.0
88-89	377346.0
90-91	426712.0
92-93	549439.0
94-95	901018.0
96-97	2914685.0
98-99	2.5134774E7
100-101	4.3392395E7
>>END_MODULE
>>Sequence Duplication Levels	fail
#Total Duplicate Percentage	84.88283394286775
#Duplication Level	Relative count
1	100.0
2	62.459325630747465
3	35.8877623202075
4	22.702192879037963
5	16.20608347087951
6	12.633812780004716
7	10.339542560716811
8	8.703136052817731
9	7.54539023815138
10++	195.10964395189814
>>END_MODULE
>>Overrepresented sequences	pass
>>END_MODULE
>>Kmer Content	warn
#Sequence	Count	Obs/Exp Overall	Obs/Exp Max	Max Obs/Exp Position
AAAAA	23883920	3.2825012	4.6112833	95-96
CCAGG	18318825	3.0958042	5.843442	2
CCCAG	16777495	3.0466065	7.5021467	1
CAGCA	17237090	2.867493	5.3353887	3
CTCCT	18289860	2.810037	6.0251384	1
CTCCA	16096260	2.6674833	7.218695	1
CCAGC	14677075	2.6651938	5.951799	2
TCCAG	17076960	2.6337461	6.4095273	2
GGCAG	15448425	2.4296665	9.835299	1
CTTCA	17171255	2.4168675	5.348868	6
CAGCT	15291270	2.3583424	5.0858793	3
CCCCA	11927250	2.3272498	6.5178366	1
GCCAG	13494475	2.2805092	10.541489	1
GGCTG	14721540	2.146548	8.006475	1
TCCAC	12708320	2.1060317	5.10267	2
CCACA	11738095	2.0982125	5.837431	2
GGCCA	12218015	2.0647929	8.650334	1
CCTGG	12636685	1.9798574	5.026056	1
GCTGG	12792780	1.8653154	5.551132	1
CCACT	10947180	1.8141743	5.493147	3
GGGCA	11390945	1.7915223	6.982053	1
CCAGT	11573550	1.784966	5.241348	3
GGGAG	12179540	1.7827069	7.3800325	1
GCCTC	10565450	1.7786978	5.929763	1
GGCCT	11038555	1.7294698	6.107652	1
GCCCC	8697545	1.723998	6.4242063	1
GGGGA	11778020	1.7239368	8.881774	1
GGGCT	11585950	1.6893476	5.95839	1
GGGGG	11254075	1.6733866	11.976862	1
GCCTG	10556410	1.6539296	6.444959	1
GCTCC	9664815	1.6270757	5.280767	1
GTCCT	11162365	1.5960426	7.1074753	1
GGGGC	9884745	1.5793025	7.9161716	1
GTCCA	10185220	1.5708466	8.439793	1
GCCAC	8618630	1.5650474	7.0871725	1
GCCCA	8462410	1.5366796	7.685561	1
GGGTG	11306715	1.5343003	5.47487	1
GTGGG	10616160	1.4405934	6.5070877	1
GGGGT	10476915	1.4216981	8.359457	1
GCCAT	9089355	1.4018334	5.3378577	1
GTCAG	9595095	1.377207	5.795313	1
GTCCC	7542965	1.2698613	5.631165	1
GCCCT	7397940	1.2454463	5.284546	1
GTCTG	8797925	1.1707255	5.1483684	1
>>END_MODULE
