##FastQC	0.10.1
>>Basic Statistics	pass
#Measure	Value	
Filename	SRR2040576_2.fastq.gz	
File type	Conventional base calls	
Encoding	Sanger / Illumina 1.9	
Total Sequences	62765366	
Filtered Sequences	0	
Sequence length	16-100	
%GC	49	
>>END_MODULE
>>Per base sequence quality	pass
#Base	Mean	Median	Lower Quartile	Upper Quartile	10th Percentile	90th Percentile
1	33.1308649582319	34.0	33.0	34.0	31.0	34.0
2	33.335204211188696	34.0	34.0	34.0	31.0	34.0
3	33.29883649527353	34.0	34.0	34.0	31.0	34.0
4	36.621832397185415	37.0	37.0	37.0	35.0	37.0
5	36.61266707183704	37.0	37.0	37.0	35.0	37.0
6	36.5958205836002	37.0	37.0	37.0	35.0	37.0
7	36.570192946855435	37.0	37.0	37.0	35.0	37.0
8	36.57059793134959	37.0	37.0	37.0	35.0	37.0
9	38.45545497177536	39.0	39.0	39.0	37.0	39.0
10-14	38.764886523564606	39.4	39.2	39.4	37.2	39.4
15-19	40.06419510586159	41.0	40.0	41.0	38.0	41.0
20-24	40.013414739403274	41.0	40.0	41.0	38.0	41.0
25-29	39.971207225711716	41.0	40.0	41.0	38.0	41.0
30-34	39.728448340719844	41.0	40.0	41.0	37.2	41.0
35-39	39.5451752812817	41.0	39.6	41.0	36.4	41.0
40-44	39.27250868099616	40.8	39.0	41.0	35.0	41.0
45-49	38.90644671449756	40.0	38.2	41.0	35.0	41.0
50-54	37.699063931914324	39.0	36.2	40.0	33.6	40.6
55-59	38.417795594255594	39.8	36.4	41.0	35.0	41.0
60-64	37.82530584627697	38.8	35.0	41.0	34.6	41.0
65-69	37.02116085705054	36.8	35.0	39.6	34.0	41.0
70-74	36.19859650012752	35.6	35.0	38.4	33.4	40.6
75-79	35.40601541489953	35.0	35.0	36.8	33.0	39.0
80-84	34.78176596279443	35.0	34.4	35.8	32.8	37.2
85-89	34.30952622486954	35.0	34.0	35.0	32.0	36.2
90-94	33.942546439332	35.0	34.0	35.0	31.4	35.6
95-99	33.96554862726812	35.0	34.0	35.0	31.4	35.0
100	33.23943071895289	34.0	32.0	35.0	31.0	35.0
>>END_MODULE
>>Per sequence quality scores	pass
#Quality	Count
20	7.0
21	26.0
22	155.0
23	588.0
24	1679.0
25	4081.0
26	8604.0
27	16504.0
28	31067.0
29	59169.0
30	173552.0
31	361039.0
32	661129.0
33	1212800.0
34	2350549.0
35	4542559.0
36	9220430.0
37	1.757449E7
38	2.0821294E7
39	5683451.0
40	42193.0
>>END_MODULE
>>Per base sequence content	fail
#Base	G	A	T	C
1	30.28135612241949	15.903141551026723	13.259615183316226	40.55588714323756
2	24.794884490914942	24.371526806678702	29.919006606286658	20.914582096119698
3	21.95906576885093	25.68333147296552	27.139575669804906	25.218027088378648
4	24.875436877082816	30.287936184423746	21.60055435668136	23.236072581812078
5	27.407277446609648	31.52494960357596	20.99900285772252	20.06877009209187
6	22.69435185003143	35.4220000883927	20.465927020962486	21.417721040613387
7	22.03756288141457	21.35787115461097	32.867365100683074	23.73720086329139
8	22.32029330574359	23.393789931063566	26.57555462361897	27.710362139573867
9	22.7759866389566	22.18288210156342	29.014028770548144	26.027102488931835
10-14	24.34254998540487	26.783387523100384	23.30271312405682	25.571349367437936
15-19	24.532845242525276	26.250775500646213	23.99097319765123	25.225406059177285
20-24	24.249369925939586	26.447428889604634	24.20330930758855	25.099891876867225
25-29	24.410922647446586	26.158556703461567	24.218421300014683	25.21209934907717
30-34	24.247595687524868	26.229704535833122	24.176745955400207	25.345953821241807
35-39	24.33400290767093	26.2277197205396	24.082298326983278	25.355979044806194
40-44	24.207369082737788	26.118255687703428	24.1879419221196	25.48643330743918
45-49	24.022831833578053	26.018310409236094	24.42404516845072	25.534812588735136
50-54	24.099115304173164	26.044644128949034	24.312761733622448	25.54347883325535
55-59	24.309909268181862	25.98843672858497	24.13859333865534	25.56306066457783
60-64	24.270730648691146	25.86919077278588	24.358651601327818	25.50142697719516
65-69	24.13922860081167	26.213709509517713	24.294991354372662	25.352070535297955
70-74	24.06878783594669	26.250338135206036	24.218684017259793	25.462190011587488
75-79	24.021188213551234	26.174495706154012	24.377767672707858	25.426548407586896
80-84	23.930334814775502	26.243778224135394	24.521219277007003	25.304667684082098
85-89	23.94095545740173	26.209619362837834	24.459130528026567	25.390294651733875
90-94	23.608716980928016	26.359003490893073	24.67020635540667	25.36207317277224
95-99	23.063251463497856	27.98142305370746	22.011979914068082	26.943345568726603
100	21.469578124772617	35.90437176078284	0.0	42.62605011444454
>>END_MODULE
>>Per base GC content	fail
#Base	%GC
1	70.83724326565705
2	45.70946658703464
3	47.177092857229574
4	48.11150945889489
5	47.47604753870152
6	44.11207289064482
7	45.77476374470596
8	50.030655445317464
9	48.80308912788844
10-14	49.9138993528428
15-19	49.75825130170256
20-24	49.34926180280681
25-29	49.62302199652376
30-34	49.59354950876668
35-39	49.689981952477126
40-44	49.69380239017697
45-49	49.55764442231319
50-54	49.64259413742852
55-59	49.872969932759695
60-64	49.7721576258863
65-69	49.491299136109625
70-74	49.530977847534174
75-79	49.447736621138134
80-84	49.2350024988576
85-89	49.3312501091356
90-94	48.97079015370026
95-99	50.00659703222446
100	64.09562823921716
>>END_MODULE
>>Per sequence GC content	warn
#GC Content	Count
0	820.0
1	733.0
2	925.5
3	1215.5
4	1303.0
5	1707.5
6	2405.0
7	2986.0
8	3422.5
9	3906.5
10	4595.0
11	5645.5
12	6982.0
13	7898.0
14	8492.5
15	9874.5
16	11900.0
17	15205.0
18	19038.0
19	22902.5
20	27526.0
21	36678.5
22	51025.0
23	66902.5
24	87220.0
25	109977.0
26	136006.5
27	172648.0
28	219928.5
29	276738.5
30	344768.0
31	434034.0
32	559232.0
33	690106.5
34	829072.5
35	1017386.5
36	1225374.0
37	1450794.5
38	1643102.0
39	1781146.0
40	1909990.0
41	2022394.5
42	2156686.5
43	2302363.0
44	2383597.0
45	2435287.5
46	2437530.0
47	2371267.5
48	2345302.0
49	2338184.5
50	2272656.0
51	2192980.0
52	2124441.5
53	2074115.5
54	2035822.5
55	1935736.5
56	1845851.0
57	1782145.0
58	1718477.5
59	1618196.0
60	1521676.0
61	1467324.0
62	1342465.5
63	1192462.0
64	1073209.0
65	966534.5
66	872307.5
67	787752.5
68	702029.0
69	611551.5
70	513381.0
71	437746.5
72	373980.5
73	318462.0
74	278040.5
75	233066.0
76	201715.0
77	181002.0
78	161176.5
79	135898.5
80	107200.5
81	86333.5
82	72711.0
83	63631.5
84	54350.0
85	40809.0
86	28643.5
87	21162.5
88	15614.0
89	12288.0
90	10018.5
91	8394.0
92	7418.0
93	6444.5
94	4887.0
95	2744.5
96	1335.5
97	923.5
98	590.5
99	233.0
100	177.0
>>END_MODULE
>>Per base N content	pass
#Base	N-Count
1	0.0
2	0.0
3	0.0
4	0.0
5	0.0
6	0.0
7	0.0
8	1.2745882816966286E-5
9	3.313929532411235E-4
10-14	0.004230677154021535
15-19	0.0
20-24	0.0
25-29	6.380830006052185E-7
30-34	0.012048867620595961
35-39	0.0032510052103931863
40-44	0.05812353940569225
45-49	0.0
50-54	0.0
55-59	1.8340383435888616E-4
60-64	0.0
65-69	0.0
70-74	8.822150316889123E-5
75-79	7.249712533836772E-4
80-84	1.7097308837426254E-5
85-89	0.0
90-94	2.2154060226640848E-4
95-99	8.869885170860795E-5
100	0.0
>>END_MODULE
>>Sequence Length Distribution	warn
#Length	Count
16-17	183.0
18-19	397.0
20-21	318.0
22-23	2943.0
24-25	37387.0
26-27	71142.0
28-29	78132.0
30-31	94362.0
32-33	99828.0
34-35	102854.0
36-37	109121.0
38-39	131136.0
40-41	133495.0
42-43	141144.0
44-45	154486.0
46-47	156462.0
48-49	162569.0
50-51	148186.0
52-53	120551.0
54-55	109880.0
56-57	122140.0
58-59	127785.0
60-61	154001.0
62-63	162606.0
64-65	167440.0
66-67	176438.0
68-69	183548.0
70-71	189225.0
72-73	209530.0
74-75	211463.0
76-77	229256.0
78-79	230927.0
80-81	252292.0
82-83	277499.0
84-85	309106.0
86-87	374135.0
88-89	426818.0
90-91	538363.0
92-93	763932.0
94-95	1383140.0
96-97	4788781.0
98-99	3.0391605E7
100-101	1.924076E7
>>END_MODULE
>>Sequence Duplication Levels	fail
#Total Duplicate Percentage	78.83018761824046
#Duplication Level	Relative count
1	100.0
2	48.68039085475761
3	29.945925434019543
4	20.92780571103311
5	16.03073712171521
6	12.532017835120008
7	10.255194004363913
8	8.566549663219808
9	7.255478607342757
10++	125.27653922777725
>>END_MODULE
>>Overrepresented sequences	warn
#Sequence	Count	Percentage	Possible Source
CCTCACCCGGCCCGGACACGGACAGGATTGACAGATTGATAGCTCTTTCT	84590	0.13477177843589727	No Hit
>>END_MODULE
>>Kmer Content	warn
#Sequence	Count	Obs/Exp Overall	Obs/Exp Max	Max Obs/Exp Position
GAAGA	14121120	2.3298454	5.1723933	2
>>END_MODULE
