##FastQC	0.10.1
>>Basic Statistics	pass
#Measure	Value	
Filename	SRR222175.fastq.gz	
File type	Conventional base calls	
Encoding	Sanger / Illumina 1.9	
Total Sequences	8972501	
Filtered Sequences	0	
Sequence length	20-65	
%GC	47	
>>END_MODULE
>>Per base sequence quality	pass
#Base	Mean	Median	Lower Quartile	Upper Quartile	10th Percentile	90th Percentile
1	32.059345326347696	33.0	32.0	33.0	30.0	33.0
2	31.90727869520438	33.0	32.0	34.0	29.0	34.0
3	31.801311585253654	33.0	32.0	33.0	29.0	34.0
4	31.703757625660895	33.0	32.0	33.0	28.0	34.0
5	31.5350022251321	33.0	31.0	33.0	28.0	34.0
6	31.089125540359372	33.0	31.0	33.0	27.0	34.0
7	31.046407462088887	33.0	31.0	33.0	26.0	34.0
8	30.70202321515484	32.0	30.0	33.0	26.0	34.0
9	30.62433618006841	32.0	30.0	33.0	25.0	34.0
10	30.611318739334774	32.0	30.0	33.0	25.0	34.0
11	30.67596648916506	32.0	30.0	33.0	25.0	34.0
12	30.814986702146925	32.0	30.0	33.0	26.0	34.0
13	30.69192792511252	32.0	30.0	33.0	26.0	34.0
14	30.968495183227063	33.0	31.0	33.0	26.0	34.0
15	31.212113099792354	33.0	31.0	33.0	27.0	34.0
16	31.336668226618198	33.0	31.0	33.0	27.0	34.0
17	31.333200185767602	33.0	31.0	33.0	27.0	34.0
18	31.274393282318943	33.0	31.0	33.0	27.0	34.0
19	31.229956619676052	33.0	31.0	33.0	27.0	34.0
20	31.124347380958778	33.0	31.0	33.0	27.0	34.0
21	31.021098169791404	33.0	31.0	33.0	26.0	34.0
22	30.891035106929763	33.0	30.0	33.0	26.0	34.0
23	30.690056074904422	32.0	30.0	33.0	26.0	33.0
24	30.618864787725034	32.0	30.0	33.0	25.0	33.0
25	30.74646166790992	32.0	30.0	33.0	26.0	33.0
26	30.501479472446444	32.0	30.0	33.0	25.0	33.0
27	30.253399933153435	32.0	30.0	33.0	24.0	33.0
28	29.550004340246833	32.0	28.0	33.0	23.0	33.0
29	29.311145981938125	31.0	28.0	33.0	22.0	33.0
30	28.9814147326383	31.0	28.0	33.0	21.0	33.0
31	28.829864500084764	31.0	27.0	33.0	21.0	33.0
32	28.625410852160822	31.0	27.0	33.0	21.0	33.0
33	29.218661098401387	31.0	28.0	33.0	22.0	33.0
34	29.59793398636743	31.0	28.0	33.0	23.0	33.0
35	29.809552690667694	32.0	29.0	33.0	23.0	33.0
36	29.915525914705952	32.0	29.0	33.0	24.0	33.0
37	29.99620268273007	32.0	29.0	33.0	24.0	33.0
38	30.196870913805913	32.0	29.0	33.0	24.0	33.0
39	30.09293707241945	32.0	29.0	33.0	24.0	33.0
40	30.050876589295815	32.0	29.0	33.0	24.0	33.0
41	30.016970802431846	32.0	29.0	33.0	24.0	33.0
42	30.011290580498965	32.0	29.0	33.0	24.0	33.0
43	30.053637360395438	32.0	29.0	33.0	24.0	33.0
44	30.064612133809312	32.0	29.0	33.0	24.0	33.0
45	29.255949007911237	31.0	28.0	33.0	22.0	33.0
46	29.010599217943312	31.0	27.0	33.0	22.0	33.0
47	29.040068389899208	31.0	27.0	33.0	22.0	33.0
48	28.894755366765352	31.0	27.0	33.0	22.0	33.0
49	28.94891977899262	31.0	27.0	33.0	22.0	33.0
50	28.793487447599446	31.0	27.0	32.0	22.0	33.0
51	28.919625664325512	31.0	27.0	32.0	22.0	33.0
52	28.74134520883752	30.0	27.0	32.0	22.0	33.0
53	28.398670363910096	30.0	26.0	32.0	21.0	33.0
54	28.454911097486203	30.0	26.0	32.0	21.0	33.0
55	28.68405537909147	30.0	27.0	32.0	22.0	33.0
56	28.492550202481606	30.0	27.0	32.0	21.0	33.0
57	28.79699438754034	30.0	27.0	32.0	22.0	33.0
58	29.14385952245185	31.0	28.0	32.0	23.0	33.0
59	28.986003965969424	30.0	27.0	32.0	23.0	33.0
60	29.31035393309911	31.0	28.0	32.0	23.0	33.0
61	29.82743975866196	31.0	29.0	33.0	25.0	33.0
62	30.148718787572776	31.0	29.0	33.0	25.0	33.0
63	30.48323556290278	31.0	30.0	33.0	26.0	33.0
64	30.664845434523315	32.0	30.0	33.0	27.0	33.0
65	30.793746434794535	31.0	30.0	33.0	27.0	33.0
>>END_MODULE
>>Per sequence quality scores	pass
#Quality	Count
18	14.0
19	39.0
20	1332.0
21	7357.0
22	26149.0
23	73483.0
24	164515.0
25	303637.0
26	481864.0
27	689633.0
28	918452.0
29	1174430.0
30	1476537.0
31	1770509.0
32	1550115.0
33	334435.0
>>END_MODULE
>>Per base sequence content	fail
#Base	G	A	T	C
1	37.6515325600653	13.801441796902134	11.767735944921963	36.7792896981106
2	28.62390164362758	20.730159805919698	27.691644711057645	22.954293839395074
3	27.3808524716891	23.50463258157464	23.49172637459185	25.622788572144415
4	28.339898768402772	28.249645165586607	20.71411575041279	22.696340315597833
5	27.587523949602826	30.486441496098017	22.09482164755435	19.831212906744806
6	22.960316273268056	34.50774110297538	21.524639637541135	21.007302986215425
7	19.945872345623453	20.619230352144047	37.08032984812582	22.35456745410668
8	21.797865988861737	24.275672324291588	27.289004293455566	26.637457393391113
9	22.22336151218452	22.496185545753946	29.809383167362313	25.471069774699217
10	21.90327172857513	35.374084986948326	23.795705792856392	18.926937491620148
11	26.765715439718907	26.84145813833898	20.527430425605758	25.865395996336353
12	23.963471848409306	22.94441100266961	26.691960313746137	26.400156835174947
13	22.905822431374194	26.033442643633748	27.879688156359165	23.181046768632896
14	23.08268256594272	26.537545232735997	27.631656963668032	22.748115237653252
15	23.2587008119034	26.496606964215978	26.735247360377755	23.509444863502864
16	23.647556267165022	26.086284901513096	26.711899142063793	23.554259689258085
17	23.595457405711276	26.744782442874858	26.230053762086662	23.429706389327205
18	23.46938775510204	27.202408635022103	26.09696831604673	23.231235293829126
19	23.625280050715062	26.05211133329663	26.268238821766378	24.054369794221934
20	23.775784204601194	26.47572320710206	25.975126884940302	23.773365703356443
21	23.269425807523554	26.79904853415365	25.904937550708564	24.026588107614238
22	23.840447238980197	26.21124615848201	25.519918220486364	24.428388382051427
23	24.277814530883447	26.907294988459423	25.35565484800946	23.459235632647665
24	23.45044681968529	26.792701786325857	25.575036167647486	24.181815226341367
25	24.109166114951126	26.88963274556676	24.953939473576337	24.047261665905776
26	23.638731249818484	26.5050519422832	25.754954627189196	24.10126218070912
27	23.44614870062393	27.09352824359932	25.83145162282228	23.62887143295448
28	23.43618449354342	27.01277191778411	25.816139569042136	23.734904019630335
29	23.94320533020356	26.39908711426942	25.663827946586792	23.993879608940226
30	23.72037229914983	26.890478597255164	26.020038237579097	23.369110866015912
31	23.04199340641721	26.973772666795075	26.041447495440956	23.942786431346764
32	23.788574733606595	26.64017428186624	25.877588324193145	23.693662660334017
33	22.822702179247642	26.88483615902943	25.841058854392884	24.451402807330044
34	23.7026717513542	26.29628611674168	25.546065665761958	24.454976466142163
35	23.820541309570796	26.81117156808601	25.543628177790534	23.824658944552663
36	23.235490714705392	26.960166948951386	25.872537821212322	23.931804515130896
37	23.2822855638025	26.772674023923475	25.71378980369011	24.231250608583917
38	23.201182431536303	26.84547914379815	25.763359614971655	24.18997880969389
39	22.75836166679845	26.607146737987	25.942668603191382	24.691822992023162
40	23.573542388953882	26.478530670487288	25.512553976687308	24.43537296387152
41	23.53733103692217	26.317236951017836	26.171741007689302	23.97369100437069
42	22.778473324930783	26.738403277228457	25.9733791671303	24.509744230710464
43	22.844099853745966	26.733358567853532	25.913361584752852	24.50917999364765
44	23.17602123389655	26.69849397058564	25.964229594449055	24.16125520106876
45	22.56702382534886	26.56447374126622	26.354948388165354	24.513554045219564
46	23.143093777282726	26.242214494919626	26.211157716810586	24.403534010987066
47	22.988303583500986	26.954258710465613	26.228989946991742	23.828447759041655
48	22.181591280534153	27.11030904088847	26.335747072971788	24.372352605605588
49	22.754524089406765	26.297520775769854	26.350073774922073	24.597881359901308
50	22.836454611417928	26.39791524494915	26.24390368347282	24.521726460160103
51	22.164564106626532	25.967454053947	26.886090426585334	24.98189141284113
52	22.419909756060918	26.297331744131892	26.01339135921795	25.26936714058924
53	22.614920687533456	26.65834839828885	25.981152454809898	24.7455784593678
54	22.290558969811265	26.74473630199318	26.215881646019778	24.74882308217578
55	22.226800980217	26.651614694618274	26.191866431807103	24.929717893357626
56	22.451484708628872	26.017620118743984	26.74954532352727	24.78134984909988
57	21.6487770326453	25.658362759627472	26.988137529560763	25.70472267816647
58	21.047392379023037	25.349760592392162	27.682390542889042	25.920456485695766
59	20.961044713942233	25.965350512817846	27.624950125495847	25.448654647744075
60	20.069756072773405	24.367105131741027	29.051310401382157	26.511828394103414
61	19.323819564925635	22.13528455668681	30.226176188886715	28.31471968950084
62	17.544863833636704	19.241110427235466	32.90205440229254	30.311971336835285
63	16.119032096442883	15.468355007945359	35.729898153745985	32.68271474186577
64	14.078064167423774	12.490787048589468	36.900074281678826	36.53107450230794
65	13.0672767908631	0.0	44.746562596435886	42.18616061270101
>>END_MODULE
>>Per base GC content	fail
#Base	%GC
1	74.4308222581759
2	51.57819548302266
3	53.00364104383352
4	51.0362390840006
5	47.418736856347635
6	43.967619259483484
7	42.300439799730135
8	48.43532338225285
9	47.694431286883734
10	40.83020922019528
11	52.631111436055264
12	50.36362868358425
13	46.086869200007094
14	45.83079780359597
15	46.76814567540627
16	47.20181595642311
17	47.02516379503848
18	46.70062304893116
19	47.679649844937
20	47.54914990795764
21	47.29601391513779
22	48.26883562103163
23	47.737050163531116
24	47.63226204602666
25	48.1564277808569
26	47.739993430527605
27	47.07502013357841
28	47.17108851317376
29	47.93708493914379
30	47.08948316516574
31	46.984779837763966
32	47.482237393940615
33	47.27410498657768
34	48.157648217496366
35	47.64520025412345
36	47.167295229836284
37	47.51353617238642
38	47.39116124123019
39	47.45018465882161
40	48.0089153528254
41	47.511022041292854
42	47.288217555641246
43	47.353279847393615
44	47.33727643496531
45	47.080577870568426
46	47.54662778826979
47	46.81675134254264
48	46.55394388613974
49	47.35240544930807
50	47.35818107157803
51	47.146455519467665
52	47.689276896650156
53	47.360499146901255
54	47.03938205198705
55	47.156518873574626
56	47.23283455772875
57	47.35349971081177
58	46.967848864718796
59	46.40969936168631
60	46.58158446687682
61	47.63853925442647
62	47.856835170471996
63	48.80174683830865
64	50.60913866973171
65	55.25343740356411
>>END_MODULE
>>Per sequence GC content	warn
#GC Content	Count
0	6442.0
1	4871.0
2	2657.0
3	1911.0
4	1825.0
5	1904.0
6	2127.0
7	2435.0
8	2775.5
9	3179.0
10	3597.0
11	3977.5
12	4355.5
13	4940.0
14	5670.5
15	6485.0
16	7375.5
17	8350.0
18	9573.0
19	11019.5
20	13087.0
21	15891.0
22	18996.0
23	23257.0
24	27908.5
25	33830.5
26	41513.5
27	50826.5
28	66504.5
29	87406.5
30	108392.5
31	126514.0
32	143507.5
33	168522.0
34	204273.5
35	241051.0
36	285968.5
37	344022.5
38	394349.0
39	427263.0
40	461579.0
41	506182.0
42	548034.0
43	590622.5
44	625515.0
45	636653.5
46	638558.5
47	638003.0
48	628012.5
49	603737.5
50	570727.5
51	543135.0
52	520479.0
53	499116.0
54	476874.0
55	444939.0
56	408921.5
57	377783.0
58	353069.5
59	331200.0
60	303568.5
61	275988.0
62	249234.5
63	222461.5
64	199429.5
65	176427.5
66	156011.0
67	141523.0
68	124114.5
69	103386.0
70	86555.0
71	73117.5
72	61884.0
73	51692.5
74	43014.5
75	35959.0
76	30000.0
77	25081.5
78	20719.0
79	17030.0
80	14063.5
81	11939.5
82	10484.0
83	8754.5
84	6966.0
85	5535.0
86	4383.5
87	3672.0
88	2989.0
89	2231.5
90	1719.0
91	1379.0
92	1172.5
93	947.5
94	621.5
95	364.0
96	253.5
97	222.0
98	177.0
99	146.0
100	154.0
>>END_MODULE
>>Per base N content	pass
#Base	N-Count
1	0.039609914782957396
2	0.015257730258263555
3	8.247421761223544E-4
4	6.687098725316387E-5
5	1.5603230359071568E-4
6	7.801615179535784E-5
7	8.916131633755181E-5
8	8.916131633755181E-5
9	5.684033916518928E-4
10	9.8077447971307E-4
11	2.1175812630168557E-4
12	2.6748394901265546E-4
13	0.0020507102757636917
14	1.8946779721729762E-4
15	5.5725822710969886E-5
16	4.346614171455651E-4
17	7.801615179535784E-5
18	0.019804957391478698
19	2.1175812630168557E-4
20	2.2290329084387953E-5
21	7.699328930953757E-4
22	0.03146439026570426
23	1.7907080829093367E-4
24	5.6052115014455836E-5
25	1.0107755411186858E-4
26	6.52890526468407E-4
27	2.82100625067281E-4
28	0.0021503178565903227
29	0.010276735704930191
30	0.016617329942882758
31	0.028137229876037718
32	0.022106997869689296
33	0.010051144200987207
34	0.0042256090459639765
35	0.0025691547056649056
36	8.731563476053802E-4
37	4.2586305464202816E-4
38	2.3065480824166533E-4
39	1.7339911864695974E-4
40	1.0430826755441502E-4
41	2.5572442020590233E-4
42	2.449377490710736E-4
43	1.6396165077526924E-4
44	3.648827002167286E-4
45	2.251044810601236E-4
46	2.3843918662194027E-4
47	3.8391635230515975E-4
48	2.1741364963959457E-4
49	0.003247961812727631
50	2.0850450633430555E-4
51	2.3517590353034926E-4
52	8.763901739133701E-4
53	0.0012699485099376647
54	0.004130497918616283
55	5.397931565286929E-4
56	0.7590591956079709
57	0.0021607969692717835
58	1.1836466199343254E-4
59	7.995906096078808E-5
60	1.576999911863227E-4
61	8.14615671454095E-5
62	1.0708785032116985E-4
63	4.387275322146659E-5
64	9.634449709135964E-5
65	0.0
>>END_MODULE
>>Sequence Length Distribution	warn
#Length	Count
20	10681.0
21	12020.0
22	14787.0
23	14743.0
24	16216.0
25	20482.0
26	21486.0
27	26183.0
28	19874.0
29	17985.0
30	26747.0
31	13889.0
32	12135.0
33	12804.0
34	13648.0
35	14767.0
36	15815.0
37	17273.0
38	20403.0
39	22292.0
40	25260.0
41	29404.0
42	35025.0
43	42701.0
44	55356.0
45	52642.0
46	52734.0
47	56000.0
48	58609.0
49	67239.0
50	74242.0
51	91749.0
52	112975.0
53	127085.0
54	151748.0
55	201744.0
56	266758.0
57	368226.0
58	505574.0
59	546161.0
60	796748.0
61	1175040.0
62	1455932.0
63	1241377.0
64	717133.0
65	320809.0
>>END_MODULE
>>Sequence Duplication Levels	warn
#Total Duplicate Percentage	49.291334850208564
#Duplication Level	Relative count
1	100.0
2	12.435148399158681
3	5.3314637376334035
4	3.3364493261665498
5	2.513048219989094
6	2.040196307548493
7	1.6343382410220457
8	1.378826828698294
9	1.256524109994547
10++	25.873646490613073
>>END_MODULE
>>Overrepresented sequences	warn
#Sequence	Count	Percentage	Possible Source
GATCGGAAGAGCGGTTCAGCAGGAATGCCG	10235	0.11407075908935536	Illumina Paired End Adapter 2 (100% over 30bp)
>>END_MODULE
>>Kmer Content	fail
#Sequence	Count	Obs/Exp Overall	Obs/Exp Max	Max Obs/Exp Position
TTTTT	2212885	3.8374367	12.367071	61
AAAAA	2055625	3.4801214	6.0321836	2
GGGGG	940745	2.6947815	11.335212	1
CTCCT	1201295	2.499731	5.8164477	61
CCTCC	1128260	2.494824	5.0320787	59
GGGTG	870815	2.2562318	6.170055	1
GGGAG	862535	2.2240684	5.923688	1
GGGGA	843425	2.1747928	9.424017	1
GGAGA	923455	2.1434186	5.2021666	1
GGGGT	807415	2.091966	6.112951	1
GTGGG	774500	2.0066853	6.3413677	1
AGGCT	884635	1.9830558	5.317567	61
GGGAA	728725	1.6914332	6.0587006	2
TTCTC	823815	1.6131929	5.8877883	61
CCTAC	774830	1.6045886	6.5395226	61
ACCAC	713720	1.4709529	5.1691775	61
ATAAT	849685	1.4523832	5.010343	61
GGAAT	571715	1.2002645	5.0173383	3
CGGGG	423635	1.1663711	6.7048936	1
>>END_MODULE
