##FastQC	0.10.1
>>Basic Statistics	pass
#Measure	Value	
Filename	D06BVACXX_s3_2_nextera12index_6_SL7129.fastq.gz	
File type	Conventional base calls	
Encoding	Sanger / Illumina 1.9	
Total Sequences	51792175	
Filtered Sequences	0	
Sequence length	20-50	
%GC	46	
>>END_MODULE
>>Per base sequence quality	pass
#Base	Mean	Median	Lower Quartile	Upper Quartile	10th Percentile	90th Percentile
1	32.22931883049901	33.0	31.0	34.0	31.0	34.0
2	32.48608406578793	34.0	31.0	34.0	31.0	34.0
3	32.66941249329653	34.0	31.0	34.0	31.0	34.0
4	36.0008060290961	37.0	37.0	37.0	35.0	37.0
5	36.05209288854928	37.0	37.0	37.0	35.0	37.0
6	36.04057257684197	37.0	37.0	37.0	35.0	37.0
7	36.058310275635264	37.0	37.0	37.0	35.0	37.0
8	36.07870109722173	37.0	37.0	37.0	35.0	37.0
9	37.63004685553368	39.0	38.0	39.0	35.0	39.0
10	37.67041204583511	39.0	38.0	39.0	35.0	39.0
11	37.72582653653762	39.0	38.0	39.0	35.0	39.0
12	37.61082810289392	39.0	38.0	39.0	35.0	39.0
13	37.61540825423918	39.0	38.0	39.0	35.0	39.0
14	39.05372744048691	40.0	39.0	41.0	36.0	41.0
15	39.08372293691084	40.0	39.0	41.0	36.0	41.0
16	39.04846185741379	40.0	39.0	41.0	36.0	41.0
17	39.02815220639025	40.0	39.0	41.0	36.0	41.0
18	38.96552799723124	40.0	39.0	41.0	36.0	41.0
19	38.9779285963565	40.0	39.0	41.0	36.0	41.0
20	38.90529293276446	40.0	39.0	41.0	35.0	41.0
21	38.86322903579731	40.0	39.0	41.0	35.0	41.0
22	38.78452987982832	40.0	38.0	41.0	35.0	41.0
23	38.7385696495664	40.0	38.0	41.0	35.0	41.0
24	38.70090439931499	40.0	38.0	41.0	35.0	41.0
25	38.633809018823406	40.0	38.0	41.0	34.0	41.0
26	38.54071131944247	40.0	38.0	41.0	34.0	41.0
27	38.4336417066964	40.0	38.0	41.0	34.0	41.0
28	38.15263724779531	40.0	38.0	41.0	34.0	41.0
29	38.227519696439224	40.0	38.0	41.0	34.0	41.0
30	38.1774901598746	40.0	38.0	41.0	34.0	41.0
31	38.14950098001527	40.0	38.0	41.0	34.0	41.0
32	38.05221255461194	40.0	38.0	41.0	33.0	41.0
33	37.974860283354126	40.0	38.0	41.0	33.0	41.0
34	37.8745679250492	40.0	38.0	41.0	33.0	41.0
35	38.0372273406701	40.0	38.0	41.0	33.0	41.0
36	38.05587774724893	40.0	38.0	41.0	33.0	41.0
37	38.063348775941414	40.0	38.0	41.0	33.0	41.0
38	37.989792032937146	40.0	38.0	41.0	33.0	41.0
39	37.957065162315295	40.0	38.0	41.0	33.0	41.0
40	37.85312397292324	40.0	37.0	41.0	33.0	41.0
41	37.811918579468895	40.0	37.0	41.0	33.0	41.0
42	37.72996345453104	40.0	37.0	41.0	33.0	41.0
43	37.655720960296215	40.0	37.0	40.0	33.0	41.0
44	37.5622310003568	39.0	37.0	40.0	32.0	41.0
45	37.524057362213085	39.0	37.0	40.0	32.0	41.0
46	37.420422374716146	39.0	37.0	40.0	32.0	41.0
47	37.399861644734315	39.0	36.0	40.0	32.0	41.0
48	37.36906787112285	39.0	36.0	40.0	32.0	41.0
49	37.430993770190476	39.0	36.0	40.0	32.0	41.0
50	35.937643611040706	37.0	34.0	39.0	30.0	40.0
>>END_MODULE
>>Per sequence quality scores	pass
#Quality	Count
10	1.0
11	1.0
12	1.0
13	9.0
14	88.0
15	152.0
16	191.0
17	325.0
18	2028.0
19	8435.0
20	30500.0
21	56755.0
22	87467.0
23	122336.0
24	160458.0
25	204820.0
26	253978.0
27	311994.0
28	379750.0
29	460191.0
30	563818.0
31	696532.0
32	877244.0
33	1136924.0
34	1540528.0
35	2166820.0
36	3333477.0
37	5981836.0
38	1.4155082E7
39	1.9260434E7
>>END_MODULE
>>Per base sequence content	fail
#Base	G	A	T	C
1	43.716979466677145	19.679658487011203	10.278264385832141	26.325097660479514
2	16.49278562983757	21.0552172816409	37.67279904108193	24.7791980474396
3	18.946360251648823	23.59854549627996	31.889081154633008	25.566013097438212
4	12.240559361584623	15.085798740121703	39.156778601990766	33.51686329630291
5	12.776375454426919	37.201743228938476	36.99088813388809	13.030993182746514
6	33.426647741812296	38.49125406485681	15.949534176542906	12.132564016787981
7	26.998056482457617	31.79539591750483	22.80347510683708	18.40307249320047
8	25.38574205032112	36.8289834414897	20.762668689709024	17.022605818480155
9	26.091361053081958	13.639422197920057	19.08635355528366	41.182863193714326
10	14.114656283960223	27.52667333739452	37.2617041258074	21.096966252837863
11	37.54886158266269	21.236806638965692	22.057052163301876	19.15727961506974
12	19.13739761924406	25.406524907936944	33.66591067099657	21.79016680182243
13	29.033578928420017	20.37275260202824	26.52927982534316	24.064388644208577
14	20.279200977043743	19.656965802194673	27.82008255536157	32.243750665400015
15	23.59321205548504	29.072214787212967	23.50356845367741	23.83100470362458
16	23.663761903585957	28.20402146189934	25.659260789023243	22.472955845491455
17	22.732260230430562	28.112051675759904	26.497794309661643	22.657893784147895
18	22.677197679162745	28.11279720249611	27.083508432191422	22.12649668614973
19	24.11355719047437	27.012385761538287	26.365358137127338	22.508698910860005
20	23.434862636577044	27.203478568526396	26.500221881370596	22.861436913525967
21	23.92897629682845	26.669735557291872	26.403814619842574	22.9974735260371
22	23.047812431249906	26.95885020291558	26.61010083172946	23.383236534105052
23	23.26502250473597	26.614115164566883	26.65962455909873	23.46123777159842
24	22.960327217200536	27.217455970249045	26.727112008652202	23.095104803898213
25	23.42117591703783	26.424340294770715	27.15495188567772	22.999531902513738
26	23.225529513766276	26.62229120817235	27.148013595448166	23.004165682613205
27	23.306744019934918	27.22299560366052	26.191762181746558	23.278498194658003
28	22.92706351795769	26.92043051709009	27.003306157231005	23.149199807721217
29	23.871956880951885	26.786808620088337	26.25177292712052	23.08946157183926
30	22.91008008570946	27.578199024769518	26.657835537937103	22.85388535158392
31	23.664833835767	26.234061344590003	26.918059391410587	23.183045428232408
32	23.068654680967157	26.676112151502828	27.063411566328497	23.19182160120151
33	23.10048314584618	26.81633147201086	26.930135781079933	23.153049601063024
34	23.049558598142603	26.78519637334289	27.211993248237686	22.953251780276815
35	22.986720035370354	27.048600880026306	26.8805111927468	23.084167891856545
36	22.929085276242546	27.126868286526225	27.05989617601222	22.884150261219013
37	23.19618508191093	26.81437784479267	26.827157585289292	23.162279488007115
38	23.47401425929933	26.772911279696622	26.783055114127265	22.97001934687679
39	23.45151661477458	27.02590895042189	26.382270757949556	23.14030367685398
40	23.0389332182952	27.25961536093953	26.918143178154967	22.7833082426103
41	23.503551754124477	26.59246030286477	26.6669971606539	23.236990782356855
42	23.052985695445503	27.303068941554255	26.57155223496132	23.072393128038918
43	23.198406358652324	26.64601541125841	27.046456570098997	23.109121659990265
44	23.047337891650738	26.662849929621977	27.05653136852454	23.23328081020274
45	23.068717408764552	27.310494768032612	26.759738608946478	22.86104921425636
46	22.894791628253778	27.035178508731978	27.46171589044789	22.608313972566354
47	23.439399196204445	27.377208652456243	26.59107053066796	22.592321620671356
48	23.70894767438775	28.350794214128527	26.928736844845265	21.011521266638457
49	25.355823225748058	30.230787456125025	26.954924844816148	17.45846447331077
50	31.378164476911614	40.282747470343985	28.339088052744405	0.0
>>END_MODULE
>>Per base GC content	fail
#Base	%GC
1	70.04207712715666
2	41.27198367727717
3	44.51237334908703
4	45.75742265788753
5	25.807368637173433
6	45.559211758600284
7	45.40112897565809
8	42.40834786880128
9	67.27422424679628
10	35.21162253679808
11	56.70614119773243
12	40.927564421066485
13	53.097967572628605
14	52.52295164244376
15	47.42421675910962
16	46.13671774907741
17	45.39015401457846
18	44.803694365312474
19	46.62225610133437
20	46.29629955010301
21	46.92644982286555
22	46.43104896535496
23	46.72626027633439
24	46.05543202109875
25	46.420707819551566
26	46.22969519637948
27	46.58524221459292
28	46.07626332567891
29	46.96141845279114
30	45.76396543729338
31	46.84787926399941
32	46.260476282168675
33	46.2535327469092
34	46.00281037841942
35	46.07088792722689
36	45.81323553746156
37	46.35846456991805
38	46.44403360617611
39	46.59182029162856
40	45.8222414609055
41	46.740542536481335
42	46.12537882348442
43	46.307528018642586
44	46.28061870185348
45	45.92976662302091
46	45.503105600820135
47	46.0317208168758
48	44.72046894102621
49	42.81428769905883
50	31.378164476911614
>>END_MODULE
>>Per sequence GC content	warn
#GC Content	Count
0	2363.0
1	1836.0
2	1246.5
3	1485.0
4	1831.0
5	2737.5
6	3763.5
7	5766.5
8	7867.0
9	12052.0
10	16396.0
11	24175.5
12	32171.5
13	45997.0
14	60883.0
15	81253.5
16	101854.5
17	130037.5
18	159360.5
19	208885.0
20	260670.0
21	325119.5
22	389682.5
23	463497.5
24	545377.0
25	653081.5
26	781857.5
27	914149.5
28	1030386.0
29	1149594.5
30	1273899.5
31	1331516.0
32	1420943.0
33	1574318.0
34	1700382.0
35	1766790.0
36	1872166.5
37	2069033.0
38	2260754.0
39	2447515.0
40	2627963.5
41	2811017.0
42	3025046.0
43	3323769.5
44	3622768.5
45	3827276.0
46	4016938.5
47	4202897.0
48	4411453.0
49	4526175.5
50	4528112.5
51	4459854.5
52	4369277.0
53	4044494.0
54	3687392.5
55	3402953.5
56	3091485.5
57	2762330.5
58	2445305.0
59	2135491.0
60	1813629.5
61	1505465.0
62	1219128.5
63	1012411.0
64	808620.0
65	647707.0
66	512371.0
67	404961.0
68	309302.0
69	233515.5
70	179972.5
71	147273.0
72	119205.5
73	97268.5
74	79008.0
75	65045.0
76	55677.0
77	49248.5
78	43873.5
79	35648.5
80	26804.5
81	21713.0
82	17628.5
83	13964.5
84	10723.5
85	8121.5
86	5898.5
87	5158.5
88	4281.0
89	3470.5
90	2954.5
91	2492.5
92	2257.5
93	2093.0
94	1458.0
95	707.0
96	286.5
97	260.0
98	133.0
99	11.5
100	11.0
>>END_MODULE
>>Per base N content	pass
#Base	N-Count
1	0.27329997243792137
2	0.0025216164410936594
3	0.0030680310297839398
4	0.01875379823303424
5	0.015969593862393307
6	0.010818236538627698
7	0.004967931931802439
8	0.004228437983150929
9	0.0031626399161649417
10	0.005259481765343896
11	0.0018825237596219893
12	0.002537062789890558
13	0.0010773828285836615
14	4.054666559185823E-5
15	7.993485502394909E-4
16	2.2011047035580184E-4
17	0.0
18	7.723174398449187E-6
19	0.0028884672250199957
20	0.0019037624892177247
21	0.0011030575460871835
22	0.0029378898768316728
23	0.002856342672316849
24	0.002921911433187883
25	0.00318509137146162
26	0.004144332993726654
27	0.003354406438459352
28	0.002654620227759818
29	0.0029831539779979575
30	0.004235760855201477
31	0.001871735965842414
32	3.5055877218114373E-5
33	3.4701070165407916E-4
34	2.1467865708117358E-5
35	0.005856025252071894
36	0.0013381721952937893
37	0.0011813724483726526
38	0.004996113784862709
39	0.012728915289019605
40	5.318515555032897E-4
41	0.004945319571881019
42	2.256442961130098E-4
43	0.006229053987139446
44	0.0010318988418808058
45	4.922730146139049E-4
46	6.021829069958912E-4
47	2.7325205756760154E-4
48	4.2119743482338245E-6
49	0.0
50	0.0
>>END_MODULE
>>Sequence Length Distribution	warn
#Length	Count
20	26970.0
21	27391.0
22	28332.0
23	30982.0
24	31630.0
25	34222.0
26	38695.0
27	41158.0
28	43666.0
29	46187.0
30	46804.0
31	49541.0
32	51349.0
33	55874.0
34	61316.0
35	63560.0
36	72170.0
37	82720.0
38	91173.0
39	102390.0
40	112089.0
41	131961.0
42	145164.0
43	178112.0
44	226449.0
45	319582.0
46	613716.0
47	1555302.0
48	3930653.0
49	1.1769249E7
50	3.1783768E7
>>END_MODULE
>>Sequence Duplication Levels	fail
#Total Duplicate Percentage	64.46395699411687
#Duplication Level	Relative count
1	100.0
2	26.34814622519057
3	14.054940646166191
4	9.149694380855733
5	6.6150614778278625
6	5.068085809359734
7	4.007268779647417
8	3.3134307223939774
9	2.78951218936587
10++	64.65319897104288
>>END_MODULE
>>Overrepresented sequences	pass
>>END_MODULE
>>Kmer Content	warn
#Sequence	Count	Obs/Exp Overall	Obs/Exp Max	Max Obs/Exp Position
GTGTG	7058295	3.1904407	9.840305	9
CACAC	5988910	3.0461555	9.069176	5
ACACA	6636975	2.8686194	9.248393	6
TGTGT	7177630	2.851531	9.51317	10
CTCCA	5442965	2.759165	8.58422	1
CAGCA	5471205	2.681498	7.5207734	4
TCCAG	5430495	2.6526003	10.872683	2
TGCTG	5451490	2.5572655	6.941585	2
CTGGA	5311365	2.4999356	10.073336	4
CTCTG	4985695	2.427147	8.031001	2
TGGAG	5322265	2.4138453	7.4026966	5
CAGAG	5074870	2.3966777	8.829739	4
CTGCT	4916550	2.3934855	7.8798337	9
AGCAG	4973705	2.3489013	6.68142	7
CTGCA	4559655	2.2272265	6.101379	4
CTCCT	4375905	2.2107925	5.5628414	1
GAGGA	4829430	2.1977124	5.9379115	6
CAGCT	4443255	2.1703694	5.4749675	9
CCAGC	3753455	2.164847	5.0123158	3
CTTCA	4984285	2.1398408	5.4313107	1
AGGAG	4684295	2.1316664	7.1822076	7
AGCTG	4524665	2.1296544	7.778035	7
TGCAG	4493790	2.1151223	6.0308933	2
CTTCT	4888150	2.0915155	5.6120105	1
GCTGC	3691060	2.044444	5.92986	8
CTGTG	4350860	2.0409656	10.105961	9
CCAGA	4142740	2.0304024	7.1484146	3
AGAGA	5009290	2.0102935	5.229111	6
CACAG	4097685	2.0083208	6.4531035	7
TCTGG	4266645	2.001461	6.8830338	3
CACTG	4068890	1.9875056	8.45781	7
CAGTG	4185545	1.9700385	7.416572	9
CAGGA	4104555	1.938433	8.090051	4
TCCTG	3981180	1.9381267	7.758699	2
CCTCA	3803465	1.9280647	5.878353	1
AGAAG	4798795	1.925819	5.2581353	5
CTCAG	3939865	1.9244815	6.1658635	2
GCTGA	4058675	1.9103237	5.5403104	8
CTGAA	4476945	1.8582864	5.6995854	4
GAGAG	4029710	1.8337866	6.2972217	7
CCTGG	3289905	1.8222481	6.18899	3
TTCAG	4404510	1.8220758	6.045055	2
ACAGA	4372850	1.8211998	6.5681205	8
GCTGT	3875570	1.8180097	6.8058653	8
GGCTG	3405725	1.8177074	6.282652	7
CCTCT	3584110	1.8107624	5.7456956	1
CTGAG	3837080	1.806024	6.7107806	9
CCTGC	3122310	1.7947747	5.012939	8
ACAGC	3641080	1.7845334	7.389701	8
CAGAA	4275655	1.7807201	5.8472266	4
CCAGG	3189910	1.77282	6.362104	3
CTCTT	4068335	1.7407374	5.425889	1
GAGCT	3632825	1.709886	5.6450124	6
TTCTG	4102480	1.6914271	5.7363534	2
TCTGT	4093190	1.6875969	5.03173	8
GCTCA	3443630	1.6820889	5.440804	1
AGAGG	3679100	1.6742357	5.4767184	5
TCAGA	4006445	1.6629916	5.879386	3
CCTGA	3387245	1.6545467	5.4082747	3
TCTGA	3988850	1.650124	5.2121544	3
AAGAG	3998845	1.6047887	5.247756	5
GCTCT	3271620	1.5926973	5.5428357	1
GTCCA	3236780	1.58105	8.07832	1
TCAGG	3336640	1.5704784	5.6579537	3
GACAG	3316450	1.5662395	6.6874723	7
AGAGC	3298835	1.5579207	5.7722654	5
CCCTG	2693150	1.5480838	5.5685763	2
TGCTC	3163635	1.5401276	5.452057	10
CTGTT	3705925	1.5279299	5.159267	9
TCTTG	3689655	1.5212219	5.7775245	2
CAAGA	3620095	1.5076932	5.872424	4
ACCTG	3072360	1.5007367	5.4367795	7
TGAGC	3171970	1.4929723	5.2580094	10
AACAG	3580470	1.4911902	6.3441286	7
TGTGC	3171220	1.4876026	7.2508054	10
CTGTC	3024545	1.4724154	6.0113187	9
CAGGG	2724580	1.4590696	5.8030677	4
GTGTT	3605920	1.4325612	5.584223	1
GTGCT	3035715	1.4240379	5.4161	1
ACACC	2774775	1.4113413	5.583161	6
TGGAC	2971760	1.398738	7.7490296	5
AACAC	3220365	1.3918995	5.2557797	5
AGACA	3338840	1.3905565	5.1040053	6
ACTGG	2951710	1.3893011	5.112008	8
TGTCC	2842685	1.383882	5.7981734	10
GGACA	2918110	1.3781179	5.937816	6
TACAG	3296305	1.3682274	5.5753174	7
ACTGA	3252655	1.3501093	6.0449524	8
AGCAC	2742685	1.3442202	5.7556276	5
ACTGC	2731510	1.3342439	6.512353	8
ACACT	3059055	1.3177347	7.3198776	6
GTTCA	3133995	1.2964839	5.567682	1
ACAGT	3108725	1.290367	6.65487	8
ACTGT	3114390	1.2883737	8.228029	8
AGTGT	3197220	1.2744759	5.196484	8
GACTG	2701960	1.2717496	6.8087177	7
GTGCA	2672525	1.2578951	5.6178765	1
GTCCT	2562815	1.2476352	6.1206007	1
TGCAC	2491245	1.2168832	5.532288	5
GTACA	2904140	1.205448	6.5801215	1
TGAAC	2896545	1.2022955	5.347115	5
ATACA	3262970	1.1944067	5.9710174	6
AACTG	2841125	1.1792918	5.638783	7
AGGAC	2436105	1.1504844	6.418337	5
GTCTT	2773855	1.1436433	5.2257977	1
AGACT	2626815	1.0903362	5.293962	6
TGTAC	2524300	1.0442629	5.9351745	5
TACAC	2328470	1.0030239	7.768627	5
GTGTA	2512090	1.0013694	7.8586397	1
TACTG	2375720	0.9827977	5.493979	7
GGACT	1943565	0.9147907	5.555263	6
ATACT	2029615	0.7404415	5.1087947	6
GTATA	1626680	0.5718334	5.323691	1
TATAC	1530770	0.55845356	5.1338367	5
>>END_MODULE
