Sender: LSF System <lsfadmin@node0067a>
Subject: Job 1533092: <zebrafish_var_8> in cluster <thmorgan-cluster1> Done

Job <zebrafish_var_8> was submitted from host <node0095b> by user <aalonso> in cluster <thmorgan-cluster1>.
Job was executed on host(s) <node0067a>, in queue <normal>, as user <aalonso> in cluster <thmorgan-cluster1>.
</gpfs/gpfs1/home/aalonso> was used as the home directory.
</gpfs/gpfs1/home/aalonso/test_datasets/zebrafish> was used as the working directory.
Started at Fri Dec  2 22:58:15 2016
Results reported on Sat Dec  3 08:12:17 2016

Your job looked like:

------------------------------------------------------------
# LSBATCH: User input
/gpfs/gpfs1/software/samtools-1.2/bin/samtools mpileup -B -f /gpfs/gpfs1/myerslab/reference/genomes/rnaseq_pipeline//genomes_processed/ZF_GRCz10_E83/genome.fa /gpfs/gpfs1/home/aalonso/test_datasets/zebrafish/results_sam2sortbam/ZF_10.sorted.bam | java -jar /gpfs/gpfs1/software/varscan/VarScan.v2.3.6.jar mpileup2cns --output-vcf 1 --variants 1 > /gpfs/gpfs1/home/aalonso/test_datasets/zebrafish/results_varscan/ZF_10.vcf && (echo 'ZF_10' >> /gpfs/gpfs1/home/aalonso/test_datasets/zebrafish/results_varscan/samples_ok.txt) || (echo 'ZF_10' >> /gpfs/gpfs1/home/aalonso/test_datasets/zebrafish/results_varscan/samples_ko.txt)
/gpfs/gpfs1/software/samtools-1.2/bin/samtools mpileup -B -f /gpfs/gpfs1/myerslab/reference/genomes/rnaseq_pipeline//genomes_processed/ZF_GRCz10_E83/genome.fa /gpfs/gpfs1/home/aalonso/test_datasets/zebrafish/results_sam2sortbam/ZF_16.sorted.bam | java -jar /gpfs/gpfs1/software/varscan/VarScan.v2.3.6.jar mpileup2cns --output-vcf 1 --variants 1 > /gpfs/gpfs1/home/aalonso/test_datasets/zebrafish/results_varscan/ZF_16.vcf && (echo 'ZF_16' >> /gpfs/gpfs1/home/aalonso/test_datasets/zebrafish/results_varscan/samples_ok.txt) || (echo 'ZF_16' >> /gpfs/gpfs1/home/aalonso/test_datasets/zebrafish/results_varscan/samples_ko.txt)

------------------------------------------------------------

Successfully completed.

Resource usage summary:

    CPU time :                                   41999.91 sec.
    Max Memory :                                 1188 MB
    Average Memory :                             928.76 MB
    Total Requested Memory :                     -
    Delta Memory :                               -
    Max Swap :                                   35111 MB
    Max Processes :                              5
    Max Threads :                                27

The output (if any) follows:

[mpileup] 1 samples in 1 input files
<mpileup> Set max per-file depth to 8000
Only variants will be reported
Warning: No p-value threshold provided, so p-values will not be calculated
Min coverage:	8
Min reads2:	2
Min var freq:	0.2
Min avg qual:	15
P-value thresh:	0.01
Reading input from STDIN
1078387444 bases in pileup file
253899 variant positions (249395 SNP, 4504 indel)
4419 were failed by the strand-filter
249480 variant positions reported (245066 SNP, 4414 indel)
[mpileup] 1 samples in 1 input files
<mpileup> Set max per-file depth to 8000
Only variants will be reported
Warning: No p-value threshold provided, so p-values will not be calculated
Min coverage:	8
Min reads2:	2
Min var freq:	0.2
Min avg qual:	15
P-value thresh:	0.01
Reading input from STDIN
1026816933 bases in pileup file
109458 variant positions (107374 SNP, 2084 indel)
1838 were failed by the strand-filter
107620 variant positions reported (105585 SNP, 2035 indel)
