Sender: LSF System <lsfadmin@node0075b>
Subject: Job 1532940: <zebrafish_fas_0> in cluster <thmorgan-cluster1> Done

Job <zebrafish_fas_0> was submitted from host <node0095b> by user <aalonso> in cluster <thmorgan-cluster1>.
Job was executed on host(s) <node0075b>, in queue <normal>, as user <aalonso> in cluster <thmorgan-cluster1>.
</gpfs/gpfs1/home/aalonso> was used as the home directory.
</gpfs/gpfs1/home/aalonso/test_datasets/zebrafish> was used as the working directory.
Started at Fri Dec  2 21:20:04 2016
Results reported on Fri Dec  2 21:34:27 2016

Your job looked like:

------------------------------------------------------------
# LSBATCH: User input
/gpfs/gpfs1/software/fastqc/fastqc -q -o /gpfs/gpfs1/home/aalonso/test_datasets/zebrafish/results_fastqc /gpfs/gpfs1/home/aalonso/test_datasets/zebrafish/results_trimgalore/D03LTACXX_s3_1_nextera12index_3_SL6056.fastq.gz /gpfs/gpfs1/home/aalonso/test_datasets/zebrafish/results_trimgalore/D03LTACXX_s3_2_nextera12index_3_SL6056.fastq.gz && (echo 'ZF_03' >> /gpfs/gpfs1/home/aalonso/test_datasets/zebrafish/results_fastqc/samples_ok.txt) || (echo 'ZF_03' >> /gpfs/gpfs1/home/aalonso/test_datasets/zebrafish/results_fastqc/samples_ko.txt)
/gpfs/gpfs1/software/fastqc/fastqc -q -o /gpfs/gpfs1/home/aalonso/test_datasets/zebrafish/results_fastqc /gpfs/gpfs1/home/aalonso/test_datasets/zebrafish/results_trimgalore/D03LTACXX_s2_1_nextera12index_1_SL6054.fastq.gz /gpfs/gpfs1/home/aalonso/test_datasets/zebrafish/results_trimgalore/D03LTACXX_s2_2_nextera12index_1_SL6054.fastq.gz && (echo 'ZF_01' >> /gpfs/gpfs1/home/aalonso/test_datasets/zebrafish/results_fastqc/samples_ok.txt) || (echo 'ZF_01' >> /gpfs/gpfs1/home/aalonso/test_datasets/zebrafish/results_fastqc/samples_ko.txt)

------------------------------------------------------------

Successfully completed.

Resource usage summary:

    CPU time :                                   947.30 sec.
    Max Memory :                                 287 MB
    Average Memory :                             214.59 MB
    Total Requested Memory :                     -
    Delta Memory :                               -
    Max Swap :                                   3534 MB
    Max Processes :                              4
    Max Threads :                                29

The output (if any) follows:

