           Time    Speed        Read     Read   Mapped   Mapped   Mapped   Mapped Unmapped Unmapped Unmapped Unmapped
                    M/hr      number   length   unique   length   MMrate    multi   multi+       MM    short    other
Dec 07 15:13:16	Started 1st pass mapping
Dec 07 15:13:23     79.8      155251       56    76.8%     57.0     0.5%    21.5%     0.3%     0.0%     1.0%     0.4%
Dec 07 15:13:48	Finished 1st pass mapping
Dec 07 15:16:26    443.3     7510775       58    77.6%     58.5     0.5%    20.8%     0.2%     0.0%     1.0%     0.4%
ALL DONE!
