                                 Started job on |	Dec 07 15:21:19
                             Started mapping on |	Dec 07 15:24:22
                                    Finished on |	Dec 07 15:26:08
       Mapping speed, Million of reads per hour |	384.96

                          Number of input reads |	11334876
                      Average input read length |	54
                                    UNIQUE READS:
                   Uniquely mapped reads number |	9136363
                        Uniquely mapped reads % |	80.60%
                          Average mapped length |	54.66
                       Number of splices: Total |	1403170
            Number of splices: Annotated (sjdb) |	1397872
                       Number of splices: GT/AG |	1388711
                       Number of splices: GC/AG |	9259
                       Number of splices: AT/AC |	1299
               Number of splices: Non-canonical |	3901
                      Mismatch rate per base, % |	0.44%
                         Deletion rate per base |	0.01%
                        Deletion average length |	1.38
                        Insertion rate per base |	0.00%
                       Insertion average length |	1.30
                             MULTI-MAPPING READS:
        Number of reads mapped to multiple loci |	2038757
             % of reads mapped to multiple loci |	17.99%
        Number of reads mapped to too many loci |	27619
             % of reads mapped to too many loci |	0.24%
                                  UNMAPPED READS:
       % of reads unmapped: too many mismatches |	0.00%
                 % of reads unmapped: too short |	0.99%
                     % of reads unmapped: other |	0.18%
                                  CHIMERIC READS:
                       Number of chimeric reads |	0
                            % of chimeric reads |	0.00%
