##FastQC	0.10.1
>>Basic Statistics	pass
#Measure	Value	
Filename	D03LTACXX_s4_2_nextera12index_6_SL6059.fastq.gz	
File type	Conventional base calls	
Encoding	Sanger / Illumina 1.9	
Total Sequences	20898849	
Filtered Sequences	0	
Sequence length	20-50	
%GC	47	
>>END_MODULE
>>Per base sequence quality	pass
#Base	Mean	Median	Lower Quartile	Upper Quartile	10th Percentile	90th Percentile
1	32.54954524050583	34.0	31.0	34.0	31.0	34.0
2	32.88489791949787	34.0	33.0	34.0	31.0	34.0
3	33.08879977074336	34.0	33.0	34.0	31.0	34.0
4	36.10641954492326	37.0	37.0	37.0	35.0	37.0
5	36.15025722229966	37.0	37.0	37.0	35.0	37.0
6	36.29613094960397	37.0	37.0	37.0	35.0	37.0
7	36.36664894798752	37.0	37.0	37.0	35.0	37.0
8	36.39681630313708	37.0	37.0	37.0	35.0	37.0
9	37.689700997409	39.0	38.0	39.0	35.0	39.0
10	38.00643729231213	39.0	39.0	39.0	37.0	39.0
11	38.14361322003906	39.0	39.0	39.0	37.0	39.0
12	38.083512158971054	39.0	39.0	39.0	37.0	39.0
13	38.134525111885345	39.0	39.0	39.0	37.0	39.0
14	39.63788479451667	41.0	40.0	41.0	38.0	41.0
15	39.689816697560715	41.0	40.0	41.0	38.0	41.0
16	39.77154459558993	41.0	40.0	41.0	38.0	41.0
17	39.70395575373553	41.0	40.0	41.0	38.0	41.0
18	39.73505110257508	41.0	40.0	41.0	38.0	41.0
19	39.78379393046957	41.0	40.0	41.0	38.0	41.0
20	39.736655353603446	41.0	40.0	41.0	38.0	41.0
21	39.71470599372326	41.0	40.0	41.0	38.0	41.0
22	39.67452876047897	41.0	40.0	41.0	38.0	41.0
23	39.59691255916428	41.0	40.0	41.0	38.0	41.0
24	39.541451352093624	41.0	40.0	41.0	37.0	41.0
25	39.5363404559109	41.0	40.0	41.0	37.0	41.0
26	39.482638095505486	41.0	40.0	41.0	37.0	41.0
27	39.44001738108804	41.0	40.0	41.0	37.0	41.0
28	39.239628765426716	41.0	39.0	41.0	37.0	41.0
29	39.2801666166089	41.0	39.0	41.0	37.0	41.0
30	39.26122814057899	40.0	39.0	41.0	36.0	41.0
31	39.16452475896402	40.0	39.0	41.0	36.0	41.0
32	39.27642835601829	41.0	39.0	41.0	37.0	41.0
33	39.35298543218383	41.0	39.0	41.0	37.0	41.0
34	39.36145582410437	41.0	39.0	41.0	37.0	41.0
35	39.35881085844725	41.0	39.0	41.0	37.0	41.0
36	39.297807765214486	41.0	39.0	41.0	36.0	41.0
37	37.97855780572822	40.0	38.0	41.0	33.0	41.0
38	38.272434187466715	40.0	38.0	41.0	33.0	41.0
39	35.74886051717102	39.0	35.0	41.0	24.0	41.0
40	36.65802299495202	39.0	35.0	41.0	30.0	41.0
41	32.796832203978354	38.0	30.0	40.0	9.0	41.0
42	34.33303015113942	38.0	33.0	40.0	16.0	41.0
43	34.687428466543786	38.0	32.0	40.0	24.0	41.0
44	36.04977133825421	38.0	34.0	40.0	29.0	41.0
45	36.191335977075404	38.0	35.0	40.0	30.0	41.0
46	36.61655720632996	38.0	35.0	40.0	30.0	41.0
47	36.024424739030856	38.0	34.0	40.0	29.0	41.0
48	36.4203363734338	38.0	35.0	40.0	30.0	41.0
49	36.292126574681674	38.0	34.0	40.0	30.0	41.0
50	35.10908882826496	36.0	33.0	39.0	28.0	40.0
>>END_MODULE
>>Per sequence quality scores	pass
#Quality	Count
16	1.0
17	29.0
18	303.0
19	1526.0
20	7848.0
21	13667.0
22	19991.0
23	26207.0
24	32713.0
25	40388.0
26	49725.0
27	61240.0
28	75734.0
29	95663.0
30	123214.0
31	165906.0
32	234306.0
33	358769.0
34	598405.0
35	1052646.0
36	1908978.0
37	3420534.0
38	5669723.0
39	6941333.0
>>END_MODULE
>>Per base sequence content	fail
#Base	G	A	T	C
1	43.86735365186858	19.269726289710977	10.253780004822275	26.609140053598168
2	16.606144194831014	21.043221088395825	37.08108996816045	25.26954474861271
3	19.338830573875146	23.208311615630123	31.280593491057807	26.172264319436923
4	12.754233498696507	15.057479959781517	37.89314425880583	34.29514228271614
5	13.537640278658408	36.701710223371634	36.14252153312367	13.618127964846295
6	34.00451383710175	37.40963437747217	16.02801187759192	12.55783990783416
7	27.68871625418223	31.18880374703889	22.397171250914344	18.725308747864535
8	26.022935521472977	36.22381787628591	20.591086140676936	17.162160461564174
9	26.60475703709807	13.511189061177484	18.700403070044672	41.18365083167978
10	14.500918208462101	27.316590497400117	36.67870895665115	21.503782337486623
11	38.38703270213589	20.655367192709992	21.545397069474976	19.41220303567914
12	19.659680779549152	24.830893797069876	33.20333574351391	22.306089679867057
13	29.806134299549225	19.98419147389409	25.817675413607706	24.39199881294898
14	20.82388843519564	19.09620955680382	27.109890118829032	32.9700118891715
15	24.25073744491862	28.343465231027793	22.85779470438779	24.5480026196658
16	24.35521688299676	27.4151796589372	25.172525051499246	23.05707840656679
17	23.72693826344216	27.172596921485965	25.888449646198218	23.212015168873652
18	23.430008035370754	27.419074610281168	26.482314887293555	22.668602467054523
19	24.856431088621196	26.261479759004906	25.756006945645666	23.126082206728228
20	24.048893793146217	26.35848031630833	25.99646994913452	23.596155941410938
21	24.262027679643694	26.054865929553227	25.83050922752925	23.852597163273824
22	23.654341305851023	26.08654652127432	26.272527021602244	23.98658515127241
23	24.115079431056934	25.836740097464894	25.875004653700255	24.173175817777917
24	23.775748043514707	26.419268893939176	26.12264832622347	23.68233473632265
25	24.18036653545292	25.702942618091058	26.32929884910214	23.787391997353886
26	24.01992283214059	26.082098174852224	26.35684339829419	23.541135594713
27	24.141131630237712	26.519409265841134	25.475189687835815	23.864269416085342
28	23.860181939907726	26.299795096177732	26.22665600873959	23.613366955174953
29	24.395943854184978	26.12529093821397	25.574355739733928	23.904409467867126
30	23.574819637499303	26.783902953973403	26.035752547765778	23.605524860761513
31	24.348250975448902	25.6574798034008	26.118408827451812	23.875860393698485
32	23.88093979898931	26.02737010682524	26.1114231779382	23.98026691624725
33	23.923267160588832	26.108067759144227	26.13175848440396	23.83690659586298
34	23.848365202305036	26.08327330132809	26.45488794375102	23.613473552615854
35	23.894033915561934	26.22881830627219	26.07909974513139	23.798048033034483
36	23.777463565107933	26.48711919288959	26.3806592507348	23.354757991267675
37	24.29320002582566	26.211042969994345	26.02111222732256	23.47464477685743
38	24.408637949752666	26.581335640347042	26.17886227306935	22.831164136830946
39	25.629209563376055	27.063833428776363	25.28792185168955	22.019035156158033
40	24.61520776630714	27.257615590612737	26.48468924506319	21.642487398016925
41	26.507439917766906	26.257703636500658	25.05075282842536	22.184103617307073
42	23.867221787867596	26.616372797782073	26.076202855868345	23.44020255848199
43	24.019656075767216	26.54978728552718	26.278212212053166	23.15234442665244
44	23.836857004329186	26.177953194378755	26.29148272918775	23.69370707210431
45	23.73044255408344	26.714440921399273	26.31696746166943	23.238149062847853
46	23.751494081410087	26.367966213469067	26.79927826242644	23.081261442694405
47	24.01902580149723	26.778264127338545	26.545917572120896	22.656792499043323
48	24.407046872751437	27.7892798041386	26.563302301925923	21.24037102118404
49	25.94932555697686	29.62029991267495	26.679251739400243	17.75112279094794
50	32.792699232630646	39.60463784776227	27.602662919607084	0.0
>>END_MODULE
>>Per base GC content	fail
#Base	%GC
1	70.47649370546675
2	41.87568894344373
3	45.51109489331206
4	47.04937578141265
5	27.155768243504703
6	46.562353744935905
7	46.41402500204676
8	43.18509598303715
9	67.78840786877784
10	36.00470054594872
11	57.79923573781504
12	41.965770459416206
13	54.198133112498205
14	53.79390032436715
15	48.798740064584415
16	47.41229528956355
17	46.93895343231581
18	46.098610502425274
19	47.98251329534942
20	47.645049734557155
21	48.11462484291752
22	47.640926457123435
23	48.28825524883485
24	47.458082779837355
25	47.967758532806805
26	47.56105842685359
27	48.00540104632306
28	47.47354889508268
29	48.3003533220521
30	47.180344498260816
31	48.22411136914738
32	47.86120671523656
33	47.76017375645181
34	47.46183875492089
35	47.69208194859642
36	47.13222155637561
37	47.76784480268309
38	47.23980208658361
39	47.648244719534084
40	46.25769516432407
41	48.69154353507398
42	47.30742434634958
43	47.17200050241966
44	47.53056407643349
45	46.96859161693129
46	46.83275552410449
47	46.675818300540556
48	45.647417893935476
49	43.700448347924805
50	32.792699232630646
>>END_MODULE
>>Per sequence GC content	warn
#GC Content	Count
0	1868.0
1	1521.5
2	1145.5
3	1184.0
4	1384.5
5	1879.5
6	2465.5
7	3489.0
8	4412.5
9	6130.0
10	7989.0
11	11010.0
12	14387.5
13	18606.0
14	24126.5
15	31355.0
16	38886.5
17	49289.5
18	59345.0
19	75185.5
20	92366.0
21	114282.0
22	137877.5
23	164126.5
24	194316.5
25	224775.5
26	261263.0
27	302183.0
28	340371.5
29	383499.5
30	426059.0
31	462743.5
32	504764.0
33	548817.0
34	598397.5
35	649016.5
36	708185.5
37	777926.0
38	841661.5
39	922419.5
40	1007693.0
41	1106741.0
42	1214600.5
43	1329250.5
44	1452042.0
45	1561240.5
46	1669566.5
47	1768126.0
48	1854363.0
49	1916917.0
50	1954419.0
51	1942805.5
52	1909435.0
53	1819987.0
54	1704695.0
55	1593427.5
56	1473457.0
57	1341708.0
58	1213202.0
59	1069123.5
60	923509.5
61	784573.0
62	653879.0
63	556105.0
64	450196.0
65	363410.0
66	291936.5
67	233127.5
68	184737.0
69	143695.5
70	112552.5
71	89734.0
72	70914.5
73	58121.5
74	46778.0
75	37915.5
76	31450.5
77	25768.0
78	21584.0
79	17261.0
80	13353.0
81	10732.5
82	8306.5
83	6129.5
84	4165.5
85	3147.5
86	2488.5
87	2201.0
88	1790.5
89	1419.0
90	1264.5
91	1052.0
92	932.5
93	788.5
94	446.5
95	212.0
96	93.0
97	60.0
98	32.0
99	5.5
100	5.0
>>END_MODULE
>>Per base N content	pass
#Base	N-Count
1	0.0
2	0.0
3	0.0
4	0.0
5	0.0
6	0.0
7	0.0
8	0.0
9	0.0
10	0.0
11	0.0
12	0.0
13	0.0
14	0.0
15	0.0
16	0.0
17	0.0
18	0.0
19	0.0
20	0.0
21	0.0
22	0.0
23	0.0
24	0.0
25	0.0
26	0.0
27	0.0
28	0.0
29	0.0
30	0.0
31	0.0
32	0.0
33	0.0
34	0.0
35	0.0
36	0.0
37	0.0
38	0.0
39	0.0
40	0.0
41	0.0
42	0.0
43	0.0
44	0.0
45	0.0
46	0.0
47	0.0
48	0.0
49	0.0
50	0.0
>>END_MODULE
>>Sequence Length Distribution	warn
#Length	Count
20	9346.0
21	9357.0
22	9657.0
23	10506.0
24	11304.0
25	12284.0
26	13763.0
27	14333.0
28	15654.0
29	17678.0
30	18626.0
31	21822.0
32	25993.0
33	38996.0
34	67542.0
35	150164.0
36	301321.0
37	347702.0
38	732088.0
39	697811.0
40	1533939.0
41	160323.0
42	214316.0
43	147865.0
44	200666.0
45	259060.0
46	407397.0
47	696863.0
48	1479076.0
49	3871536.0
50	9401861.0
>>END_MODULE
>>Sequence Duplication Levels	warn
#Total Duplicate Percentage	33.13196763058118
#Duplication Level	Relative count
1	100.0
2	11.652032864346415
3	4.967029867061603
4	2.8604675764307625
5	2.0325117246729434
6	1.5395465284389436
7	1.1643569942522656
8	0.9499629747170211
9	0.806093303713107
10++	15.076695229027822
>>END_MODULE
>>Overrepresented sequences	pass
>>END_MODULE
>>Kmer Content	fail
#Sequence	Count	Obs/Exp Overall	Obs/Exp Max	Max Obs/Exp Position
GTGTG	2979015	3.3419251	10.2240095	9
CACAC	2396175	3.1113372	8.914038	5
TGTGT	2959465	3.0842428	9.98483	10
ACACA	2620535	3.0300627	9.491941	6
CTCCA	2234000	2.8896003	8.834312	1
CAGCA	2283145	2.830804	7.762157	4
TCCAG	2242960	2.7702816	11.104297	2
TGCTG	2314430	2.7190695	7.216097	2
CTGGA	2202835	2.597958	10.433248	4
TGGAG	2259255	2.5442703	7.7685328	5
CTCTG	2054560	2.527826	8.202437	2
CTGCT	2032915	2.5011952	8.080693	9
CAGAG	2105250	2.4924579	8.795908	4
AGCAG	2069490	2.450121	6.94965	7
GAGGA	2061395	2.3304143	6.176018	6
CTGCA	1871920	2.3120098	6.118381	4
CTCCT	1790110	2.3065364	5.8207054	1
CTTCA	2007245	2.3031065	5.85717	1
CAGCT	1804295	2.2284858	5.4641905	9
CCAGC	1599700	2.2273154	5.1414175	3
TGCAG	1877435	2.214191	6.053729	2
AGCTG	1856735	2.189778	7.5124745	7
AGGAG	1936555	2.1892824	7.3852177	7
CCAGA	1706085	2.1153245	7.442429	3
CTTCT	1838765	2.101677	5.425327	1
CTGTG	1772460	2.0823448	10.131169	9
TGAAG	1969305	2.0682178	5.1148386	5
TCTGC	1675170	2.061044	5.217074	10
TCTGG	1747845	2.053426	7.1713066	3
GCTGC	1550050	2.0528762	5.776118	8
CACAG	1644010	2.0383594	6.3101053	7
CCTCA	1557635	2.014746	6.0933456	1
CACTG	1628565	2.011442	8.392305	7
CAGTG	1702750	2.0081728	7.438463	9
TCCTG	1623325	1.9972565	7.947091	2
CAGGA	1664005	1.9700569	8.201788	4
GCTGA	1658940	1.9565045	5.5293384	8
CTCAG	1561685	1.9288384	5.9713006	2
GAGAG	1686715	1.9068375	6.2038636	7
CTGAA	1732250	1.905224	5.862297	4
TTCAG	1694850	1.8569182	6.1635756	2
CCTGC	1333935	1.8501371	5.113619	8
CTGAG	1549280	1.8271747	6.504361	9
ACAGA	1653620	1.8257662	6.6423693	8
CCTCT	1408635	1.8150103	5.86762	1
CAGAA	1626205	1.7954973	5.9199357	4
GCTGT	1508325	1.7720301	6.820542	8
ACAGC	1429040	1.7718245	6.989128	8
CCTGG	1332810	1.765165	6.047862	3
CCAGG	1324920	1.7614919	6.3015833	3
TTCTG	1590140	1.7354933	5.870576	2
GCTCA	1397765	1.7263806	5.3581133	1
TCAGA	1560035	1.7158124	5.853581	3
TCTGT	1570385	1.7139322	5.1400843	8
TCTGA	1560695	1.7099346	5.1791773	3
AGAGG	1508865	1.7057773	5.5472054	5
GAGCT	1428520	1.684754	5.4742727	6
CTCTT	1460845	1.6697208	5.1849303	1
GGCTG	1320220	1.6695952	5.9930105	7
GCTCT	1336790	1.6447184	5.523278	1
CCTGA	1326360	1.6381882	5.359436	3
GTCCA	1326195	1.6379844	8.329612	1
AGAGC	1365280	1.6163889	5.8415394	5
TGCTC	1304560	1.6050646	5.5322385	10
CCCTG	1139940	1.5810705	5.643576	2
TCTTG	1404010	1.532349	5.9902587	2
TGAGC	1295240	1.5275675	5.1446342	10
TCAGG	1291495	1.5231506	5.5202446	3
CTGTT	1395190	1.5227231	5.085152	9
AACAG	1371675	1.51447	6.1961393	7
CAAGA	1368850	1.5113509	6.0672603	4
GACAG	1275565	1.5101732	6.565995	7
CTGTC	1208165	1.4864649	6.0250115	9
TGTGC	1263055	1.4838791	7.1637588	10
CAGGG	1166045	1.480315	5.659416	4
ACCTG	1194350	1.4751426	5.3676367	7
GTGCT	1247180	1.4652286	5.493473	1
GTGTT	1380235	1.4384289	5.5742106	1
TGGAC	1214715	1.4325987	7.947193	5
ACTGG	1214005	1.4317614	5.1656	8
GGACA	1193860	1.4134405	5.9401793	6
TGTCC	1147405	1.4117091	5.446596	10
ACACC	1084455	1.4081213	5.5450974	6
ACTGA	1273075	1.4001981	6.122127	8
TACAG	1267630	1.3942094	5.4849205	7
AGACA	1260785	1.3920361	5.147369	6
AACAC	1200375	1.3879652	5.326958	5
ACTGC	1116900	1.379484	6.532639	8
AGCAC	1109500	1.3756365	5.6504683	5
GTTCA	1244050	1.3630109	5.7249966	1
ACACT	1182420	1.3619447	7.182354	6
ACAGT	1223965	1.3461843	6.673823	8
ACTGT	1223690	1.3407041	8.400119	8
GACTG	1126535	1.3286018	6.8466296	7
AGTGT	1250225	1.3079691	5.283605	8
GTCCT	1053015	1.2955762	6.3251557	1
GTGCA	1077420	1.2706772	5.2891197	1
TGAAC	1123475	1.2356598	5.313664	5
AACTG	1099875	1.2097032	5.52214	7
ATACA	1174045	1.2042191	5.805145	6
AGGAC	1006290	1.1913718	6.3010125	5
TGCAC	959655	1.1852707	5.2028327	5
GTACA	1063220	1.169388	6.0328474	1
AGACT	1054320	1.1595993	5.4898677	6
GTCTT	1057395	1.1540505	5.3453236	1
TACTG	947790	1.0384214	5.7864776	7
TGTAC	943375	1.0335842	5.5055895	5
TACAC	879030	1.0124916	7.608895	5
GTGTA	966515	1.0111555	7.2531943	1
GGACT	787765	0.9290666	5.4144073	6
ATACT	750550	0.76687837	5.308589	6
GTATA	608005	0.59320086	5.059441	1
TATAC	580175	0.59279674	5.214269	5
>>END_MODULE
