	RPKM PC1	RPKM PC2	RPKM PC3	RPKM PC4	RPKM Quantile_5%	RPKM Quantile_25%	RPKM Quantile_50%	RPKM Quantile_75%	RPKM Quantile_95%	RPKM GV1	RPKM GV2	COUNTS PC1	COUNTS PC2	COUNTS PC3	COUNTS PC4	COUNTS Quantile_5%	COUNTS Quantile_25%	COUNTS Quantile_50%	COUNTS Quantile_75%	COUNTS Quantile_95%	COUNTS GV1	COUNTS GV2
BRAIN_1	-0.1739	0.6496	1.6211	-0.417	0	0	0.2	1.2	5.41	2	2	-0.1999	0.5964	1.726	-0.4212	0	0	1	3.58	7.85	2	2
BRAIN_2	-0.3159	0.5968	1.5444	-0.1021	0	0	0.26	1.42	5.5	2	2	-0.1425	0.5833	1.4915	-0.0703	0	0	1	3.32	7.67	2	2
HT_1	-0.0759	0.679	-0.3398	1.1094	0	0	0.1	1.03	5.03	2	2	0.1028	0.7154	-0.3263	1.0347	0	0	1	2.81	7.36	2	2
HT_2	-0.0557	0.6631	-0.6261	1.6853	0	0	0.03	0.93	5.07	2	2	0.1181	0.7951	-0.6702	1.6963	0	0	1	2.81	7.56	2	2
LV_1	0.3444	0.7117	-0.8729	-1.7323	0	0	0	0.76	4.33	2	2	0.5102	0.5301	-0.8046	-1.7803	0	0	0	2.32	6.54	2	2
LV_2	-0.048	0.6763	-1.2576	-0.5947	0	0	0	1.05	5.2	2	2	0.2475	0.7035	-1.1522	-0.6989	0	0	0	2.58	7.31	2	2
TS_1	-0.9188	-1.5494	-0.0607	-0.49	0	0.29	1.05	2.46	5.86	2	2	-1.2628	-1.2857	-0.1929	-0.2737	0	1	2.81	4.95	8.39	2	2
TS_2	-1.1277	-1.2887	-0.2611	0.3122	0	0.42	1.2	2.66	6.09	2	2	-1.39	-0.9648	-0.3717	0.2056	0	1.58	3	5.13	8.65	2	2
TS_1_REP	2.3715	-1.1383	0.2527	0.2291	0	0	0	0	3.7	2	2	2.0166	-1.6733	0.3004	0.3077	0	0	0	0	5.03	2	2
