## net.sf.picard.metrics.StringHeader
# net.sf.picard.analysis.CollectInsertSizeMetrics HISTOGRAM_FILE=/gpfs/gpfs1/home/aalonso/test_datasets/zebrafish/results_picard_IS/ZF_14.pdf INPUT=/gpfs/gpfs1/home/aalonso/test_datasets/zebrafish/results_sam2sortbam/ZF_14.sorted.bam OUTPUT=/gpfs/gpfs1/home/aalonso/test_datasets/zebrafish/results_picard_IS/ZF_14.txt    DEVIATIONS=10.0 MINIMUM_PCT=0.05 METRIC_ACCUMULATION_LEVEL=[ALL_READS] ASSUME_SORTED=true STOP_AFTER=0 VERBOSITY=INFO QUIET=false VALIDATION_STRINGENCY=STRICT COMPRESSION_LEVEL=5 MAX_RECORDS_IN_RAM=500000 CREATE_INDEX=false CREATE_MD5_FILE=false
## net.sf.picard.metrics.StringHeader
# Started on: Fri Dec 02 23:06:36 CST 2016

## METRICS CLASS	net.sf.picard.analysis.InsertSizeMetrics
MEDIAN_INSERT_SIZE	MEDIAN_ABSOLUTE_DEVIATION	MIN_INSERT_SIZE	MAX_INSERT_SIZE	MEAN_INSERT_SIZE	STANDARD_DEVIATION	READ_PAIRS	PAIR_ORIENTATION	WIDTH_OF_10_PERCENT	WIDTH_OF_20_PERCENT	WIDTH_OF_30_PERCENT	WIDTH_OF_40_PERCENT	WIDTH_OF_50_PERCENT	WIDTH_OF_60_PERCENT	WIDTH_OF_70_PERCENT	WIDTH_OF_80_PERCENT	WIDTH_OF_90_PERCENT	WIDTH_OF_99_PERCENT	SAMPLE	LIBRARY	READ_GROUP
372	251	14	2067125	638.97779	718.912679	48181966	FR	125	235	327	419	503	607	1585	3437	6185	32281			

## HISTOGRAM	java.lang.Integer
insert_size	All_Reads.fr_count
14	7
15	10
16	30
17	21
18	41
19	44
20	80
21	94
22	163
23	162
24	222
25	442
26	2491
27	6239
28	7548
29	6354
30	5187
31	4938
32	6038
33	7270
34	8501
35	12240
36	17786
37	22144
38	23740
39	25745
40	24546
41	25611
42	26573
43	29038
44	31600
45	33390
46	33885
47	34171
48	34982
49	36421
50	36551
51	38142
52	36036
53	39265
54	39616
55	40966
56	43729
57	42338
58	46503
59	45079
60	46326
61	45491
62	44610
63	48171
64	46724
65	48714
66	50631
67	51444
68	53336
69	53279
70	54032
71	55382
72	55215
73	57141
74	57146
75	59886
76	59454
77	61937
78	63196
79	65195
80	64496
81	68856
82	67130
83	70824
84	71200
85	70193
86	70615
87	73387
88	75703
89	79194
90	78991
91	79022
92	79975
93	83676
94	82119
95	83440
96	83929
97	84425
98	88825
99	91724
100	91694
101	91808
102	93713
103	92092
104	92810
105	92743
106	94358
107	93813
108	98897
109	99582
110	96859
111	101621
112	101586
113	100836
114	100839
115	102978
116	103863
117	102890
118	103103
119	100944
120	103183
121	104885
122	104358
123	105125
124	103017
125	103034
126	105118
127	106247
128	106049
129	104804
130	103935
131	102949
132	106564
133	106580
134	105143
135	103729
136	103568
137	104927
138	99091
139	101604
140	100988
141	103297
142	100950
143	101025
144	102680
145	102633
146	100565
147	99771
148	96203
149	98519
150	95232
151	96762
152	97126
153	96182
154	98254
155	95827
156	95720
157	97988
158	95774
159	96728
160	92861
161	90672
162	94484
163	91592
164	96895
165	89915
166	93272
167	90812
168	88700
169	92410
170	89257
171	88576
172	91936
173	87324
174	93661
175	90171
176	87772
177	89593
178	89554
179	88829
180	90753
181	87855
182	89349
183	89897
184	88639
185	89025
186	88810
187	87642
188	89192
189	90743
190	89306
191	87695
192	88536
193	89396
194	88060
195	90071
196	91495
197	89598
198	88963
199	87972
200	88037
201	91286
202	88675
203	87650
204	87525
205	88257
206	90278
207	92155
208	88725
209	87929
210	90202
211	89982
212	90929
213	88742
214	88141
215	89386
216	88203
217	87422
218	88513
219	89358
220	87734
221	88977
222	85283
223	87533
224	88006
225	86452
226	86564
227	85829
228	85831
229	88306
230	86421
231	88235
232	87058
233	83092
234	85943
235	82525
236	83431
237	81657
238	80916
239	85081
240	81086
241	80247
242	79570
243	81184
244	81088
245	79533
246	77991
247	76131
248	78290
249	78391
250	78447
251	75847
252	77034
253	78375
254	75992
255	76505
256	74041
257	73394
258	74503
259	73737
260	74052
261	74253
262	71463
263	73198
264	70517
265	74581
266	68880
267	68639
268	70985
269	67806
270	69434
271	68360
272	69442
273	68041
274	67102
275	66055
276	67699
277	65546
278	67125
279	64723
280	62879
281	64864
282	65312
283	62304
284	63126
285	62337
286	62464
287	60066
288	60612
289	60170
290	60695
291	62011
292	58598
293	59839
294	58873
295	57933
296	56599
297	57192
298	58537
299	55800
300	57798
301	53206
302	55821
303	56261
304	55281
305	54461
306	53337
307	54121
308	54465
309	52756
310	52570
311	53151
312	53483
313	51133
314	51815
315	49149
316	51291
317	51416
318	50566
319	51292
320	48882
321	49603
322	48541
323	48508
324	48238
325	46733
326	46962
327	47765
328	48903
329	47920
330	46861
331	47456
332	45779
333	46872
334	46448
335	45484
336	44631
337	42887
338	45453
339	45721
340	44458
341	45052
342	43900
343	43347
344	44564
345	43086
346	43332
347	41721
348	42639
349	43295
350	41513
351	43811
352	40637
353	42712
354	41558
355	38769
356	41241
357	37286
358	42303
359	39568
360	40119
361	41132
362	39108
363	39972
364	39812
365	39661
366	38232
367	37619
368	37052
369	38686
370	38518
371	37308
372	40176
373	37103
374	38885
375	36769
376	36533
377	35748
378	36234
379	36966
380	35643
381	36162
382	35461
383	34916
384	36826
385	34443
386	35927
387	35111
388	35413
389	35535
390	33699
391	35524
392	34363
393	35237
394	34979
395	33068
396	35116
397	32553
398	33775
399	33640
400	32276
401	33820
402	33268
403	34109
404	33210
405	32675
406	32237
407	31794
408	32418
409	32054
410	32720
411	31315
412	31604
413	32410
414	31716
415	31711
416	30637
417	30638
418	30594
419	29672
420	30383
421	30227
422	29697
423	30079
424	28744
425	29626
426	29901
427	28479
428	28956
429	26932
430	28852
431	28783
432	29470
433	28523
434	27110
435	27555
436	28462
437	27689
438	27824
439	28288
440	27299
441	27933
442	26726
443	26575
444	26653
445	25506
446	26368
447	26522
448	26063
449	26348
450	25879
451	26482
452	25747
453	25313
454	25846
455	25306
456	24643
457	25036
458	24049
459	23770
460	25384
461	24656
462	26219
463	23949
464	23406
465	25446
466	23997
467	24823
468	23181
469	24033
470	24329
471	22378
472	23313
473	21849
474	22586
475	23446
476	23476
477	22033
478	22553
479	22096
480	22096
481	22735
482	23308
483	22739
484	23197
485	21580
486	21340
487	21222
488	21854
489	22140
490	21930
491	20161
492	21247
493	19873
494	21434
495	21422
496	20473
497	21415
498	19326
499	20345
500	20846
501	19539
502	21027
503	19437
504	19684
505	20119
506	20770
507	20935
508	19446
509	18937
510	18538
511	20118
512	19315
513	19833
514	18153
515	18517
516	19307
517	18283
518	19501
519	18494
520	18551
521	19092
522	18509
523	20147
524	17966
525	18886
526	17800
527	18314
528	18656
529	17753
530	18584
531	17410
532	18200
533	18059
534	17182
535	18199
536	17275
537	17854
538	17719
539	17200
540	17316
541	17386
542	16805
543	17131
544	16899
545	17342
546	17181
547	16748
548	16349
549	15706
550	17041
551	17367
552	16410
553	16052
554	16824
555	16762
556	16712
557	16356
558	15959
559	16168
560	15755
561	16517
562	15455
563	15900
564	16248
565	15664
566	15109
567	15714
568	15127
569	15817
570	14916
571	15155
572	15148
573	15297
574	15626
575	15233
576	14681
577	14307
578	15229
579	14745
580	15894
581	14871
582	14043
583	15092
584	14092
585	14841
586	14228
587	13287
588	14348
589	13531
590	14301
591	14149
592	12902
593	14718
594	13791
595	14154
596	14056
597	13734
598	13008
599	13025
600	12964
601	12778
602	13468
603	13561
604	13042
605	12967
606	12560
607	13567
608	13159
609	13245
610	11855
611	12687
612	12687
613	13744
614	12707
615	12626
616	12337
617	11731
618	12895
619	12735
620	12610
621	12290
622	11852
623	12762
624	13161
625	12148
626	11771
627	11347
628	12304
629	11705
630	11969
631	11847
632	11847
633	12443
634	11697
635	11708
636	11722
637	11699
638	12209
639	11599
640	11938
641	11430
642	12190
643	11104
644	11226
645	11108
646	11096
647	11286
648	11218
649	10960
650	11402
651	10643
652	11985
653	10907
654	10970
655	11029
656	10673
657	10539
658	10557
659	10587
660	10861
661	10591
662	10679
663	10735
664	11054
665	10620
666	10764
667	10240
668	10494
669	10390
670	10720
671	10474
672	10020
673	10216
674	10496
675	10051
676	10721
677	10089
678	10151
679	9924
680	10190
681	9856
682	9923
683	10053
684	9811
685	10020
686	9850
687	10014
688	10077
689	9921
690	10198
691	9662
692	10155
693	10197
694	9123
695	9756
696	9498
697	10105
698	10266
699	8896
700	10291
701	9293
702	9362
703	9486
704	8914
705	9876
706	9807
707	9363
708	9470
709	9301
710	9582
711	9527
712	8961
713	8786
714	9190
715	9008
716	9938
717	9456
718	8934
719	9070
720	9099
721	9620
722	9595
723	8978
724	8930
725	8395
726	9064
727	9274
728	8563
729	9140
730	8605
731	8981
732	9794
733	9092
734	8629
735	8666
736	8453
737	8744
738	9059
739	8344
740	8849
741	8659
742	8580
743	8200
744	7891
745	8944
746	8560
747	9282
748	8556
749	8173
750	8043
751	8594
752	8052
753	9143
754	8088
755	8316
756	8191
757	8050
758	8414
759	7960
760	8019
761	8285
762	8039
763	8282
764	8467
765	8053
766	7770
767	7564
768	7664
769	7912
770	7914
771	7966
772	7690
773	7377
774	7711
775	7746
776	8277
777	7696
778	7636
779	7538
780	7882
781	7588
782	7877
783	7285
784	7580
785	7446
786	7725
787	7067
788	7254
789	7284
790	7331
791	7614
792	7043
793	7536
794	7339
795	6855
796	7378
797	7047
798	7043
799	7722
800	7154
801	7326
802	7213
803	6885
804	7137
805	7724
806	7181
807	7419
808	6670
809	7396
810	6804
811	7087
812	7080
813	6251
814	7405
815	6535
816	6995
817	7172
818	6548
819	7262
820	6499
821	6253
822	7054
823	6324
824	6891
825	6407
826	6255
827	6880
828	6460
829	6737
830	6631
831	6503
832	6380
833	6281
834	6120
835	6376
836	6219
837	6272
838	6346
839	6901
840	6094
841	6101
842	5922
843	6063
844	6205
845	6345
846	6137
847	5869
848	6251
849	6477
850	6582
851	5795
852	5972
853	5803
854	6049
855	6371
856	5781
857	6039
858	6381
859	6010
860	6394
861	5726
862	5581
863	5958
864	5491
865	6537
866	5810
867	5587
868	5965
869	5836
870	5662
871	6064
872	6259
873	5711
874	5778
875	6214
876	5533
877	6280
878	5782
879	5809
880	6084
881	5868
882	6813
883	6028
884	6084
885	5603
886	5446
887	6575
888	6007
889	6088
890	5943
891	5882
892	6003
893	6269
894	7168
895	6481
896	6061
897	5859
898	5926
899	6432
900	6391
901	6044
902	6601
903	6152
904	6887
905	6125
906	5742
907	6523
908	6684
909	6469
910	6808
911	7083
912	7142
913	6312
914	6584
915	6688
916	6576
917	7906
918	6475
919	6989
920	6797
921	6697
922	6714
923	6537
924	7251
925	6672
926	6337
927	7057
928	6997
929	6965
930	7591
931	6710
932	6662
933	6464
934	7040
935	6824
936	7046
937	6744
938	6748
939	7264
940	6528
941	7279
942	5919
943	7169
944	7415
945	7510
946	8226
947	6756
948	6763
949	6471
950	7199
951	7014
952	6253
953	6895
954	6630
955	7479
956	6496
957	6652
958	7451
959	6621
960	6830
961	6635
962	6650
963	8039
964	6755
965	6732
966	6975
967	6274
968	6751
969	7293
970	6969
971	7084
972	6294
973	7048
974	6632
975	6692
976	7239
977	6463
978	6748
979	6211
980	6515
981	6387
982	6648
983	7601
984	6412
985	6124
986	5682
987	6068
988	6587
989	6428
990	6601
991	6060
992	5962
993	6507
994	6802
995	6591
996	5903
997	5629
998	5644
999	6067
1000	6686
1001	6151
1002	6616
1003	6057
1004	5782
1005	6560
1006	5890
1007	6403
1008	5653
1009	5841
1010	6746
1011	5848
1012	6682
1013	6186
1014	5556
1015	5707
1016	5494
1017	7068
1018	5990
1019	5954
1020	5561
1021	5247
1022	5965
1023	6117
1024	6218
1025	5802
1026	5298
1027	5602
1028	5998
1029	6164
1030	6216
1031	5372
1032	5687
1033	5992
1034	5850
1035	6450
1036	5791
1037	5944
1038	5489
1039	6226
1040	5813
1041	5855
1042	6681
1043	5362
1044	5649
1045	5361
1046	5746
1047	5595
1048	5265
1049	5781
1050	5565
1051	5757
1052	5768
1053	5427
1054	6068
1055	5503
1056	6972
1057	6035
1058	6415
1059	5922
1060	5596
1061	6108
1062	6036
1063	6417
1064	5894
1065	5553
1066	6148
1067	5799
1068	7602
1069	6185
1070	6626
1071	6286
1072	5609
1073	6443
1074	6040
1075	6988
1076	6944
1077	5665
1078	5849
1079	5866
1080	5880
1081	7076
1082	5783
1083	6338
1084	5570
1085	6928
1086	7134
1087	6780
1088	6479
1089	7204
1090	6477
1091	7487
1092	6154
1093	6501
1094	6511
1095	8043
1096	7416
1097	6549
1098	6344
1099	8357
1100	7411
1101	7150
1102	6281
1103	6705
1104	7021
1105	7586
1106	6861
1107	6719
1108	6971
1109	6826
1110	6807
1111	6465
1112	6370
1113	7619
1114	7170
1115	7935
1116	6087
1117	6692
1118	7623
1119	8672
1120	7073
1121	7120
1122	6370
1123	7599
1124	7295
1125	7361
1126	6891
1127	7077
1128	6146
1129	6834
1130	7440
1131	7283
1132	7059
1133	6330
1134	6997
1135	7475
1136	6849
1137	7030
1138	6194
1139	6558
1140	6810
1141	7184
1142	7132
1143	6862
1144	7069
1145	6518
1146	6897
1147	6348
1148	6230
1149	7211
1150	6669
1151	7484
1152	6497
1153	6501
1154	7049
1155	6922
1156	7062
1157	6321
1158	7546
1159	6610
1160	6935
1161	6515
1162	6691
1163	8105
1164	7092
1165	6693
1166	6780
1167	6687
1168	7024
1169	6739
1170	6694
1171	7054
1172	6533
1173	6851
1174	6479
1175	6543
1176	7035
1177	6254
1178	6738
1179	6566
1180	6376
1181	7266
1182	7041
1183	6684
1184	7115
1185	6957
1186	7736
1187	6373
1188	6423
1189	6756
1190	6365
1191	7345
1192	6335
1193	7573
1194	6798
1195	6371
1196	6654
1197	6710
1198	6950
1199	8011
1200	6308
1201	6842
1202	5971
1203	6862
1204	6350
1205	6579
1206	6873
1207	6330
1208	6506
1209	6756
1210	6374
1211	6553
1212	6017
1213	6671
1214	6705
1215	6631
1216	6649
1217	6073
1218	6157
1219	6912
1220	6471
1221	6118
1222	6601
1223	6211
1224	6540
1225	6126
1226	6335
1227	6404
1228	6398
1229	5972
1230	5878
1231	6106
1232	6540
1233	6850
1234	5699
1235	6861
1236	6096
1237	6701
1238	6825
1239	6124
1240	6356
1241	6550
1242	6201
1243	6387
1244	6611
1245	6513
1246	6096
1247	5809
1248	6530
1249	6298
1250	6136
1251	5559
1252	5383
1253	6003
1254	5692
1255	6115
1256	5710
1257	5778
1258	5713
1259	5991
1260	6152
1261	5041
1262	5687
1263	5564
1264	5735
1265	5814
1266	5607
1267	5453
1268	5094
1269	5174
1270	5413
1271	5156
1272	5982
1273	4957
1274	5471
1275	5219
1276	5306
1277	5623
1278	5189
1279	5135
1280	5677
1281	5472
1282	5343
1283	5012
1284	5016
1285	5003
1286	5169
1287	4989
1288	5603
1289	4984
1290	5884
1291	5563
1292	5329
1293	5443
1294	5162
1295	5717
1296	5191
1297	4887
1298	5401
1299	5148
1300	5105
1301	5685
1302	4963
1303	5233
1304	4686
1305	4621
1306	5900
1307	5222
1308	4781
1309	4953
1310	4498
1311	5304
1312	5305
1313	5258
1314	5229
1315	4780
1316	5430
1317	5372
1318	4610
1319	4839
1320	5022
1321	5238
1322	5120
1323	5000
1324	4605
1325	5094
1326	4783
1327	5333
1328	4619
1329	4556
1330	4705
1331	4962
1332	4597
1333	5223
1334	5087
1335	4877
1336	4481
1337	4269
1338	4892
1339	4452
1340	4578
1341	4430
1342	4359
1343	5164
1344	4336
1345	4888
1346	4413
1347	4139
1348	4241
1349	4287
1350	4841
1351	4540
1352	4625
1353	4470
1354	4393
1355	4522
1356	4612
1357	4496
1358	4316
1359	4543
1360	4312
1361	4790
1362	4449
1363	4433
1364	4837
1365	4374
1366	4672
1367	4163
1368	4323
1369	4501
1370	4376
1371	4628
1372	4434
1373	4302
1374	4304
1375	4192
1376	4499
1377	4502
1378	4254
1379	4681
1380	4962
1381	4434
1382	4903
1383	4268
1384	4238
1385	4442
1386	4509
1387	4844
1388	4398
1389	4450
1390	5063
1391	4549
1392	4670
1393	4434
1394	4663
1395	4856
1396	4545
1397	4605
1398	4392
1399	4894
1400	4576
1401	4637
1402	4413
1403	4421
1404	4815
1405	4727
1406	5087
1407	5014
1408	4912
1409	4741
1410	4924
1411	4650
1412	5004
1413	4647
1414	5096
1415	4784
1416	5076
1417	5198
1418	5315
1419	4977
1420	5106
1421	4610
1422	5393
1423	5676
1424	5024
1425	5310
1426	4934
1427	5140
1428	5660
1429	4923
1430	5657
1431	4507
1432	5215
1433	5537
1434	5799
1435	6049
1436	5445
1437	5033
1438	4849
1439	5545
1440	6159
1441	5328
1442	6185
1443	4964
1444	5712
1445	5057
1446	4955
1447	5609
1448	4756
1449	6534
1450	4710
1451	5342
1452	5842
1453	4979
1454	6207
1455	4803
1456	5110
1457	5463
1458	4638
1459	5492
1460	4909
1461	5808
1462	5847
1463	5155
1464	5300
1465	4753
1466	5334
1467	6075
1468	5303
1469	5735
1470	5438
1471	5895
1472	6097
1473	5237
1474	4933
1475	5408
1476	6146
1477	5559
1478	5273
1479	5172
1480	5272
1481	5506
1482	5833
1483	5346
1484	5314
1485	5086
1486	5417
1487	5692
1488	6268
1489	5149
1490	5498
1491	4927
1492	5340
1493	5248
1494	5102
1495	5534
1496	4787
1497	5103
1498	5036
1499	5180
1500	5659
1501	5153
1502	5417
1503	4977
1504	5675
1505	5792
1506	5275
1507	5274
1508	5606
1509	5188
1510	5958
1511	5482
1512	5086
1513	5168
1514	5515
1515	5447
1516	5302
1517	5176
1518	4881
1519	5229
1520	5694
1521	5421
1522	5342
1523	4925
1524	5184
1525	5250
1526	4951
1527	5141
1528	4699
1529	6458
1530	5458
1531	5020
1532	5289
1533	5135
1534	5024
1535	5034
1536	4706
1537	5372
1538	4885
1539	5627
1540	5213
1541	4866
1542	4885
1543	4801
1544	4878
1545	4803
1546	5056
1547	4969
1548	4794
1549	5012
1550	4849
1551	5191
1552	4763
1553	4838
1554	5089
1555	4573
1556	4861
1557	5129
1558	4802
1559	5286
1560	4990
1561	4787
1562	4828
1563	4888
1564	4555
1565	5354
1566	4944
1567	5250
1568	5040
1569	5698
1570	4966
1571	4704
1572	4817
1573	4844
1574	4561
1575	4838
1576	4964
1577	4686
1578	4828
1579	4564
1580	4963
1581	4567
1582	5084
1583	4793
1584	4579
1585	4960
1586	4798
1587	5461
1588	4905
1589	4590
1590	4729
1591	4768
1592	4850
1593	4610
1594	4436
1595	4785
1596	5016
1597	4771
1598	5206
1599	5017
1600	4939
1601	4861
1602	4897
1603	4685
1604	5206
1605	4829
1606	4751
1607	4969
1608	4803
1609	5134
1610	5148
1611	4669
1612	4934
1613	5016
1614	5538
1615	4568
1616	5051
1617	4814
1618	4656
1619	5052
1620	4865
1621	5041
1622	5115
1623	4893
1624	5115
1625	4695
1626	4581
1627	4907
1628	4761
1629	4688
1630	4975
1631	4750
1632	5395
1633	5243
1634	4820
1635	5155
1636	4805
1637	5266
1638	5036
1639	5300
1640	5337
1641	4785
1642	5288
1643	5061
1644	5184
1645	5723
1646	5052
1647	5340
1648	5078
1649	4966
1650	4821
1651	5125
1652	4619
1653	5063
1654	5012
1655	4790
1656	4802
1657	4862
1658	5003
1659	4816
1660	4947
1661	5017
1662	4653
1663	4995
1664	5178
1665	4897
1666	4982
1667	4605
1668	5290
1669	5373
1670	5013
1671	4850
1672	4447
1673	4680
1674	5011
1675	4936
1676	5430
1677	4625
1678	4985
1679	5182
1680	5167
1681	5244
1682	4589
1683	4988
1684	4734
1685	5285
1686	5164
1687	5124
1688	4943
1689	5330
1690	4974
1691	4726
1692	4592
1693	4889
1694	4965
1695	4850
1696	4784
1697	4918
1698	4732
1699	4933
1700	4685
1701	4976
1702	5048
1703	4916
1704	5038
1705	4748
1706	4837
1707	5413
1708	4308
1709	5024
1710	4750
1711	4992
1712	5177
1713	5089
1714	4978
1715	5015
1716	4763
1717	4501
1718	4807
1719	4717
1720	4799
1721	4838
1722	4671
1723	5365
1724	4584
1725	5090
1726	4953
1727	4567
1728	5535
1729	4796
1730	4941
1731	4756
1732	4938
1733	5063
1734	4986
1735	5040
1736	4991
1737	5180
1738	4928
1739	5374
1740	5163
1741	4810
1742	5229
1743	5106
1744	5039
1745	5384
1746	5134
1747	5108
1748	4522
1749	4683
1750	5619
1751	4761
1752	5365
1753	4518
1754	4877
1755	5284
1756	4932
1757	5523
1758	5352
1759	4599
1760	6056
1761	5079
1762	5870
1763	5355
1764	5310
1765	6228
1766	5653
1767	5888
1768	5990
1769	5190
1770	5951
1771	5201
1772	7090
1773	5797
1774	5826
1775	5278
1776	4883
1777	6035
1778	5602
1779	5778
1780	5861
1781	5428
1782	6364
1783	5547
1784	6170
1785	5552
1786	5907
1787	5873
1788	5822
1789	6395
1790	5604
1791	5200
1792	5764
1793	6086
1794	6604
1795	6784
1796	5114
1797	5727
1798	5920
1799	6331
1800	6596
1801	5958
1802	5713
1803	6113
1804	6339
1805	5798
1806	6229
1807	5427
1808	5955
1809	6252
1810	5338
1811	6217
1812	5688
1813	6371
1814	6004
1815	5313
1816	6219
1817	5725
1818	6690
1819	6328
1820	5468
1821	5935
1822	5335
1823	6049
1824	6528
1825	5164
1826	5951
1827	5572
1828	6322
1829	7103
1830	5417
1831	5965
1832	5759
1833	5675
1834	5698
1835	5495
1836	6383
1837	5821
1838	5409
1839	5838
1840	5399
1841	5808
1842	5997
1843	5636
1844	5792
1845	5299
1846	6013
1847	6061
1848	5311
1849	5951
1850	5079
1851	5333
1852	5956
1853	5892
1854	6797
1855	4913
1856	5389
1857	5226
1858	5821
1859	5691
1860	5389
1861	5717
1862	5079
1863	5460
1864	5359
1865	5113
1866	5471
1867	5197
1868	5487
1869	5108
1870	4620
1871	4835
1872	4600
1873	5065
1874	4913
1875	4790
1876	4837
1877	4825
1878	5118
1879	5291
1880	4924
1881	4773
1882	4648
1883	4829
1884	5156
1885	4922
1886	4627
1887	4805
1888	4526
1889	5358
1890	4994
1891	4973
1892	4473
1893	4413
1894	4927
1895	4994
1896	4616
1897	4999
1898	4483
1899	5334
1900	4138
1901	4624
1902	4419
1903	4423
1904	5518
1905	4780
1906	4543
1907	4791
1908	4318
1909	5145
1910	4436
1911	4934
1912	4645
1913	4516
1914	5071
1915	4628
1916	4717
1917	4799
1918	4467
1919	4748
1920	4638
1921	4709
1922	4730
1923	4244
1924	4644
1925	4708
1926	4796
1927	4794
1928	4504
1929	4758
1930	4492
1931	4604
1932	5116
1933	4390
1934	4658
1935	4485
1936	4688
1937	5096
1938	4432
1939	4845
1940	4569
1941	4381
1942	5103
1943	4471
1944	4915
1945	4910
1946	4444
1947	5112
1948	4526
1949	4862
1950	4848
1951	4864
1952	4773
1953	4562
1954	4834
1955	4682
1956	4939
1957	4820
1958	4880
1959	4691
1960	4454
1961	5098
1962	4526
1963	5036
1964	4934
1965	4409
1966	5117
1967	4453
1968	5111
1969	5174
1970	4580
1971	5120
1972	5459
1973	4688
1974	5215
1975	4292
1976	4787
1977	4543
1978	5108
1979	5556
1980	4931
1981	4906
1982	4489
1983	4754
1984	5287
1985	4549
1986	4926
1987	4722
1988	4960
1989	4787
1990	4936
1991	5152
1992	5115
1993	4915
1994	4649
1995	4934
1996	4881
1997	5010
1998	5035
1999	5155
2000	4547
2001	4970
2002	4852
2003	5013
2004	4939
2005	4891
2006	4633
2007	4837
2008	4959
2009	5260
2010	4475
2011	4722
2012	4804
2013	5040
2014	5152
2015	4529
2016	4848
2017	4503
2018	4775
2019	4874
2020	4696
2021	5395
2022	4805
2023	4898
2024	4827
2025	4557
2026	5013
2027	4973
2028	4891
2029	4361
2030	4587
2031	4597
2032	4781
2033	4756
2034	4686
2035	4897
2036	4431
2037	4944
2038	4619
2039	4691
2040	4710
2041	4604
2042	4591
2043	4606
2044	4401
2045	4591
2046	4575
2047	5311
2048	4882
2049	4744
2050	4868
2051	4506
2052	4491
2053	4541
2054	4544
2055	4882
2056	4936
2057	5009
2058	5020
2059	4686
2060	4954
2061	4690
2062	4676
2063	4613
2064	4780
2065	4717
2066	5217
2067	4957
2068	4709
2069	4702
2070	4497
2071	4802
2072	4739
2073	4489
2074	5082
2075	4361
2076	4213
2077	4610
2078	4641
2079	4675
2080	4535
2081	4311
2082	4636
2083	4565
2084	4856
2085	4890
2086	4246
2087	4612
2088	4323
2089	4437
2090	4863
2091	4259
2092	4399
2093	4331
2094	4404
2095	4580
2096	4397
2097	4334
2098	4264
2099	4400
2100	4687
2101	4481
2102	4488
2103	4651
2104	4353
2105	4671
2106	4479
2107	4495
2108	4423
2109	4308
2110	4577
2111	4356
2112	4483
2113	4612
2114	4231
2115	4544
2116	4563
2117	4832
2118	4796
2119	4444
2120	4339
2121	4626
2122	4640
2123	4572
2124	4474
2125	4342
2126	4564
2127	4505
2128	4555
2129	4421
2130	4476
2131	4765
2132	4578
2133	4288
2134	4412
2135	4694
2136	4556
2137	4296
2138	4500
2139	4553
2140	4655
2141	4418
2142	4429
2143	4684
2144	4388
2145	4700
2146	4482
2147	4614
2148	4641
2149	4354
2150	4578
2151	4343
2152	4436
2153	4569
2154	4451
2155	4419
2156	4490
2157	4332
2158	4303
2159	4569
2160	4716
2161	4380
2162	4382
2163	4205
2164	4680
2165	4393
2166	4424
2167	4063
2168	4351
2169	4051
2170	4478
2171	4357
2172	4237
2173	4198
2174	4077
2175	4531
2176	4342
2177	3924
2178	4149
2179	4078
2180	4246
2181	4424
2182	3978
2183	4864
2184	4026
2185	4013
2186	4208
2187	3956
2188	4324
2189	4309
2190	4546
2191	4410
2192	4096
2193	4061
2194	3922
2195	4181
2196	4211
2197	4607
2198	4697
2199	3967
2200	4110
2201	4074
2202	4399
2203	4245
2204	4473
2205	4289
2206	3945
2207	4531
2208	4121
2209	4182
2210	5237
2211	4094
2212	4580
2213	4028
2214	4079
2215	4340
2216	4142
2217	4418
2218	3839
2219	4224
2220	4273
2221	3997
2222	4361
2223	3958
2224	3937
2225	4271
2226	3861
2227	4416
2228	4344
2229	4221
2230	4182
2231	3977
2232	4798
2233	3823
2234	4088
2235	4099
2236	4170
2237	4350
2238	4589
2239	4092
2240	3970
2241	4194
2242	3945
2243	4162
2244	4308
2245	3917
2246	4348
2247	4280
2248	4142
2249	5247
2250	4177
2251	4305
2252	4150
2253	4268
2254	4355
2255	4029
2256	4449
2257	3880
2258	4364
2259	4520
2260	4353
2261	4410
2262	4259
2263	4373
2264	4232
2265	4446
2266	4165
2267	4320
2268	3995
2269	4249
2270	4094
2271	4096
2272	4727
2273	4438
2274	4537
2275	4611
2276	4439
2277	4595
2278	4257
2279	4618
2280	4601
2281	4551
2282	4501
2283	4710
2284	4196
2285	4205
2286	5046
2287	4171
2288	4785
2289	4657
2290	4345
2291	4656
2292	4600
2293	4774
2294	4459
2295	4463
2296	4625
2297	4156
2298	4976
2299	5468
2300	4802
2301	5014
2302	4065
2303	4797
2304	4738
2305	4574
2306	5149
2307	4372
2308	5032
2309	4745
2310	4595
2311	4892
2312	4239
2313	4797
2314	4411
2315	4666
2316	4511
2317	4938
2318	4904
2319	4664
2320	5174
2321	4447
2322	4805
2323	4565
2324	4146
2325	5360
2326	4661
2327	5721
2328	4589
2329	4552
2330	5068
2331	4739
2332	4492
2333	5073
2334	4764
2335	4778
2336	4281
2337	5039
2338	4668
2339	5063
2340	4476
2341	4366
2342	4595
2343	4811
2344	5523
2345	4390
2346	4628
2347	4433
2348	4885
2349	4799
2350	4428
2351	4361
2352	4685
2353	4489
2354	4542
2355	4242
2356	4817
2357	4862
2358	4691
2359	4452
2360	4878
2361	4594
2362	4627
2363	4769
2364	4786
2365	4620
2366	4250
2367	4150
2368	4269
2369	4244
2370	4631
2371	4673
2372	4620
2373	4283
2374	4274
2375	4177
2376	4534
2377	4515
2378	4348
2379	4275
2380	4135
2381	4390
2382	4342
2383	4280
2384	4514
2385	3976
2386	4109
2387	4258
2388	4183
2389	4774
2390	4081
2391	4638
2392	4136
2393	4503
2394	4466
2395	4025
2396	4347
2397	4256
2398	4461
2399	4240
2400	3955
2401	4526
2402	4049
2403	4606
2404	3896
2405	4181
2406	4177
2407	4042
2408	4501
2409	4078
2410	4029
2411	4400
2412	3794
2413	4296
2414	3810
2415	4041
2416	4412
2417	3684
2418	4403
2419	4106
2420	3994
2421	3996
2422	3881
2423	4225
2424	4255
2425	4024
2426	4175
2427	4352
2428	4289
2429	4099
2430	3824
2431	4096
2432	3876
2433	3949
2434	4029
2435	3777
2436	3953
2437	4045
2438	3836
2439	4396
2440	4186
2441	3923
2442	3856
2443	4072
2444	3725
2445	4275
2446	4181
2447	3827
2448	3856
2449	3795
2450	4138
2451	3817
2452	4333
2453	3984
2454	3811
2455	3970
2456	4145
2457	3970
2458	4032
2459	3549
2460	4063
2461	4054
2462	3952
2463	3842
2464	3776
2465	3802
2466	3740
2467	3733
2468	3614
2469	3953
2470	4014
2471	3849
2472	3663
2473	3702
2474	3798
2475	3992
2476	3827
2477	4242
2478	3735
2479	3623
2480	3845
2481	3983
2482	3576
2483	3835
2484	3948
2485	4171
2486	4033
2487	3832
2488	3692
2489	3615
2490	3824
2491	3722
2492	4013
2493	3467
2494	3705
2495	3819
2496	3847
2497	3674
2498	4490
2499	3441
2500	3663
2501	3764
2502	3663
2503	3807
2504	3680
2505	3804
2506	3633
2507	3577
2508	4430
2509	3821
2510	3614
2511	3325
2512	3697
2513	3818
2514	3476
2515	3721
2516	3587
2517	3876
2518	3850
2519	3469
2520	3763
2521	3471
2522	3969
2523	3432
2524	3674
2525	3264
2526	3378
2527	3790
2528	3549
2529	3619
2530	3407
2531	3487
2532	3817
2533	3639
2534	3733
2535	3323
2536	3293
2537	3452
2538	3453
2539	3854
2540	3454
2541	3676
2542	3221
2543	3711
2544	3481
2545	3477
2546	3543
2547	3431
2548	3776
2549	3598
2550	3520
2551	3552
2552	3569
2553	3424
2554	3520
2555	3219
2556	3517
2557	3324
2558	3555
2559	3604
2560	3597
2561	3290
2562	4028
2563	3245
2564	3808
2565	3676
2566	3338
2567	3505
2568	3391
2569	3944
2570	3397
2571	3536
2572	3583
2573	3581
2574	3552
2575	3425
2576	3871
2577	3697
2578	3803
2579	3422
2580	3576
2581	3631
2582	3623
2583	3883
2584	3725
2585	3729
2586	3891
2587	3973
2588	3561
2589	4288
2590	3769
2591	3779
2592	3733
2593	3613
2594	3741
2595	3962
2596	4207
2597	4021
2598	3702
2599	3965
2600	3888
2601	4083
2602	4077
2603	3925
2604	3992
2605	4106
2606	3881
2607	4194
2608	3831
2609	3827
2610	3725
2611	4637
2612	3850
2613	4052
2614	4048
2615	4129
2616	4442
2617	4136
2618	4284
2619	4307
2620	4501
2621	4332
2622	3901
2623	4364
2624	4333
2625	4194
2626	4418
2627	4186
2628	4502
2629	4434
2630	4093
2631	4461
2632	4143
2633	4239
2634	4248
2635	5648
2636	4448
2637	4209
2638	4136
2639	4032
2640	4323
2641	4288
2642	5028
2643	4354
2644	4728
2645	4210
2646	5279
2647	4713
2648	4406
2649	4513
2650	4236
2651	4388
2652	5231
2653	4630
2654	4556
2655	4275
2656	4382
2657	4509
2658	4232
2659	4542
2660	4544
2661	4157
2662	4744
2663	4372
2664	4193
2665	4927
2666	4470
2667	5138
2668	4568
2669	3987
2670	5198
2671	4683
2672	4615
2673	4211
2674	4053
2675	4565
2676	4275
2677	4737
2678	4497
2679	4153
2680	4317
2681	4329
2682	5016
2683	4180
2684	4002
2685	4086
2686	4427
2687	4831
2688	4168
2689	4481
2690	4016
2691	4219
2692	4241
2693	3848
2694	5269
2695	4022
2696	4053
2697	4100
2698	4136
2699	4268
2700	4589
2701	4464
2702	4555
2703	3850
2704	4621
2705	4443
2706	4504
2707	3973
2708	4329
2709	4405
2710	4425
2711	3894
2712	4268
2713	3923
2714	4615
2715	4014
2716	3840
2717	3883
2718	4219
2719	4278
2720	4194
2721	4265
2722	4072
2723	4279
2724	4208
2725	3911
2726	3970
2727	3771
2728	3841
2729	4064
2730	4170
2731	4185
2732	4280
2733	3729
2734	3961
2735	3948
2736	4316
2737	3970
2738	3723
2739	4035
2740	3926
2741	4165
2742	3816
2743	3899
2744	4146
2745	4214
2746	4009
2747	3980
2748	4830
2749	3882
2750	4037
2751	3932
2752	3829
2753	4010
2754	3951
2755	3944
2756	3907
2757	3655
2758	3740
2759	3888
2760	3913
2761	4660
2762	3763
2763	3900
2764	3930
2765	3715
2766	4554
2767	4072
2768	3849
2769	4090
2770	4581
2771	3939
2772	3988
2773	3796
2774	3891
2775	4216
2776	4101
2777	3886
2778	4003
2779	3983
2780	4219
2781	4246
2782	3952
2783	3925
2784	4278
2785	4015
2786	4101
2787	3858
2788	3909
2789	4309
2790	4453
2791	4132
2792	4302
2793	3510
2794	3743
2795	3904
2796	3950
2797	4100
2798	3756
2799	3614
2800	4235
2801	3690
2802	4089
2803	3648
2804	3648
2805	4135
2806	3677
2807	4153
2808	3751
2809	3787
2810	3782
2811	3387
2812	3593
2813	3900
2814	4007
2815	4598
2816	3807
2817	3548
2818	3469
2819	3584
2820	3832
2821	4065
2822	3481
2823	3964
2824	3415
2825	3794
2826	3937
2827	3711
2828	3899
2829	3494
2830	3789
2831	3739
2832	3573
2833	5510
2834	3744
2835	3922
2836	3609
2837	3492
2838	3549
2839	3446
2840	3983
2841	3530
2842	3393
2843	3765
2844	3496
2845	3719
2846	3487
2847	3475
2848	3554
2849	3463
2850	3829
2851	3703
2852	3865
2853	3959
2854	3710
2855	3874
2856	3249
2857	3491
2858	3814
2859	3630
2860	3753
2861	3513
2862	3517
2863	3440
2864	3360
2865	3423
2866	3317
2867	3553
2868	3442
2869	3595
2870	3425
2871	3575
2872	3731
2873	3377
2874	3710
2875	3398
2876	3625
2877	3727
2878	3475
2879	3511
2880	3262
2881	3144
2882	3514

