## net.sf.picard.metrics.StringHeader
# net.sf.picard.analysis.CollectInsertSizeMetrics HISTOGRAM_FILE=/gpfs/gpfs1/home/aalonso/test_datasets/zebrafish/results_picard_IS/ZF_19.pdf INPUT=/gpfs/gpfs1/home/aalonso/test_datasets/zebrafish/results_sam2sortbam/ZF_19.sorted.bam OUTPUT=/gpfs/gpfs1/home/aalonso/test_datasets/zebrafish/results_picard_IS/ZF_19.txt    DEVIATIONS=10.0 MINIMUM_PCT=0.05 METRIC_ACCUMULATION_LEVEL=[ALL_READS] ASSUME_SORTED=true STOP_AFTER=0 VERBOSITY=INFO QUIET=false VALIDATION_STRINGENCY=STRICT COMPRESSION_LEVEL=5 MAX_RECORDS_IN_RAM=500000 CREATE_INDEX=false CREATE_MD5_FILE=false
## net.sf.picard.metrics.StringHeader
# Started on: Fri Dec 02 23:06:13 CST 2016

## METRICS CLASS	net.sf.picard.analysis.InsertSizeMetrics
MEDIAN_INSERT_SIZE	MEDIAN_ABSOLUTE_DEVIATION	MIN_INSERT_SIZE	MAX_INSERT_SIZE	MEAN_INSERT_SIZE	STANDARD_DEVIATION	READ_PAIRS	PAIR_ORIENTATION	WIDTH_OF_10_PERCENT	WIDTH_OF_20_PERCENT	WIDTH_OF_30_PERCENT	WIDTH_OF_40_PERCENT	WIDTH_OF_50_PERCENT	WIDTH_OF_60_PERCENT	WIDTH_OF_70_PERCENT	WIDTH_OF_80_PERCENT	WIDTH_OF_90_PERCENT	WIDTH_OF_99_PERCENT	SAMPLE	LIBRARY	READ_GROUP
349	211	13	1448331	509.010027	559.50771	42622523	FR	97	187	267	347	423	519	1279	3553	7039	50605			

## HISTOGRAM	java.lang.Integer
insert_size	All_Reads.fr_count
13	2
14	56
15	153
16	239
17	184
18	167
19	132
20	153
21	141
22	168
23	131
24	318
25	661
26	1656
27	3322
28	3854
29	3469
30	3227
31	3234
32	4110
33	4882
34	6056
35	8346
36	11383
37	13943
38	14950
39	15821
40	15702
41	16371
42	17352
43	18787
44	20510
45	21580
46	21663
47	22692
48	23111
49	24120
50	24483
51	25292
52	24711
53	25902
54	27151
55	27967
56	29497
57	28899
58	30528
59	30047
60	29788
61	30082
62	30689
63	31577
64	32135
65	32557
66	33501
67	34561
68	34695
69	35279
70	34997
71	36290
72	36269
73	36838
74	37658
75	39009
76	39558
77	41826
78	42118
79	43431
80	42716
81	44077
82	45404
83	46890
84	47969
85	46392
86	48399
87	49823
88	50797
89	54289
90	51715
91	53921
92	53522
93	57306
94	56429
95	56355
96	58619
97	58485
98	62385
99	64570
100	64047
101	64016
102	66254
103	67182
104	67055
105	67303
106	68842
107	69351
108	74138
109	73954
110	72984
111	76835
112	78609
113	79352
114	78951
115	79477
116	81642
117	83340
118	83282
119	82146
120	83736
121	86543
122	85637
123	87092
124	87006
125	87706
126	89984
127	91536
128	92127
129	91874
130	90165
131	92677
132	93757
133	96947
134	95800
135	94826
136	94994
137	94040
138	91067
139	95630
140	95870
141	96864
142	94906
143	94964
144	97555
145	97471
146	97022
147	95145
148	92625
149	96384
150	93994
151	94121
152	96883
153	95269
154	98724
155	95394
156	95118
157	99472
158	96288
159	97752
160	93536
161	89960
162	97765
163	92388
164	98326
165	92242
166	95442
167	94316
168	92241
169	94194
170	92299
171	90344
172	92569
173	91822
174	95566
175	91803
176	88343
177	90356
178	91593
179	90815
180	90704
181	88709
182	91098
183	92889
184	91895
185	89383
186	90077
187	88045
188	90547
189	91849
190	90844
191	89170
192	89457
193	89727
194	87747
195	89047
196	90947
197	88511
198	87867
199	86618
200	85673
201	88558
202	88489
203	86877
204	87105
205	86893
206	88735
207	89888
208	88390
209	84831
210	87946
211	88232
212	89460
213	87273
214	87454
215	88778
216	87213
217	86567
218	85942
219	85382
220	86282
221	87027
222	82589
223	84474
224	84206
225	84816
226	85664
227	87094
228	83917
229	85758
230	84617
231	86035
232	84772
233	82024
234	82426
235	79080
236	83547
237	81181
238	81205
239	82510
240	79637
241	79460
242	78270
243	81795
244	78226
245	78200
246	76817
247	76381
248	79018
249	78102
250	77306
251	75409
252	75373
253	76417
254	75678
255	74269
256	74918
257	74100
258	74837
259	75277
260	73229
261	75233
262	71022
263	71552
264	70811
265	73057
266	71026
267	70536
268	71147
269	67930
270	70841
271	68695
272	68665
273	68236
274	67020
275	67229
276	67840
277	67716
278	65838
279	67302
280	63528
281	65209
282	67739
283	63756
284	64633
285	64081
286	63277
287	62542
288	61115
289	63834
290	61932
291	62628
292	59981
293	59243
294	60327
295	60012
296	57913
297	58829
298	59459
299	58108
300	59471
301	55489
302	57026
303	57324
304	56584
305	56456
306	54632
307	54924
308	55971
309	54151
310	55504
311	54280
312	54835
313	52445
314	53303
315	51365
316	52719
317	51939
318	51902
319	52883
320	50770
321	50045
322	49680
323	50420
324	50002
325	48501
326	48233
327	48870
328	48752
329	50353
330	47927
331	48000
332	46772
333	47786
334	48872
335	46136
336	46089
337	45874
338	47172
339	47244
340	45929
341	46539
342	45185
343	44714
344	45130
345	43536
346	44451
347	43185
348	43483
349	44730
350	43210
351	43396
352	42737
353	42749
354	41299
355	40747
356	41298
357	39987
358	42462
359	40470
360	40655
361	41253
362	39752
363	40951
364	39998
365	40503
366	39454
367	39140
368	38379
369	39317
370	38069
371	38575
372	39972
373	37693
374	38601
375	37386
376	37227
377	36702
378	37833
379	36979
380	36297
381	36396
382	35899
383	35909
384	36681
385	34976
386	35709
387	36022
388	34861
389	35709
390	34048
391	34599
392	34715
393	34196
394	34760
395	33381
396	33339
397	33220
398	32308
399	33303
400	31962
401	33269
402	33516
403	33428
404	32326
405	31615
406	30890
407	31901
408	31809
409	31985
410	31655
411	30886
412	31540
413	32246
414	31406
415	30299
416	30084
417	29736
418	30084
419	29185
420	30632
421	29488
422	29201
423	29849
424	28741
425	29377
426	28992
427	27293
428	29020
429	26895
430	28119
431	27987
432	27833
433	28131
434	26280
435	26937
436	28118
437	26585
438	27099
439	27216
440	25950
441	26455
442	25908
443	25991
444	25515
445	24766
446	25610
447	26121
448	25427
449	25752
450	25204
451	25371
452	24860
453	24625
454	24984
455	24892
456	24449
457	24178
458	24155
459	23398
460	24553
461	23472
462	24233
463	23830
464	22897
465	24705
466	23122
467	23392
468	22776
469	22670
470	22781
471	21497
472	22326
473	21663
474	21982
475	21764
476	22338
477	21895
478	21454
479	21230
480	21018
481	21162
482	21798
483	21463
484	21429
485	20495
486	20562
487	20393
488	21404
489	20768
490	20211
491	19557
492	19680
493	19167
494	20218
495	20497
496	19303
497	19641
498	18547
499	19167
500	19577
501	19022
502	19788
503	18618
504	18242
505	18856
506	18663
507	19315
508	17878
509	18092
510	17456
511	18553
512	18019
513	17870
514	17258
515	17084
516	17748
517	17466
518	17911
519	17897
520	17137
521	17536
522	17337
523	17788
524	17249
525	16850
526	16481
527	16928
528	17026
529	16616
530	17125
531	16396
532	16649
533	16353
534	16137
535	16435
536	15831
537	16010
538	15932
539	15625
540	15911
541	15716
542	15391
543	15354
544	15249
545	15373
546	15391
547	14953
548	14844
549	14819
550	15435
551	15315
552	15025
553	14708
554	15237
555	14804
556	14664
557	14454
558	14414
559	14300
560	14207
561	14630
562	13809
563	13978
564	14301
565	13756
566	13841
567	13802
568	13633
569	13499
570	13424
571	13702
572	13377
573	13707
574	13055
575	13235
576	13082
577	13023
578	13414
579	13100
580	13285
581	13059
582	12191
583	13269
584	12064
585	12909
586	12229
587	12273
588	12732
589	12227
590	12385
591	12545
592	11698
593	12535
594	12350
595	12380
596	12552
597	12031
598	11523
599	11658
600	11640
601	11444
602	11585
603	11529
604	11389
605	11621
606	11131
607	11780
608	11350
609	11388
610	10641
611	11187
612	11099
613	11716
614	10877
615	10937
616	10663
617	10375
618	11078
619	10793
620	10853
621	10697
622	10280
623	10796
624	10818
625	10511
626	10064
627	9940
628	10505
629	10347
630	10401
631	10177
632	10254
633	10369
634	9977
635	10118
636	9907
637	10062
638	10329
639	9903
640	10071
641	9764
642	9982
643	9667
644	9418
645	9566
646	9233
647	9722
648	9725
649	9097
650	9538
651	9115
652	9913
653	9548
654	9081
655	9251
656	9097
657	9386
658	9120
659	8806
660	8787
661	8843
662	9263
663	8940
664	9056
665	8851
666	9034
667	8820
668	8783
669	8661
670	8736
671	8597
672	8399
673	8720
674	8919
675	8818
676	8354
677	8548
678	8441
679	8227
680	8374
681	8043
682	8322
683	8248
684	8272
685	8405
686	8114
687	8487
688	8395
689	8018
690	8330
691	7929
692	8167
693	8262
694	7706
695	8060
696	7968
697	7969
698	8258
699	7320
700	7858
701	7644
702	7750
703	7760
704	7416
705	7911
706	8000
707	7621
708	7474
709	7585
710	7530
711	7506
712	7521
713	7136
714	7528
715	7351
716	7737
717	7685
718	7447
719	7327
720	7353
721	7633
722	7430
723	7429
724	7192
725	7152
726	7381
727	7410
728	7040
729	7252
730	7017
731	6978
732	7340
733	7226
734	7043
735	7307
736	6915
737	7179
738	7187
739	6724
740	6841
741	6817
742	6611
743	6600
744	6631
745	7348
746	6839
747	7165
748	6862
749	6565
750	6472
751	6644
752	6553
753	6935
754	6334
755	6667
756	6600
757	6291
758	6627
759	6549
760	6186
761	6560
762	6479
763	6665
764	6652
765	6373
766	6292
767	6310
768	6337
769	6218
770	6346
771	6303
772	6302
773	6057
774	6272
775	6005
776	6444
777	6045
778	5943
779	6025
780	6379
781	6019
782	6280
783	5934
784	5979
785	6090
786	5935
787	5816
788	5729
789	5831
790	5772
791	6101
792	5682
793	5902
794	5858
795	5654
796	5827
797	5918
798	5708
799	5940
800	5700
801	5989
802	5854
803	5742
804	5670
805	6081
806	5672
807	5747
808	5440
809	5900
810	5268
811	5506
812	5701
813	5189
814	5699
815	5536
816	5587
817	5817
818	5326
819	5643
820	5282
821	5115
822	5658
823	5365
824	5182
825	5094
826	5106
827	5494
828	5065
829	5102
830	5206
831	4998
832	5169
833	4949
834	5029
835	5074
836	5033
837	5045
838	5053
839	5079
840	4805
841	4871
842	4896
843	4830
844	4785
845	4943
846	4750
847	4779
848	4865
849	4862
850	4944
851	4702
852	4813
853	4706
854	4892
855	4728
856	4672
857	4920
858	4884
859	4702
860	4890
861	4401
862	4600
863	4673
864	4650
865	4982
866	4445
867	4478
868	4557
869	4493
870	4742
871	4399
872	4720
873	4447
874	4464
875	4644
876	4279
877	4738
878	4450
879	4495
880	4557
881	4466
882	4744
883	4608
884	4561
885	4359
886	4352
887	4639
888	4435
889	4475
890	4399
891	4324
892	4468
893	4547
894	4867
895	4642
896	4266
897	4312
898	4312
899	4532
900	4620
901	4427
902	4606
903	4525
904	4759
905	4476
906	4209
907	4610
908	4651
909	4595
910	4757
911	4807
912	4886
913	4492
914	4629
915	4613
916	4634
917	5073
918	4469
919	4628
920	4732
921	4635
922	4610
923	4537
924	4807
925	4610
926	4497
927	4852
928	4726
929	4769
930	4917
931	4575
932	4758
933	4573
934	4870
935	4622
936	4864
937	4721
938	4524
939	5081
940	4705
941	4957
942	4346
943	4665
944	5166
945	4990
946	5334
947	4638
948	4657
949	4426
950	4902
951	4838
952	4534
953	4691
954	4724
955	4903
956	4500
957	4720
958	5055
959	4711
960	4663
961	4773
962	4713
963	5325
964	4783
965	4527
966	4809
967	4379
968	4700
969	4896
970	4881
971	4781
972	4495
973	4785
974	4698
975	4593
976	4885
977	4375
978	4670
979	4313
980	4516
981	4509
982	4570
983	4939
984	4417
985	4357
986	4362
987	4351
988	4541
989	4458
990	4501
991	4477
992	4254
993	4558
994	4803
995	4531
996	4238
997	4032
998	4093
999	4437
1000	4423
1001	4483
1002	4519
1003	4475
1004	4299
1005	4463
1006	4112
1007	4312
1008	4335
1009	4090
1010	4539
1011	3998
1012	4381
1013	4298
1014	4192
1015	4198
1016	4138
1017	4808
1018	4190
1019	4147
1020	3975
1021	4003
1022	4096
1023	4299
1024	4351
1025	4048
1026	3932
1027	3962
1028	4199
1029	4187
1030	4168
1031	3920
1032	4036
1033	4016
1034	4201
1035	4323
1036	3967
1037	4136
1038	4024
1039	4221
1040	4051
1041	4054
1042	4370
1043	3800
1044	3936
1045	3813
1046	3972
1047	3973
1048	3832
1049	4025
1050	3949
1051	3865
1052	4208
1053	3838
1054	3993
1055	3948
1056	4372
1057	4124
1058	4045
1059	3923
1060	3920
1061	4073
1062	4228
1063	4060
1064	3876
1065	3763
1066	4065
1067	4048
1068	4441
1069	4173
1070	4230
1071	4117
1072	3880
1073	4023
1074	4075
1075	4282
1076	4239
1077	3826
1078	3882
1079	3840
1080	3903
1081	4357
1082	3723
1083	4133
1084	3992
1085	4268
1086	4293
1087	4036
1088	4081
1089	4488
1090	4157
1091	4431
1092	4080
1093	4173
1094	4123
1095	4757
1096	4384
1097	4328
1098	4146
1099	4888
1100	4482
1101	4378
1102	4138
1103	4167
1104	4271
1105	4475
1106	4267
1107	4204
1108	4221
1109	4174
1110	4235
1111	4254
1112	4189
1113	4586
1114	4337
1115	4758
1116	4069
1117	4233
1118	4641
1119	5093
1120	4345
1121	4284
1122	4038
1123	4732
1124	4343
1125	4472
1126	4328
1127	4296
1128	4102
1129	4367
1130	4366
1131	4429
1132	4357
1133	4123
1134	4539
1135	4560
1136	4281
1137	4521
1138	4012
1139	4291
1140	4329
1141	4361
1142	4406
1143	4475
1144	4467
1145	4064
1146	4337
1147	3965
1148	4081
1149	4593
1150	4236
1151	4649
1152	4125
1153	4235
1154	4356
1155	4376
1156	4621
1157	4254
1158	4646
1159	4195
1160	4239
1161	4338
1162	4404
1163	4811
1164	4394
1165	4267
1166	4163
1167	4137
1168	4359
1169	4390
1170	4400
1171	4523
1172	4261
1173	4410
1174	4235
1175	4260
1176	4460
1177	4149
1178	4299
1179	4273
1180	4207
1181	4612
1182	4448
1183	4369
1184	4373
1185	4460
1186	4778
1187	4209
1188	4228
1189	4267
1190	4167
1191	4693
1192	4103
1193	4775
1194	4173
1195	4226
1196	4278
1197	4249
1198	4466
1199	4948
1200	4102
1201	4464
1202	3854
1203	4303
1204	4106
1205	4125
1206	4419
1207	4023
1208	4081
1209	4311
1210	4175
1211	4255
1212	3846
1213	4254
1214	4170
1215	4420
1216	4354
1217	3986
1218	4229
1219	4266
1220	4121
1221	4049
1222	4225
1223	4052
1224	4139
1225	3924
1226	4110
1227	4058
1228	4196
1229	3998
1230	3965
1231	3977
1232	4247
1233	4261
1234	3871
1235	4394
1236	4083
1237	4175
1238	4249
1239	4008
1240	4244
1241	4391
1242	4094
1243	4080
1244	4143
1245	4339
1246	3796
1247	3860
1248	4177
1249	4097
1250	4009
1251	3812
1252	3637
1253	3970
1254	3854
1255	3974
1256	4012
1257	3866
1258	3976
1259	4053
1260	4104
1261	3498
1262	3773
1263	3790
1264	3763
1265	3907
1266	3668
1267	3636
1268	3557
1269	3505
1270	3719
1271	3525
1272	3763
1273	3516
1274	3625
1275	3647
1276	3648
1277	3761
1278	3557
1279	3516
1280	3922
1281	3721
1282	3617
1283	3409
1284	3521
1285	3468
1286	3531
1287	3459
1288	3714
1289	3452
1290	3798
1291	3762
1292	3509
1293	3643
1294	3540
1295	3786
1296	3772
1297	3478
1298	3583
1299	3618
1300	3544
1301	3720
1302	3517
1303	3491
1304	3464
1305	3384
1306	3836
1307	3694
1308	3469
1309	3656
1310	3183
1311	3646
1312	3620
1313	3669
1314	3573
1315	3445
1316	3553
1317	3565
1318	3450
1319	3508
1320	3305
1321	3560
1322	3546
1323	3631
1324	3382
1325	3515
1326	3380
1327	3630
1328	3416
1329	3259
1330	3296
1331	3520
1332	3323
1333	3610
1334	3470
1335	3461
1336	3417
1337	3053
1338	3469
1339	3119
1340	3313
1341	3332
1342	3293
1343	3391
1344	3041
1345	3318
1346	3127
1347	3171
1348	3213
1349	3071
1350	3432
1351	3199
1352	3291
1353	3280
1354	2993
1355	3239
1356	3244
1357	3324
1358	3303
1359	3285
1360	3189
1361	3378
1362	3228
1363	3232
1364	3462
1365	3104
1366	3258
1367	3092
1368	2873
1369	3420
1370	3180
1371	3259
1372	3158
1373	3039
1374	3248
1375	3085
1376	3157
1377	3138
1378	3053
1379	3174
1380	3421
1381	3162
1382	3460
1383	2999
1384	3142
1385	3182
1386	3221
1387	3438
1388	3123
1389	3171
1390	3295
1391	3175
1392	3256
1393	3250
1394	3191
1395	3018
1396	3228
1397	3344
1398	3006
1399	3203
1400	3155
1401	3150
1402	3176
1403	3312
1404	3366
1405	3283
1406	3318
1407	3387
1408	3157
1409	3222
1410	3382
1411	3230
1412	3385
1413	3211
1414	3323
1415	3230
1416	3376
1417	3375
1418	3419
1419	3303
1420	3530
1421	3228
1422	3516
1423	3570
1424	3408
1425	3394
1426	3506
1427	3436
1428	3543
1429	3246
1430	3569
1431	3176
1432	3451
1433	3505
1434	3654
1435	3734
1436	3598
1437	3512
1438	3322
1439	3575
1440	3905
1441	3414
1442	3675
1443	3320
1444	3700
1445	3299
1446	3326
1447	3594
1448	3254
1449	3959
1450	3285
1451	3539
1452	3796
1453	3392
1454	3937
1455	3452
1456	3458
1457	3617
1458	3255
1459	3724
1460	3325
1461	3789
1462	3562
1463	3419
1464	3483
1465	3346
1466	3474
1467	3835
1468	3532
1469	3733
1470	3566
1471	3721
1472	3926
1473	3591
1474	3460
1475	3671
1476	4005
1477	3745
1478	3548
1479	3426
1480	3443
1481	3832
1482	3835
1483	3530
1484	3507
1485	3433
1486	3750
1487	3829
1488	4078
1489	3623
1490	3535
1491	3522
1492	3552
1493	3582
1494	3488
1495	3743
1496	3526
1497	3403
1498	3580
1499	3608
1500	3873
1501	3645
1502	3706
1503	3539
1504	3697
1505	3849
1506	3621
1507	3656
1508	3675
1509	3640
1510	3884
1511	3768
1512	3555
1513	3607
1514	3753
1515	3804
1516	3711
1517	3556
1518	3463
1519	3668
1520	3892
1521	3678
1522	3571
1523	3586
1524	3573
1525	3615
1526	3502
1527	3525
1528	3416
1529	4239
1530	3686
1531	3613
1532	3625
1533	3632
1534	3590
1535	3771
1536	3670
1537	3731
1538	3603
1539	3819
1540	3513
1541	3421
1542	3513
1543	3484
1544	3515
1545	3600
1546	3711
1547	3556
1548	3473
1549	3655
1550	3448
1551	3776
1552	3510
1553	3506
1554	3594
1555	3439
1556	3398
1557	3690
1558	3723
1559	3575
1560	3549
1561	3526
1562	3651
1563	3750
1564	3471
1565	3680
1566	3591
1567	3532
1568	3618
1569	3753
1570	3729
1571	3437
1572	3268
1573	3400
1574	3240
1575	3385
1576	3517
1577	3436
1578	3575
1579	3363
1580	3476
1581	3472
1582	3619
1583	3465
1584	3377
1585	3642
1586	3636
1587	3612
1588	3437
1589	3407
1590	3551
1591	3395
1592	3387
1593	3504
1594	3286
1595	3470
1596	3580
1597	3363
1598	3539
1599	3516
1600	3543
1601	3487
1602	3403
1603	3313
1604	3609
1605	3377
1606	3484
1607	3478
1608	3458
1609	3546
1610	3500
1611	3546
1612	3399
1613	3546
1614	3504
1615	3379
1616	3477
1617	3524
1618	3526
1619	3530
1620	3327
1621	3621
1622	3484
1623	3603
1624	3510
1625	3383
1626	3202
1627	3393
1628	3474
1629	3379
1630	3492
1631	3460
1632	3752
1633	3698
1634	3407
1635	3462
1636	3468
1637	3654
1638	3724
1639	3462
1640	3672
1641	3441
1642	3563
1643	3642
1644	3713
1645	3680
1646	3527
1647	3634
1648	3672
1649	3529
1650	3415
1651	3628
1652	3442
1653	3585
1654	3503
1655	3396
1656	3497
1657	3451
1658	3632
1659	3410
1660	3592
1661	3423
1662	3410
1663	3471
1664	3477
1665	3441
1666	3594
1667	3422
1668	3583
1669	3544
1670	3431
1671	3558
1672	3182
1673	3435
1674	3562
1675	3501
1676	3712
1677	3447
1678	3580
1679	3639
1680	3664
1681	3793
1682	3349
1683	3669
1684	3462
1685	3771
1686	3747
1687	3605
1688	3590
1689	3690
1690	3607
1691	3731
1692	3300
1693	3619
1694	3609
1695	3517
1696	3687
1697	3606
1698	3831
1699	3597
1700	3460
1701	3584
1702	3571
1703	3514
1704	3698
1705	3513
1706	3625
1707	3764
1708	3434
1709	3694
1710	3631
1711	3486
1712	3770
1713	3685
1714	3553
1715	3633
1716	3503
1717	3306
1718	3465
1719	3475
1720	3394
1721	3510
1722	3453
1723	3735
1724	3456
1725	3596
1726	3704
1727	3367
1728	3835
1729	3374
1730	3582
1731	3644
1732	3614
1733	3692
1734	3584
1735	3557
1736	3644
1737	3690
1738	3572
1739	3792
1740	3748
1741	3430
1742	3721
1743	3993
1744	3639
1745	3602
1746	3512
1747	3622
1748	3335
1749	3551
1750	3682
1751	3375
1752	3751
1753	3377
1754	3558
1755	3812
1756	3573
1757	3835
1758	3676
1759	3525
1760	4050
1761	3653
1762	3942
1763	3775
1764	3718
1765	4075
1766	3922
1767	3922
1768	4170
1769	3602
1770	3958
1771	3775
1772	4494
1773	4082
1774	3992
1775	3721
1776	3510
1777	3905
1778	3866
1779	3885
1780	4006
1781	3963
1782	4063
1783	3782
1784	4047
1785	4001
1786	3992
1787	4009
1788	3897
1789	4013
1790	3868
1791	3686
1792	4122
1793	4202
1794	4294
1795	4301
1796	3714
1797	4031
1798	3998
1799	4177
1800	4244
1801	4063
1802	3937
1803	3941
1804	4252
1805	3931
1806	4113
1807	3816
1808	4008
1809	4182
1810	3733
1811	4122
1812	3847
1813	4143
1814	4078
1815	3641
1816	4100
1817	4132
1818	4271
1819	4339
1820	3843
1821	4098
1822	3790
1823	4069
1824	4276
1825	3682
1826	4014
1827	3861
1828	4079
1829	4659
1830	3676
1831	4213
1832	4030
1833	3833
1834	4103
1835	3952
1836	4371
1837	3997
1838	3809
1839	4046
1840	3899
1841	3955
1842	4045
1843	3853
1844	4089
1845	3863
1846	4211
1847	4181
1848	3846
1849	4034
1850	3770
1851	3864
1852	4160
1853	4040
1854	4607
1855	3639
1856	3923
1857	3755
1858	4108
1859	4092
1860	3754
1861	4039
1862	3792
1863	3951
1864	3881
1865	3855
1866	4118
1867	3878
1868	3836
1869	3644
1870	3656
1871	3655
1872	3530
1873	3809
1874	3599
1875	3634
1876	3589
1877	3628
1878	3728
1879	3798
1880	3675
1881	3467
1882	3620
1883	3633
1884	3769
1885	3542
1886	3529
1887	3530
1888	3639
1889	3744
1890	3682
1891	3591
1892	3620
1893	3359
1894	3611
1895	3585
1896	3515
1897	3658
1898	3480
1899	3794
1900	3413
1901	3271
1902	3657
1903	3634
1904	4066
1905	3609
1906	3413
1907	3528
1908	3418
1909	3746
1910	3453
1911	3581
1912	3602
1913	3466
1914	3737
1915	3501
1916	3487
1917	3566
1918	3484
1919	3526
1920	3437
1921	3535
1922	3543
1923	3328
1924	3473
1925	3680
1926	3544
1927	3581
1928	3421
1929	3543
1930	3518
1931	3377
1932	3710
1933	3415
1934	3570
1935	3553
1936	3496
1937	3805
1938	3512
1939	3616
1940	3488
1941	3290
1942	3688
1943	3451
1944	3661
1945	3709
1946	3455
1947	3821
1948	3488
1949	3567
1950	3680
1951	3661
1952	3627
1953	3620
1954	3501
1955	3687
1956	3782
1957	3656
1958	3753
1959	3593
1960	3411
1961	3858
1962	3640
1963	3727
1964	3776
1965	3401
1966	3831
1967	3516
1968	3607
1969	3767
1970	3562
1971	3797
1972	3930
1973	3563
1974	3852
1975	3400
1976	3676
1977	3383
1978	3890
1979	4034
1980	3567
1981	3729
1982	3444
1983	3692
1984	3820
1985	3495
1986	3651
1987	3698
1988	3673
1989	3725
1990	3700
1991	3714
1992	3645
1993	3764
1994	3567
1995	3649
1996	3717
1997	3774
1998	3849
1999	3883
2000	3541
2001	3662
2002	3682
2003	3795
2004	3782
2005	3749
2006	3743
2007	3793
2008	3785
2009	3850
2010	3493
2011	3749
2012	3657
2013	3714
2014	3871
2015	3710
2016	3803
2017	3455
2018	3720
2019	3674
2020	3571
2021	3966
2022	3706
2023	3744
2024	3549
2025	3636
2026	3799
2027	3574
2028	3694
2029	3451
2030	3580
2031	3522
2032	3656
2033	3643
2034	3492
2035	3803
2036	3515
2037	3597
2038	3655
2039	3635
2040	3679
2041	3518
2042	3574
2043	3512
2044	3558
2045	3667
2046	3503
2047	3799
2048	3663
2049	3752
2050	3631
2051	3400
2052	3693
2053	3520
2054	3565
2055	3818
2056	3658
2057	3849
2058	3715
2059	3677
2060	3700
2061	3580
2062	3786
2063	3536
2064	3697
2065	3540
2066	3496
2067	3889
2068	3595
2069	3650
2070	3674
2071	3595
2072	3686
2073	3532
2074	3710
2075	3601
2076	3405
2077	3443
2078	3611
2079	3687
2080	3443
2081	3241
2082	3572
2083	3465
2084	3640
2085	3715
2086	3379
2087	3459
2088	3397
2089	3384
2090	3684
2091	3481
2092	3427
2093	3551
2094	3414
2095	3523
2096	3522
2097	3488
2098	3385
2099	3433
2100	3543
2101	3555
2102	3424
2103	3641
2104	3582
2105	3534
2106	3406
2107	3435
2108	3551
2109	3351
2110	3497
2111	3381
2112	3451
2113	3716
2114	3384
2115	3566
2116	3459
2117	3603
2118	3609
2119	3387
2120	3369
2121	3551
2122	3524
2123	3545
2124	3428
2125	3451
2126	3539
2127	3306
2128	3380
2129	3436
2130	3457
2131	3498
2132	3497
2133	3250
2134	3587
2135	3494
2136	3458
2137	3225
2138	3445
2139	3615
2140	3425
2141	3439
2142	3543
2143	3553
2144	3460
2145	3426
2146	3426
2147	3448
2148	3471
2149	3347
2150	3500
2151	3240
2152	3401
2153	3442
2154	3373
2155	3333
2156	3416
2157	3285
2158	3273
2159	3453
2160	3511
2161	3370
2162	3302
2163	3270
2164	3436
2165	3361
2166	3273
2167	3227
2168	3326
2169	3144
2170	3339
2171	3366
2172	3342
2173	3254
2174	3237
2175	3318
2176	3383
2177	3230
2178	3198
2179	3178
2180	3363
2181	3219
2182	3161
2183	3632
2184	3211
2185	3240
2186	3306
2187	3147
2188	3331
2189	3336
2190	3395
2191	3420
2192	3271
2193	3108
2194	3234
2195	3235
2196	3364
2197	3371
2198	3430
2199	3114
2200	3343
2201	3268
2202	3200
2203	3163
2204	3329
2205	3329
2206	3161
2207	3399
2208	3299
2209	3321
2210	3558
2211	3256
2212	3492
2213	3158
2214	3266
2215	3253
2216	3250
2217	3297
2218	3167
2219	3352
2220	3334
2221	3078
2222	3270
2223	3138
2224	3193
2225	3265
2226	3249
2227	3408
2228	3255
2229	3143
2230	3229
2231	3162
2232	3664
2233	3202
2234	3081
2235	3226
2236	3265
2237	3409
2238	3315
2239	3118
2240	3115
2241	3211
2242	3161
2243	3228
2244	3328
2245	3244
2246	3328
2247	3312
2248	3291
2249	3562
2250	3223
2251	3213
2252	3208
2253	3507
2254	3247
2255	3167
2256	3415
2257	3150
2258	3387
2259	3387
2260	3350
2261	3196
2262	3237
2263	3365
2264	3241
2265	3357
2266	3189
2267	3312
2268	3121
2269	3278
2270	3283
2271	3181
2272	3378
2273	3143
2274	3298
2275	3347
2276	3456
2277	3393
2278	3235
2279	3423
2280	3476
2281	3428
2282	3312
2283	3490
2284	3247
2285	3226
2286	3458
2287	3274
2288	3385
2289	3459
2290	3363
2291	3400
2292	3393
2293	3507
2294	3416
2295	3358
2296	3634
2297	3331
2298	3604
2299	3985
2300	3459
2301	3682
2302	3249
2303	3544
2304	3408
2305	3463
2306	3755
2307	3338
2308	3791
2309	3512
2310	3329
2311	3556
2312	3340
2313	3499
2314	3381
2315	3418
2316	3322
2317	3584
2318	3556
2319	3345
2320	3733
2321	3475
2322	3418
2323	3451
2324	3211
2325	3674
2326	3353
2327	3879
2328	3477
2329	3471
2330	3693
2331	3362
2332	3544
2333	3606
2334	3478
2335	3560
2336	3346
2337	3612
2338	3348
2339	3691
2340	3316
2341	3332
2342	3551
2343	3476
2344	3815
2345	3381
2346	3449
2347	3324
2348	3498
2349	3477
2350	3352
2351	3336
2352	3395
2353	3420
2354	3438
2355	3298
2356	3600
2357	3470
2358	3402
2359	3368
2360	3544
2361	3413
2362	3481
2363	3554
2364	3352
2365	3263
2366	3306
2367	3223
2368	3226
2369	3304
2370	3459
2371	3426
2372	3321
2373	3327
2374	3341
2375	3221
2376	3424
2377	3391
2378	3285
2379	3340
2380	3327
2381	3367
2382	3246
2383	3343
2384	3383
2385	3114
2386	3301
2387	3361
2388	3288
2389	3449
2390	3111
2391	3472
2392	3208
2393	3460
2394	3337
2395	3234
2396	3254
2397	3335
2398	3470
2399	3233
2400	3265
2401	3343
2402	3123
2403	3349
2404	3103
2405	3311
2406	3110
2407	3041
2408	3302
2409	3094
2410	3059
2411	3228
2412	2975
2413	3223
2414	3068
2415	3123
2416	3356
2417	3023
2418	3283
2419	3185
2420	3171
2421	3134
2422	2990
2423	3121
2424	3162
2425	3212
2426	3207
2427	3370
2428	3271
2429	3207
2430	3064
2431	3046
2432	3012
2433	3154
2434	3036
2435	3127
2436	2965
2437	3239
2438	3095
2439	3322
2440	3108
2441	2963
2442	2975
2443	3031
2444	3060
2445	3097
2446	3168
2447	3111
2448	3063
2449	3018
2450	3183
2451	3066
2452	3156
2453	3033
2454	3031
2455	3058
2456	3211
2457	3016
2458	3175
2459	2982

