Sender: LSF System <lsfadmin@node0086a>
Subject: Job 391943: <strand_GRCh38_encode_htsE_8> in cluster <thmorgan-cluster1> Done

Job <strand_GRCh38_encode_htsE_8> was submitted from host <node0074a> by user <aalonso> in cluster <thmorgan-cluster1>.
Job was executed on host(s) <node0086a>, in queue <normal>, as user <aalonso> in cluster <thmorgan-cluster1>.
</gpfs/gpfs1/home/aalonso> was used as the home directory.
</gpfs/gpfs1/home/aalonso> was used as the working directory.
Started at Fri Feb 26 00:14:51 2016
Results reported on Fri Feb 26 02:12:34 2016

Your job looked like:

------------------------------------------------------------
# LSBATCH: User input
/gpfs/gpfs1/software/HTSeq-0.5.3/bin/htseq-count --stranded=yes -m union -i exon_id -q /gpfs/gpfs1/home/aalonso/article/stranded_GSE69241/strand_GRCh38_encode/results_star/TS_2_Aligned.out.sam /gpfs/gpfs1/myerslab/reference/genomes/rnaseq_pipeline/bedpipe/genomes_processed/GRCh38_E83/genesets.gtf > /gpfs/gpfs1/home/aalonso/article/stranded_GSE69241/strand_GRCh38_encode/results_htseq-exon/TS_2.tab && (echo 'TS_2' >> /gpfs/gpfs1/home/aalonso/article/stranded_GSE69241/strand_GRCh38_encode/results_htseq-exon/samples_ok.txt) || (echo 'TS_2' >> /gpfs/gpfs1/home/aalonso/article/stranded_GSE69241/strand_GRCh38_encode/results_htseq-exon/samples_ko.txt)

------------------------------------------------------------

Successfully completed.

Resource usage summary:

    CPU time :                                   7131.06 sec.
    Max Memory :                                 339 MB
    Average Memory :                             332.85 MB
    Total Requested Memory :                     -
    Delta Memory :                               -
    Max Swap :                                   736 MB
    Max Processes :                              4
    Max Threads :                                5

The output (if any) follows:

